Place,Name,Sex,Age,Country,Equipment,Division,BodyweightKg,WeightClassKg,Squat1Kg,Squat2Kg,Squat3Kg,Squat4Kg,Best3SquatKg,Bench1Kg,Bench2Kg,Bench3Kg,Bench4Kg,Best3BenchKg,Deadlift1Kg,Deadlift2Kg,Deadlift3Kg,Deadlift4Kg,Best3DeadliftKg,TotalKg,Event,BirthDate
1,Chun-Kit Kan,M,44,UK,Raw,M_MR_1_AWPC,81.75,82.5,165,175,182.5,,182.5,105,-112.5,-112.5,,105,200,217.5,227.5,,227.5,515,SBD,
1,Stephen Wilcox,M,48,UK,Raw,M_MR_2_AWPC,99,100,160,170,180,,180,140,150,-155,,150,230,240,-250,,240,570,SBD,
1,Nick Simpson #1,M,51,UK,Raw,M_MR_3_AWPC,99.3,100,150,180,,,180,160,-172.5,-172.5,,160,200,220,240,,240,580,SBD,
1,Steven Middleton-Lowes,M,51,UK,Raw,M_MR_3_AWPC,106.35,110,-225,225,240,,240,120,130,140,,140,240,262.5,-282.5,,262.5,642.5,SBD,
1,Paul Coats,M,55,USA,Raw,M_MR_4_AWPC,74.9,75,-160,160,-180.5,,160,115,117.5,120.5,,120.5,205,218,-227.5,,218,498.5,SBD,
1,David Burshtan,M,60,USA,Raw,M_MR_5_AWPC,99.55,100,147.5,157.5,-162.5,,157.5,110,120,125,,125,142.5,155,162.5,,162.5,445,SBD,
2,Mark Johnson #1,M,61,UK,Raw,M_MR_5_AWPC,99.55,100,145,-152.5,-152.5,,145,95,-100,-100,,95,187.5,200,-205,,200,440,SBD,
1,Peter Oram,M,68,UK,Raw,M_MR_6_AWPC,88.65,90,135,-145,-145,,135,77.5,-85,-85,,77.5,195,217.5,-227.5,,217.5,430,SBD,
1,Ed Griffiths,M,30,UK,Raw,M_OR_AWPC,66.65,67.5,170,180,187.5,,187.5,117.5,122.5,125,,125,202.5,-215,-222.5,,202.5,515,SBD,
1,Thomas Regan,M,28,UK,Raw,M_OR_AWPC,73.85,75,180,190,195,,195,107.5,112.5,-115,,112.5,230,240,,,240,547.5,SBD,
2,Paul Coats,M,55,USA,Raw,M_OR_AWPC,74.9,75,-160,160,-180.5,,160,115,117.5,120.5,,120.5,205,218,-227.5,,218,498.5,SBD,
3,Tom Brindley,M,27,UK,Raw,M_OR_AWPC,74.95,75,125,140,150,,150,90,-92.5,92.5,,92.5,152.5,165,167.5,,167.5,410,SBD,
1,Martin Wilson #1,M,33,UK,Raw,M_OR_AWPC,80.35,82.5,177.5,185,192.5,,192.5,115,122.5,127.5,,127.5,250,265,-275,,265,585,SBD,
2,Chris Maylunn,M,28,UK,Raw,M_OR_AWPC,80.35,82.5,175,182.5,-192.5,,182.5,122.5,130,-135,,130,220,227.5,-235,,227.5,540,SBD,
3,James Baldwin #2,M,26,UK,Raw,M_OR_AWPC,82.15,82.5,167.5,172.5,-175,,172.5,132.5,135,137.5,,137.5,222.5,227.5,-232.5,,227.5,537.5,SBD,
1,William Swanwick,M,23,UK,Raw,M_OR_AWPC,88.75,90,202.5,210,215,,215,125,132.5,-137.5,,132.5,195,212.5,220,,220,567.5,SBD,
2,Jacob Jabbari,M,30,UK,Raw,M_OR_AWPC,87,90,162.5,172.5,177.5,,177.5,110,117.5,122.5,,122.5,210,220,-225,,220,520,SBD,
1,Leon Parry,M,30,UK,Raw,M_OR_AWPC,99.55,100,-195,207.5,-217.5,,207.5,157.5,165,170,,170,225,245,-260,,245,622.5,SBD,
2,Connor Liam-Cooper,M,25,UK,Raw,M_OR_AWPC,97.15,100,190,200,207.5,,207.5,140,150,-155,,150,225,235,-242.5,,235,592.5,SBD,
1,Alex Maynard,M,28,UK,Raw,M_OR_AWPC,108.85,110,230,250,255,,255,145,155,160,,160,260,275,285,,285,700,SBD,
2,Steven Middleton-Lowes,M,51,UK,Raw,M_OR_AWPC,106.35,110,-225,225,240,,240,120,130,140,,140,240,262.5,-282.5,,262.5,642.5,SBD,
3,Alexander Callard,M,30,UK,Raw,M_OR_AWPC,108.55,110,-195,195,200,,200,130,135,-140,,135,250,260,-265,,260,595,SBD,
1,Ashley Fleuty,M,30,UK,Raw,M_OR_AWPC,136.95,140,185,195,-205,,195,155,160,165,,165,250,255,260,,260,620,SBD,
2,Dennis O'Shea,M,37,UK,Raw,M_OR_AWPC,138.4,140,175,185,195,,195,142.5,147.5,152.5,,152.5,240,250,-260,,250,597.5,SBD,
1,Neil Bustin,M,41,UK,Wraps,M_MCR_1_AWPC,105.8,110,180,-190,190,,190,130,135,-140,,135,210,230,-240,,230,555,SBD,
1,Chris Farrow,M,40,UK,Wraps,M_MCR_1_AWPC,121.65,125,212.5,222.5,-232.5,,222.5,145,155,160,,160,230,240,252.5,,252.5,635,SBD,
1,Sebastien Gagnon,M,45,Canada,Wraps,M_MCR_2_AWPC,80.95,82.5,147.5,157.5,165,,165,105,110,115,,115,187.5,197.5,205,,205,485,SBD,
1,Kevin Holland,M,45,Ireland,Wraps,M_MCR_2_AWPC,88.7,90,175,195,-205,,195,115,120,122.5,,122.5,185,200,-205,,200,517.5,SBD,
1,Colin Davies,M,48,UK,Wraps,M_MCR_2_AWPC,108.2,110,185,197.5,205,,205,110,115,117.5,,117.5,195,207.5,215,,215,537.5,SBD,
1,Radoslaw Pakulski,M,46,UK,Wraps,M_MCR_2_AWPC,163.15,140+,250,270,290,302.5,290,135,145,152.5,,152.5,250,275,-292.5,,275,717.5,SBD,
DQ,Hemantkumar Tribhovandas Patel,M,52,India,Wraps,M_MCR_3_AWPC,88.4,90,-100,,-105,,,,,,,,,,,,,,SBD,
1,Pete Tryner,M,50,UK,Wraps,M_MCR_3_AWPC,99.3,100,225,237.5,245,,245,145,150,155,,155,270,300,-312.5,,300,700,SBD,
DQ,Tom Hunter,M,51,UK,Wraps,M_MCR_3_AWPC,97.55,100,-155,-165,-165,,,,,,,,,,,,,,SBD,
1,Richard Baker #2,M,52,UK,Wraps,M_MCR_3_AWPC,117.55,125,245,260,270.5,,270.5,155,162.5,170,,170,240,260,-272.5,,260,700.5,SBD,
1,Dumas Maugile,M,56,UK,Wraps,M_MCR_4_AWPC,82.45,82.5,162.5,172.5,180,,180,115,122.5,127.5,,127.5,200,212.5,217.5,,217.5,525,SBD,
1,Peter Gunn,M,56,UK,Wraps,M_MCR_4_AWPC,98.55,100,145,-155,155,,155,90,95,-100,,95,165,175,185,,185,435,SBD,
1,John Dolan #2,M,66,UK,Wraps,M_MCR_6_AWPC,98.2,100,130,-135,135,,135,-95,95,100,,100,155,165,-175,,165,400,SBD,
1,Navinkumar Makwana,M,29,,Wraps,M_OCR_AWPC,62.85,67.5,120,-135,-135,,120,80,-90,-90,,80,140,152.5,160,,160,360,SBD,
1,Nick Thomas #2,M,32,UK,Raw,M_OCR_AWPC,73.75,75,182.5,197.5,205,,205,117.5,130,137.5,,137.5,210,230,-237.5,,230,572.5,SBD,
2,Josh Chamberlaine,M,33,UK,Wraps,M_OCR_AWPC,73.45,75,200,-210,210,,210,110,115,120,,120,220,230,-242.5,,230,560,SBD,
3,Marats Halilovs,M,32,UK,Wraps,M_OCR_AWPC,71.55,75,175,195,-205,,195,120,132.5,-140,,132.5,220,-230,,,220,547.5,SBD,
1,Paul Beattie,M,34,UK,Wraps,M_OCR_AWPC,81.75,82.5,240,260,272.5,,272.5,150,160,165,,165,265,285,-297.5,,285,722.5,SBD,
2,Steve Dando,M,34,UK,Wraps,M_OCR_AWPC,80.35,82.5,210,222.5,232.5,,232.5,120,127.5,-135,,127.5,210,222.5,-235,,222.5,582.5,SBD,
1,Dawid Chrysafis,M,24,Poland,Wraps,M_OCR_AWPC,87.9,90,220,235,-242.5,,235,155,160,-165,,160,-225,235,245,,245,640,SBD,
2,Chay Boare,M,36,UK,Wraps,M_OCR_AWPC,87.2,90,-240,252.5,-260,,252.5,130,137.5,142.5,,142.5,222.5,235,242.5,,242.5,637.5,SBD,
3,Rob Clark #1,M,35,UK,Wraps,M_OCR_AWPC,84.75,90,210,220,-225,,220,122.5,132.5,140,,140,225,240,250,,250,610,SBD,
DQ,David Eaton,M,33,UK,Wraps,M_OCR_AWPC,89.15,90,230,245,-255,,245,150,165,-172.5,,165,-255,-285,-285,,,,SBD,
1,Ben Thornes,M,34,UK,Wraps,M_OCR_AWPC,98.35,100,250,270,-275,,270,135,142.5,147.5,,147.5,270,290,305,,305,722.5,SBD,
2,Pete Tryner,M,50,UK,Wraps,M_OCR_AWPC,99.3,100,225,237.5,245,,245,145,150,155,,155,270,300,-312.5,,300,700,SBD,
3,Stewart Hill,M,33,UK,Wraps,M_OCR_AWPC,99.95,100,225,242.5,250,,250,150,160,165,,165,250,270,280,,280,695,SBD,
1,William Newton #1,M,36,UK,Wraps,M_OCR_AWPC,109.85,110,275,290,310,,310,175,-182.5,-185,,175,315,332.5,345.5,,345.5,830.5,SBD,
2,John Marsden #1,M,37,UK,Wraps,M_OCR_AWPC,109.95,110,280,300,310,,310,165,172.5,-177.5,,172.5,285,295,305,,305,787.5,SBD,
3,Jordan Iliffe,M,31,UK,Wraps,M_OCR_AWPC,107.8,110,-260,-260,260,,260,140,150,155,,155,270,290,,,290,705,SBD,
4,Shaktisinh Solanki,M,27,India,Wraps,M_OCR_AWPC,102.5,110,-170,170,-175,,170,90,92.5,97.5,,97.5,170,180,-195,,180,447.5,SBD,
1,Richard Baker #2,M,52,UK,Wraps,M_OCR_AWPC,117.55,125,245,260,270.5,,270.5,155,162.5,170,,170,240,260,-272.5,,260,700.5,SBD,
2,John Strange,M,37,UK,Wraps,M_OCR_AWPC,122.7,125,240,247.5,250,,250,110,120,125,,125,240,250,262.5,,262.5,637.5,SBD,
3,Angus Craddock,M,31,UK,Wraps,M_OCR_AWPC,123.45,125,220,232.5,-235,,232.5,142.5,-152.5,-152.5,,142.5,230,-245,,,230,605,SBD,
4,Shane Clavin,M,37,Ireland,Wraps,M_OCR_AWPC,120.35,125,195,210,222.5,,222.5,97.5,105,110,,110,200,212.5,215,,215,547.5,SBD,
1,Julian McKerrow,M,32,UK,Wraps,M_OCR_AWPC,127.7,140,250,-270,-275,,250,182.5,192.5,-200.5,,192.5,305,-320.5,-320.5,,305,747.5,SBD,
1,Maisie MacCormack,F,,UK,Raw,F_JR_AWPC,58.4,60,112.5,-120,120,,120,-65,67.5,-72.5,,67.5,145,155,160,,160,347.5,SBD,
2,Chelsea Byrom,F,23,UK,Raw,F_JR_AWPC,60,60,125,130,132.5,,132.5,65,67.5,70,,70,135,145,-152.5,,145,347.5,SBD,
1,Kim Eastwood,F,23,UK,Raw,F_JR_AWPC,67,67.5,120,-130,130,,130,65,72.5,-75,,72.5,120,132.5,137.5,,137.5,340,SBD,
1,Anokhi Patel #1,F,23,,Raw,F_JR_AWPC,86.5,90,75,90,102.5,,102.5,40,47.5,50,,50,110,125,132.5,,132.5,285,SBD,
1,Michelle Vettese,F,40,UK,Raw,F_MR_1_AWPC,58.7,60,102.5,107.5,112.5,,112.5,55,60,62.5,,62.5,120,132.5,-137.5,,132.5,307.5,SBD,
1,Laura Smith #1,F,41,UK,Raw,F_MR_1_AWPC,63.3,67.5,112.5,117.5,125,,125,45,50,57.5,,57.5,-122.5,122.5,137.5,-151,137.5,320,SBD,
2,Vikki Thomas,F,42,UK,Raw,F_MR_1_AWPC,64.8,67.5,102.5,110,115,,115,45,50,52.5,,52.5,120,127.5,-132.5,,127.5,295,SBD,
1,Candice Westaway,F,40,UK,Raw,F_MR_1_AWPC,72.45,75,107.5,112.5,115,,115,67.5,72.5,-75.5,,72.5,127.5,130,135,,135,322.5,SBD,
1,Leighanne Russell,F,40,UK,Raw,F_MR_1_AWPC,86.7,90,160,167.5,172.5,,172.5,82.5,87.5,-90,,87.5,-182.5,182.5,190.5,,190.5,450.5,SBD,
1,Donna Bradbury,F,48,UK,Raw,F_MR_2_AWPC,58,60,110,-117.5,-117.5,,110,65,67.5,70,,70,130,137.5,145,,145,325,SBD,
2,Sarah Bickley,F,49,UK,Raw,F_MR_2_AWPC,59.2,60,100,-107.5,107.5,,107.5,57.5,62.5,-65,,62.5,130,140,145,,145,315,SBD,
1,Imogen Skoulding,F,47,UK,Raw,F_MR_2_AWPC,66.75,67.5,105,115,120,,120,67.5,72.5,75,,75,120,130,140,,140,335,SBD,
1,Mary Mason-Darby,F,49,UK,Raw,F_MR_2_AWPC,74.6,75,80,90,-100,,90,50,55,57.5,,57.5,105,115,120,,120,267.5,SBD,
1,Bhavna Tokekar,F,50,India,Raw,F_MR_3_AWPC,70.8,75,80,90,95,102.5,95,67.5,72.5,77.5,80,77.5,110,120,127.5,132.5,127.5,300,SBD,
1,Julie Green #1,F,54,UK,Raw,F_MR_3_AWPC,105.8,110,110,125,-130,,125,65,70,72.5,,72.5,125,135,142.5,,142.5,340,SBD,
1,Diana Chimhundu,F,58,UK,Raw,F_MR_4_AWPC,66.4,67.5,100,102.5,105,,105,47.5,52.5,55,,55,137.5,142.5,145,,145,305,SBD,
1,Deb Harris,F,55,UK,Raw,F_MR_4_AWPC,80.7,82.5,100,110,115,,115,62.5,-67.5,-67.5,,62.5,140,-150,150,157.5,150,327.5,SBD,
2,Hetty Salmon,F,56,UK,Raw,F_MR_4_AWPC,81.2,82.5,90,95,-97.5,,95,62.5,67.5,70,70.5,70,107.5,117.5,120,,120,285,SBD,
1,Diane Romano-Woodward,F,67,UK,Raw,F_MR_6_AWPC,83.5,90,95,105,-110,,105,55,62.5,65,66,65,110,120,-130,,120,290,SBD,
1,Emily Bullock,F,34,UK,Raw,F_OR_AWPC,47.7,48,97.5,105,107.5,,107.5,45,50,-52.5,,50,120,130,135.5,,135.5,293,SBD,
1,Maria McShane,F,34,Ireland,Raw,F_OR_AWPC,56,56,90,100,-105,,100,45,50,-52.5,,50,152.5,160,-173,,160,310,SBD,
1,Beckie Hebson,F,38,UK,Raw,F_OR_AWPC,59.5,60,110,120,-130,,120,62.5,65,-67.5,,65,140,150,-152.5,,150,335,SBD,
2,Tehya-Leonie Kirby,F,24,UK,Raw,F_OR_AWPC,56.5,60,110,-117.5,117.5,,117.5,55,60,-67.5,,60,110,120,130,,130,307.5,SBD,
3,Hallie Aldred,F,36,UK,Raw,F_OR_AWPC,59,60,85,90,95,,95,52.5,57.5,-60,,57.5,125,132.5,-137.5,,132.5,285,SBD,
1,Siobhan Read,F,32,UK,Raw,F_OR_AWPC,64.5,67.5,120,130,140,,140,85,92.5,95,,95,160,172.5,-185,,172.5,407.5,SBD,
2,Michaela Owen-Clark,F,36,UK,Raw,F_OR_AWPC,67,67.5,140,147.5,-152.5,,147.5,77.5,82.5,-87.5,,82.5,155,162.5,-170,,162.5,392.5,SBD,
DQ,Emma Wilding,F,26,UK,Raw,F_OR_AWPC,74,75,95,102.5,-107.5,,102.5,-67.5,-67.5,-67.5,,,127.5,137.5,150,,150,,SBD,
1,Katie Baxter,F,28,UK,Raw,F_OR_AWPC,81.6,82.5,127.5,135,140,,140,75,80,-82.5,,80,130,140,152.5,,152.5,372.5,SBD,
2,Charlotte Bouvey,F,35,UK,Raw,F_OR_AWPC,77.8,82.5,102.5,107.5,-110,,107.5,57.5,60,-65,,60,127.5,132.5,-137.5,,132.5,300,SBD,
2,Georgina Watts,F,29,UK,Raw,F_OR_AWPC,84.3,90,120,130,135,,135,70,75,80,,80,130,140,145,,145,360,SBD,
3,Lisa Murgatroyd,F,33,UK,Raw,F_OR_AWPC,87.4,90,127.5,135,145,,145,60,-65,65,,65,127.5,135,-142.5,,135,345,SBD,
1,Leighanne Russell,F,40,UK,Raw,F_OR_AWPC,86.7,90,160,167.5,172.5,,172.5,82.5,87.5,-90,,87.5,-182.5,182.5,190.5,,190.5,450.5,SBD,
1,Alex Young #2,F,31,UK,Raw,F_OR_AWPC,125.1,110+,187.5,195,-200,,195,90,100,-107.5,,100,155,170,182.5,,182.5,477.5,SBD,
2,Emily Gardner #3,F,39,UK,Raw,F_OR_AWPC,113.8,110+,140,-150,150,,150,60,65,70,,70,140,150,-160,,150,370,SBD,
1,Tegan Eason,F,15,UK,Raw,F_TR_1_AWPC,47.1,48,75,85,90,,90,32.5,37.5,42.5,,42.5,75,85,92.5,,92.5,225,SBD,
1,Jenna Pettersen,F,14,USA,Raw,F_TR_1_AWPC,73.5,75,62.5,67.5,-80,,67.5,55,57.5,60,60.5,60,105,117.5,122.5,133,122.5,250,SBD,
1,Aarya Jain,F,15,India,Raw,F_TR_1_AWPC,86.6,90,85,95,105,,105,42.5,47.5,-52.5,,47.5,95,102.5,110,,110,262.5,SBD,
1,Isabelle Simper,F,16,UK,Raw,F_TR_2_AWPC,50.2,52,95,100,105,,105,55,60,-65,,60,130,140,145,-150,145,310,SBD,
1,Allana Hillman,F,17,UK,Raw,F_TR_2_AWPC,94.2,100,100,112.5,130,150,130,52.5,60,-65,,60,110,125,135,140,135,325,SBD,
1,Lily Churchyard,F,19,UK,Raw,F_TR_3_AWPC,42,44,55,60,65,,65,40,45,-48,,45,-95,95,-100,,95,205,SBD,
1,Chardonnay Holwell-Russell,F,18,UK,Raw,F_TR_3_AWPC,72.2,75,100,110,117.5,,117.5,45,50,-57.5,,50,125,135,140,,140,307.5,SBD,
1,Lewis Wilkinson #1,M,23,UK,Raw,M_JR_AWPC,73.45,75,-145,150,155,,155,100,105,107.5,,107.5,180,190,-195,,190,452.5,SBD,
2,Ben Fleming,M,20,Ireland,Raw,M_JR_AWPC,72.5,75,120,127.5,130,,130,75,80,-82.5,,80,160,167.5,172.5,,172.5,382.5,SBD,
1,Owen Crisp,M,23,UK,Raw,M_JR_AWPC,81.3,82.5,132.5,142.5,-147.5,,142.5,90,-100,-100,,90,170,180,185,,185,417.5,SBD,
1,David Fitzgerald #1,M,21,Ireland,Raw,M_JR_AWPC,87.3,90,212.5,217.5,222.5,,222.5,142.5,150,152.5,,152.5,-235,235,-250,,235,610,SBD,
2,Adam Buckle,M,20,UK,Raw,M_JR_AWPC,85.85,90,200,205,210,,210,130,-137.5,-137.5,,130,210,-215,-217.5,,210,550,SBD,
3,Sebastian Adamatzky,M,22,UK,Raw,M_JR_AWPC,88.55,90,145,155,-160,,155,95,100,102.5,,102.5,185,205,210,,210,467.5,SBD,
1,Alexandru Tudor Ulianov,M,23,UK,Raw,M_JR_AWPC,98.25,100,185,200,-212.5,,200,140,-150,-150,,140,240,255,-265,,255,595,SBD,
1,Sam Picknett,M,23,UK,Raw,M_JR_AWPC,109.3,110,160,170,180,,180,100,105,107.5,,107.5,200,-212.5,-212.5,,200,487.5,SBD,
1,Dave Githutu,M,18,USA,Wraps,M_TCR_3_AWPC,49.35,52,72.5,87.5,92.5,,92.5,57.5,67.5,70,,70,92.5,110,-120,,110,272.5,SBD,
1,Gregory Pearson,M,14,UK,Raw,M_TR_1_AWPC,66.9,67.5,160,170.5,180,,180,110,120.5,125,,125,200.5,217.5,-222.5,,217.5,522.5,SBD,
1,Mackenzie Baker #2,M,15,UK,Raw,M_TR_1_AWPC,74.6,75,115,120,125,,125,65,70,-75,,70,155,167.5,177.5,,177.5,372.5,SBD,
1,Ty Copeland,M,15,UK,Raw,M_TR_1_AWPC,79.7,82.5,150,160,-172.5,,160,100,110,,,110,180,190,-202.5,,190,460,SBD,
1,Jay Penny,M,19,UK,Raw,M_TR_3_AWPC,81.6,82.5,172.5,185,192.5,,192.5,107.5,112.5,-117.5,,112.5,182.5,195,202.5,,202.5,507.5,SBD,
1,Jake Lee #1,M,21,UK,Wraps,M_JCR_AWPC,74.2,75,-190,-200,205,,205,135,142.5,-147.5,,142.5,210,220,-227.5,,220,567.5,SBD,
2,Dylan Evans #1,M,23,UK,Wraps,M_JCR_AWPC,74.75,75,-165,165,-175,,165,107.5,115,120,,120,225,235.5,-240,,235.5,520.5,SBD,
1,Ollie Guiblin,M,22,UK,Wraps,M_JCR_AWPC,81.85,82.5,215,230,240,,240,115,120,125,,125,220,240,250,,250,615,SBD,
2,Jay Holland,M,21,Ireland,Wraps,M_JCR_AWPC,81.85,82.5,220,240.5,-245,,240.5,120,125,130,,130,217.5,222.5,-232.5,,222.5,593,SBD,
3,Tobias Saad,M,23,Canada,Raw,M_JCR_AWPC,78.8,82.5,185,195,210,,210,115,120,-122.5,,120,240,255,260,,260,590,SBD,
4,Kamran Davies,M,23,UK,Wraps,M_JCR_AWPC,81.6,82.5,190,200,-205,,200,140,-145,-145,,140,250,-260,-260,,250,590,SBD,
5,William Watson #2,M,22,UK,Wraps,M_JCR_AWPC,82.25,82.5,185,195,-205,,195,120,130,-132.5,,130,215,225,230,,230,555,SBD,
6,Darsh Madhani,M,20,India,Wraps,M_JCR_AWPC,81.65,82.5,-150,-165,170,,170,100,105,-115,,105,160,175,-190,,175,450,SBD,
1,Kieran Griffith,M,20,UK,Wraps,M_JCR_AWPC,89.85,90,215,225,-232.5,,225,150,155,160,,160,235,245,250,,250,635,SBD,
2,Arjun Singh Mandeir,M,22,UK,Wraps,M_JCR_AWPC,89.2,90,205,215,225,,225,140,145,152.5,,152.5,240,250,255,,255,632.5,SBD,
3,Luke Robinson #3,M,22,UK,Wraps,M_JCR_AWPC,86.9,90,200,222.5,-232.5,,222.5,115,122.5,130,,130,215,225,-237.5,,225,577.5,SBD,
1,Stephen Taylor #1,M,23,UK,Wraps,M_JCR_AWPC,92.75,100,230,-250,252.5,,252.5,147.5,157.5,-162.5,,157.5,190,207.5,-222.5,,207.5,617.5,SBD,
2,Samuel Cary,M,20,UK,Wraps,M_JCR_AWPC,99,100,185,195,200,,200,102.5,110,-112.5,,110,205,225,-237.5,,225,535,SBD,
3,Callum Golding,M,23,Ireland,Wraps,M_JCR_AWPC,97.8,100,170,182.5,190,,190,112.5,-122.5,-125,,112.5,210,225,-237.5,,225,527.5,SBD,
1,Cameron Morris #2,M,20,UK,Wraps,M_JCR_AWPC,124.6,125,200,210,-215,,210,120,130,-140,,130,205,220,-230,,220,560,SBD,
1,Danyal Hussain,M,14,UK,Wraps,M_TCR_1_AWPC,42.55,52,87.5,90,,,90,40,45,-47.5,,45,100,-110,110,,110,245,SBD,
1,Louie Wright,M,15,UK,Wraps,M_TCR_1_AWPC,64.6,67.5,-195,-207.5,207.5,,207.5,95,-102.5,102.5,,102.5,205,215,222.5,,222.5,532.5,SBD,
2,Scott Holland,M,13,Ireland,Wraps,M_TCR_1_AWPC,66.35,67.5,80,90,95,,95,52.5,57.5,60,,60,105,115,120,,120,275,SBD,
1,Ben Hammond #2,M,17,UK,Wraps,M_TCR_2_AWPC,73.55,75,180,195,-202.5,,195,90,100,-105,,100,185,205,212.5,,212.5,507.5,SBD,
1,Leo Hughes,M,16,UK,Wraps,M_TCR_2_AWPC,79.75,82.5,175,185,-190,,185,77.5,87.5,-90,,87.5,175,187.5,-200,,187.5,460,SBD,
1,Oisin Smith,M,16,Ireland,Wraps,M_TCR_2_AWPC,88.5,90,172.5,-182.5,182.5,,182.5,100,105,-107.5,,105,195,205,210,,210,497.5,SBD,
1,Thomas Bennett #1,M,18,UK,Wraps,M_TCR_3_AWPC,73.4,75,200,212.5,220,225,220,115,122.5,-127.5,,122.5,205,215,220,,220,562.5,SBD,
2,Conlan Davies,M,19,UK,Wraps,M_TCR_3_AWPC,73.5,75,180,190,-200,,190,110,120,-130,,120,230,240,-245,,240,550,SBD,
1,George Goldsmith,M,19,UK,Wraps,M_TCR_3_AWPC,89.7,90,217.5,232.5,242.5,250.5,242.5,-120,125,130,,130,202.5,217.5,227.5,,227.5,600,SBD,
1,Josh Beddall,M,19,UK,Wraps,M_TCR_3_AWPC,98.9,100,290,-302.5,,,290,150,-160,-160,,150,270,-285,-285,,270,710,SBD,
2,Nathan Fleming #2,M,19,UK,Wraps,M_TCR_3_AWPC,96.3,100,180,192.5,-195,,192.5,112.5,117.5,-125,,117.5,220,227.5,240,,240,550,SBD,
1,Ellen Fitzgibbons,F,22,UK,Wraps,F_JCR_AWPC,50.8,52,120,122.5,-125,,122.5,67.5,70,70.5,72.5,70.5,125,130,135,137.5,135,328,SBD,
1,Megan Weir,F,20,Ireland,Wraps,F_JCR_AWPC,55.7,56,115,120.5,125,,125,50,55,-57.5,,55,132.5,140,-145,,140,320,SBD,
2,Alexia Grant,F,23,UK,Wraps,F_JCR_AWPC,55.8,56,90,92.5,95,,95,62.5,65,67.5,,67.5,110,115,120,,120,282.5,SBD,
3,Lily Coward,F,20,UK,Wraps,F_JCR_AWPC,55.9,56,100,-107.5,-107.5,,100,40,42.5,45,,45,122.5,-132.5,-132.5,,122.5,267.5,SBD,
1,Lucy Febrey,F,21,UK,Wraps,F_JCR_AWPC,59.3,60,130,135,140,,140,62.5,67.5,-70,,67.5,130,140,142.5,,142.5,350,SBD,
2,Jennifer Childerhouse,F,21,UK,Wraps,F_JCR_AWPC,58.7,60,127.5,136,-141,,136,57.5,-60,60,,60,135,142.5,147.5,,147.5,343.5,SBD,
1,Tashana Gregory-Bailey,F,20,UK,Wraps,F_JCR_AWPC,66.2,67.5,-90,90,115,,115,55,60,63,65,63,90,110,120,,120,298,SBD,
1,Rhiannon Lamb,F,23,UK,Wraps,F_JCR_AWPC,72.6,75,140,-153,153,,153,65,70,-75,,70,145,155,-160,,155,378,SBD,
1,Jordan Byrne,F,23,UK,Wraps,F_JCR_AWPC,82.4,82.5,155,167.5,173,,173,87.5,92.5,-96.5,,92.5,152.5,-165,-165,,152.5,418,SBD,
2,Kimberley O'Dell,F,21,Canada,Wraps,F_JCR_AWPC,81.9,82.5,122.5,130,-135,,130,80,-82.5,-85,,80,145,150,155,,155,365,SBD,
1,Anokhi Patel #1,F,23,India,Wraps,F_JCR_AWPC,85.4,90,-100,102.5,-107.5,,102.5,40,50,52.5,,52.5,100,105,125,,125,280,SBD,
1,Phoebe Wing,F,23,UK,Wraps,F_JCR_AWPC,99.5,100,147.5,157.5,167.5,,167.5,62.5,67.5,-70,,67.5,155,165,-175,,165,400,SBD,
1,Nathalie Allaire,F,40,Canada,Wraps,F_MCR_1_AWPC,59.5,60,102.5,110,-115,,110,55,-57.5,-57.5,,55,125,-137.5,-137.5,,125,290,SBD,
1,Amanda Gisby,F,40,UK,Wraps,F_MCR_1_AWPC,63.6,67.5,140,150,156,,156,62.5,67.5,-70,,67.5,155,165,-171,,165,388.5,SBD,
1,Aaniethaa Singan,F,42,India,Wraps,F_MCR_1_AWPC,74.5,75,-125,-125,125,,125,67.5,70,-72.5,,70,135,140,-142.5,,140,335,SBD,
2,Emma Donnelly,F,44,UK,Wraps,F_MCR_1_AWPC,70.4,75,100,110,115,,115,-70,70,-75,,70,-130,130,142.5,,142.5,327.5,SBD,
1,Elizabeth Elliott,F,43,UK,Wraps,F_MCR_1_AWPC,79.8,82.5,105,115,-122.5,,115,67.5,72.5,77.5,,77.5,150,160,-170,,160,352.5,SBD,
2,Diane Duignan,F,44,Ireland,Wraps,F_MCR_1_AWPC,80.4,82.5,100,110,117.5,,117.5,45,47.5,-50,,47.5,120,127.5,-132.5,,127.5,292.5,SBD,
1,Viv Dickinson,F,41,UK,Wraps,F_MCR_1_AWPC,94.95,100,-140,-140,140,,140,70,72.5,75,-77.5,75,115,125,-130,,125,340,SBD,
1,Suzanne Bolt,F,48,UK,Wraps,F_MCR_2_AWPC,64.1,67.5,110,115,120,,120,57.5,62.5,-65,,62.5,130,135,140,,140,322.5,SBD,
2,Nicky Edgar,F,47,UK,Wraps,F_MCR_2_AWPC,67,67.5,110,115,120,,120,50,55,-57.5,,55,125,132.5,137.5,,137.5,312.5,SBD,
1,Kaye Mercer,F,46,Australia,Wraps,F_MCR_2_AWPC,75.7,82.5,130,140,147.5,,147.5,65,67.5,72.5,,72.5,145,157.5,-168.5,,157.5,377.5,SBD,
1,Christine Sanchez,F,47,Canada,Wraps,F_MCR_2_AWPC,89.4,90,115,120,-127.5,,120,70,75,-77.5,,75,137.5,145,-150,,145,340,SBD,
1,Robin Miller,F,52,USA,Wraps,F_MCR_3_AWPC,59.6,60,90,-102.5,102.5,,102.5,72.5,77.5,-81,,77.5,135,152.5,157.5,,157.5,337.5,SBD,
2,Aneela Rose,F,51,UK,Wraps,F_MCR_3_AWPC,58.8,60,80,87.5,92.5,,92.5,50,55,57.5,,57.5,100,110,115,,115,265,SBD,
1,Annmarie Botha-Jones,F,54,UK,Wraps,F_MCR_3_AWPC,65.3,67.5,-130,130,-137.5,,130,57.5,62.5,-65,,62.5,125,132.5,137.5,,137.5,330,SBD,
2,Sharaine Talbot,F,50,UK,Wraps,F_MCR_3_AWPC,65.7,67.5,90,95,-100,,95,57.5,60,62.5,,62.5,125,130,132.5,,132.5,290,SBD,
1,Cindy Hicks,F,51,Canada,Wraps,F_MCR_3_AWPC,88.2,90,-102.5,-102.5,102.5,,102.5,62.5,65,67.5,,67.5,130,132.5,-135,,132.5,302.5,SBD,
1,Kerry Howells,F,51,UK,Wraps,F_MCR_3_AWPC,99.3,100,122.5,-137.5,137.5,,137.5,77.5,82.5,-85,,82.5,165,175,177.5,,177.5,397.5,SBD,
2,Tara Casteneda,F,53,USA,Wraps,F_MCR_3_AWPC,92.2,100,92.5,105,-110,,105,55,60,-65,,60,135,-147.5,-147.5,,135,300,SBD,
1,Louise Clark #3,F,56,UK,Wraps,F_MCR_4_AWPC,64.5,67.5,-110,110,117.5,,117.5,57.5,60,62.5,,62.5,120,125,130,132.5,130,310,SBD,
2,Allison Frost,F,55,UK,Wraps,F_MCR_4_AWPC,65.5,67.5,90,95,100,,100,47.5,50,52.5,,52.5,120,127.5,132.5,135,132.5,285,SBD,
3,Christine Clark,F,55,UK,Wraps,F_MCR_4_AWPC,64.3,67.5,75,80,85,,85,40,45,-47.5,,45,110,120,125,,125,255,SBD,
1,Paula Lyons,F,56,UK,Wraps,F_MCR_4_AWPC,71.7,75,80,85,90,,90,45,47.5,-50,,47.5,110,115,120,,120,257.5,SBD,
2,Bev Johnson,F,57,UK,Wraps,F_MCR_4_AWPC,71,75,80,85,92.5,,92.5,50,-55,-55,,50,100,110,112.5,,112.5,255,SBD,
1,Eleanor Clements,F,62,UK,Wraps,F_MCR_5_AWPC,69.2,75,55,62.5,70,,70,25,30,32.5,,32.5,82.5,90,95,,95,197.5,SBD,
1,Pauline Dolan,F,64,UK,Wraps,F_MCR_5_AWPC,89.1,90,117.5,125,130,,130,65,67.5,-70,,67.5,147.5,152.5,155,,155,352.5,SBD,
1,Diane Leach,F,64,UK,Wraps,F_MCR_5_AWPC,96.7,100,102.5,110,117.5,,117.5,50,52.5,55,,55,127.5,135,-140,,135,307.5,SBD,
1,Esther Rimmer,F,35,UK,Wraps,F_OCR_AWPC,49.8,52,130,135,140,,140,65,70,-72.5,,70,140,147.5,-152.5,,147.5,357.5,SBD,
2,Lamorna Bardwell,F,26,UK,Wraps,F_OCR_AWPC,49.2,52,125,132.5,-135,,132.5,62.5,67.5,70,,70,147.5,152.5,-155,,152.5,355,SBD,
3,Rachel Measures,F,39,UK,Wraps,F_OCR_AWPC,51.4,52,70,-80,80,,80,42.5,45,47.5,,47.5,125,130,-132.5,,130,257.5,SBD,
1,Alice Higgins,F,26,UK,Wraps,F_OCR_AWPC,55.8,56,132.5,140,150,,150,60,65,-67.5,,65,135,142.5,147.5,,147.5,362.5,SBD,
2,Charlotte Viccars,F,26,UK,Wraps,F_OCR_AWPC,55.6,56,130,-137.5,137.5,,137.5,75,77.5,80,,80,120,125,130,,130,347.5,SBD,
3,Megan Huggins,F,25,UK,Wraps,F_OCR_AWPC,55,56,100,-110,-110,,100,60,62.5,-65,,62.5,120,130,140,,140,302.5,SBD,
1,Natasha Bacciarelli,F,29,UK,Wraps,F_OCR_AWPC,59.25,60,145,-155,155,,155,70,-75,75,,75,145,152.5,157.5,,157.5,387.5,SBD,
2,Amy Standerwick,F,27,UK,Wraps,F_OCR_AWPC,59.3,60,-140,140,-150,,140,70,-75,-75,,70,145,150,155,,155,365,SBD,
1,Jessica Clark,F,27,UK,Wraps,F_OCR_AWPC,65,67.5,165,170,175,,175,70,72.5,75,,75,165,170,-172.5,,170,420,SBD,
2,Beth Lavis,F,26,UK,Wraps,F_OCR_AWPC,64.4,67.5,157.5,162.5,167.5,,167.5,80,-85,-85,,80,160,165,170,,170,417.5,SBD,
3,Aleksandra Urbaniak,F,36,UK,Wraps,F_OCR_AWPC,66.9,67.5,145,160,-170,,160,80,-85,-85,,80,145,160,170,,170,410,SBD,
4,Vilhelmiina Sillanpää,F,26,Finland,Wraps,F_OCR_AWPC,66.2,67.5,145,-157.5,157.5,175.5,157.5,65,70,75,,75,140,155,-167.5,,155,387.5,SBD,
1,Pamela Fellows,F,33,UK,Wraps,F_OCR_AWPC,73.5,75,162.5,-175,175,-181,175,82.5,87.5,90,,90,175,190,-195,,190,455,SBD,
2,Kaycee King,F,26,USA,Wraps,F_OCR_AWPC,74.5,75,-145,150,-160,,150,77.5,85,90,,90,170,180,187.5,-192.5,187.5,427.5,SBD,
3,Nicola Burroughs,F,39,UK,Wraps,F_OCR_AWPC,72.2,75,150,157.5,162.5,,162.5,77.5,82.5,-85,,82.5,155,165,-175,,165,410,SBD,
4,Sarah Gilpin,F,32,USA,Wraps,F_OCR_AWPC,73.7,75,125,-130,-130,,125,67.5,72.5,-80,,72.5,140,147.5,-155,,147.5,345,SBD,
1,Lynzi Shepherd,F,35,UK,Wraps,F_OCR_AWPC,80.1,82.5,147.5,157.5,165,,165,67.5,70,72.5,,72.5,152.5,162.5,167.5,,167.5,405,SBD,
2,Ayecia White,F,35,USA,Wraps,F_OCR_AWPC,82.5,82.5,130,132.5,-140,,132.5,67.5,70,75,,75,140,145,-152.5,,145,352.5,SBD,
DQ,Kerry Gallagher,F,32,UK,Wraps,F_OCR_AWPC,80.1,82.5,170,175,-180,,175,-77.5,-77.5,-77.5,,,,,,,,,SBD,
DQ,Learna Lee,F,36,UK,Wraps,F_OCR_AWPC,82.2,82.5,-172.5,-172.5,-172.5,,,,,,,,,,,,,,SBD,
1,Katie Edwards #3,F,34,UK,Wraps,F_OCR_AWPC,89.3,90,170,-177.5,180,-185.5,180,87.5,-92.5,92.5,,92.5,177.5,-187.5,-190.5,,177.5,450,SBD,
2,April Baldassarre,F,37,Canada,Wraps,F_OCR_AWPC,87.8,90,135,140,150,,150,75,82.5,-85,,82.5,137.5,150,152.5,,152.5,385,SBD,
3,Angela Williams #2,F,35,USA,Wraps,F_OCR_AWPC,83.6,90,120,125,-130,,125,57.5,-67.5,-67.5,,57.5,147.5,157.5,-167.5,,157.5,340,SBD,
1,Lissy Trevena,F,17,UK,Wraps,F_TCR_2_AWPC,58.1,60,80,90,100,,100,40,42.5,45,,45,100,112.5,-122.5,,112.5,257.5,SBD,
1,Freya Johnson #1,F,18,UK,Wraps,F_TCR_3_AWPC,67.1,67.5,160,167.5,175,,175,75,80,-82.5,,80,172.5,182.5,-187.5,,182.5,437.5,SBD,
1,Sophie Lampitt,F,19,UK,Wraps,F_TCR_3_AWPC,71.7,75,115,120,125,,125,57.5,62.5,-65,,62.5,145,155,-165,,155,342.5,SBD,
1,Anokhi Patel #1,F,23,India,Single-ply,F_JES_AWPC,85.4,90,102.5,125,135,-142.5,135,40,47.5,50.5,52.5,50.5,100,120,137.5,-150,137.5,323,SBD,
1,Paulina Coleman,F,45,Ireland,Single-ply,F_MES_2_AWPC,92.8,100,160,180,-190,,180,100,-110,110,120,110,160,180,190,200,190,480,SBD,
1,Edyta Piechowicz,F,36,Ireland,Single-ply,F_OES_AWPC,64.8,67.5,140,150,160,-170,160,80,85,90,-95,90,150,160,-170,,160,410,SBD,
1,Amanda Riman,F,35,UK,Single-ply,F_OES_AWPC,74.4,75,185,-200,200,,200,97.5,102.5,105,,105,150,160,-165,,160,465,SBD,
1,Danielle Hagen,F,29,USA,Multi-ply,F_OEM_AWPC,98.7,100,-160,160,-167.5,,160,92.5,97.5,102.5,,102.5,125,137.5,-145,,137.5,400,SBD,
1,Darsh Madhani,M,20,India,Single-ply,M_JES_AWPC,81.25,82.5,180,-190,-210,,180,100,-107.5,-112.5,,100,165,185,-200,,185,465,SBD,
1,Hemantkumar Patel,M,52,,Single-ply,M_MES_3_AWPC,88.65,90,90,110,130,,130,-70,70,80,,80,130,150,-160,,150,360,SBD,
1,Mark Moss,M,59,UK,Single-ply,M_MES_4_AWPC,101.05,110,160,180,210,,210,135,140,-157.5,,140,160,170,182.5,,182.5,532.5,SBD,
1,Balwinder Singh,M,66,UK,Single-ply,M_MES_6_AWPC,80,82.5,240,260,270,,270,85,95,105,,105,225,-240,-240,,225,600,SBD,
1,Navin Makwana,M,29,India,Multi-ply,M_OEM_AWPC,63.6,67.5,125,137.5,-145,,137.5,80,-87.5,90,,90,145,160,167.5,,167.5,395,SBD,
1,Dewi Evans,M,37,Wales,Single-ply,M_OES_AWPC,82.1,82.5,225,-240,-240,,225,135,140,145,,145,225,240,245,,245,615,SBD,
1,Ian Williams #1,M,29,Wales,Single-ply,M_OES_AWPC,85.8,90,-300,-300,300,-335.5,300,182.5,190,195,,195,260,275,282.5,-293,282.5,777.5,SBD,
1,Daniel Whittall,M,28,UK,Single-ply,M_OES_AWPC,98.6,100,-265,265,-292.5,,265,140,-200,,,140,75,220,-242.5,,220,625,SBD,
1,Shaktisingh Solankii,M,27,India,Single-ply,M_OES_AWPC,101.6,110,180,-200,-200,,180,-92.5,92.5,95,,95,150,165,175,,175,450,SBD,
1,Marcus Stoker,M,26,UK,Single-ply,M_OES_AWPC,123.8,125,-310,-310,310,,310,160,-190,-190,,160,275,-305,305,,305,775,SBD,
1,Daljit Singh,M,42,India,Multi-ply,M_MEM_1_AWPC,82,82.5,270,-285,285,-315.5,285,125,-135,-135,,125,240,250,-260,,250,660,SBD,
1,Scott Kuderick,M,48,USA,Multi-ply,M_OEM_AWPC,89.9,90,297.5,-307.5,307.5,,307.5,175,182.5,-185,,182.5,227.5,-260,,,227.5,717.5,SBD,
1,Tom Gee #1,M,39,UK,Multi-ply,M_OEM_AWPC,97.5,100,-300,300,315,,315,202.5,212.5,217.5,,217.5,245,260,270,,270,802.5,SBD,
DQ,Edward Holt,M,28,UK,Multi-ply,M_OEM_AWPC,118.6,125,-325,-325,-325,,,,,,,,,,,,,,SBD,
1,Tashana Gregory-Bailey,F,20,UK,Raw,F_JR_AWPC,66.5,67.5,,,,,,57.5,-62.5,62.5,,62.5,,,,,,62.5,B,
1,Josie Thomas #2,F,42,UK,Raw,F_MR_1_AWPC,71.7,75,,,,,,75,82.5,-85,,82.5,,,,,,82.5,B,
2,Katie Cornish,F,41,UK,Raw,F_MR_1_AWPC,72.55,75,,,,,,65,70,-75,,70,,,,,,70,B,
1,Elizabeth Elliott,F,42,UK,Raw,F_MR_1_AWPC,81.1,82.5,,,,,,67.5,72.5,75,,75,,,,,,75,B,
1,Donna Bradbury,F,48,UK,Raw,F_MR_2_AWPC,58.4,60,,,,,,65,67.5,-72.5,,67.5,,,,,,67.5,B,
1,Sal Lack,F,45,UK,Raw,F_MR_2_AWPC,94.35,100,,,,,,72.5,77.5,-80,,77.5,,,,,,77.5,B,
1,Autumn Elliott,F,48,USA,Raw,F_MR_2_AWPC,102.3,110,,,,,,77.5,82.5,87.5,-92.5,87.5,,,,,,87.5,B,
1,Bhavna Tokekar,F,50,India,Raw,F_MR_3_AWPC,69.9,75,,,,,,65,70,77.5,-82.5,77.5,,,,,,77.5,B,
1,Julie Green #1,F,54,UK,Raw,F_MR_3_AWPC,106.2,110,,,,,,65,70,72.5,,72.5,,,,,,72.5,B,
1,Hetty Salmon,F,56,UK,Raw,F_MR_4_AWPC,81.4,82.5,,,,,,65,70,72.5,73,72.5,,,,,,72.5,B,
1,Louise Picknett,F,59,UK,Raw,F_MR_4_AWPC,88.3,90,,,,,,45,47.5,50,,50,,,,,,50,B,
1,Charlotte Viccars,F,26,UK,Raw,F_OR_AWPC,56.6,60,,,,,,72.5,-77.5,77.5,,77.5,,,,,,77.5,B,
1,Siobhan Read,F,32,UK,Raw,F_OR_AWPC,64.2,67.5,,,,,,85,92.5,-97.5,,92.5,,,,,,92.5,B,
1,Natalie Johnson,F,40,UK,Raw,F_OR_AWPC,74.76,75,,,,,,82.5,90,92.5,,92.5,,,,,,92.5,B,
2,Sarah Gilpin,F,32,USA,Raw,F_OR_AWPC,72.55,75,,,,,,62.5,70,-80,,70,,,,,,70,B,
1,Robyn Vaughan,F,31,UK,Raw,F_OR_AWPC,106,110,,,,,,115,120,125,130,125,,,,,,125,B,
2,Sarah Knight,F,38,UK,Raw,F_OR_AWPC,106.5,110,,,,,,80,-85,85,,85,,,,,,85,B,
1,Christina McDermott,F,39,UK,Raw,F_OR_AWPC,127.65,110+,,,,,,80,85,-87.5,,85,,,,,,85,B,
2,Laura O'Shea,F,32,Ireland,Raw,F_OR_AWPC,110.5,110+,,,,,,65,70,75,,75,,,,,,75,B,
1,Aarya Jain,F,15,India,Raw,F_TR_1_AWPC,84.8,90,,,,,,45,47.5,-50,,47.5,,,,,,47.5,B,
1,Paulina Coleman,F,45,Ireland,Single-ply,F_MES_2_AWPC,92.65,100,,,,,,110,120,125,130,125,,,,,,125,B,
1,Julie Green #1,F,54,UK,Single-ply,F_MES_3_AWPC,106.2,110,,,,,,75,-82.5,82.5,-85.5,82.5,,,,,,82.5,B,
1,Jason Pearson #2,M,42,UK,Raw,M_MR_1_AWPC,64.65,67.5,,,,,,80,87.5,-95,,87.5,,,,,,87.5,B,
1,Daniel O'Neill #1,M,41,Ireland,Raw,M_MR_1_AWPC,87.7,90,,,,,,127.5,135,-142.5,,135,,,,,,135,B,
1,Marius Lapėnas,M,42,Ireland,Raw,M_MR_1_AWPC,95.1,100,,,,,,210,220,225,-227.5,225,,,,,,225,B,
2,Thomas McCague,M,42,Ireland,Raw,M_MR_1_AWPC,97.2,100,,,,,,135,-145,-150,,135,,,,,,135,B,
1,Billy Mareya,M,43,UK,Raw,M_MR_1_AWPC,107.55,110,,,,,,185,-190,-190,,185,,,,,,185,B,
1,Will Freeman Dunn,M,40,UK,Raw,M_MR_1_AWPC,123.75,125,,,,,,180,187.5,190,,190,,,,,,190,B,
1,Edward Dee,M,45,Ireland,Raw,M_MR_2_AWPC,72.5,75,,,,,,115,120,-125,,120,,,,,,120,B,
1,Stephen Rigley,M,46,Ireland,Raw,M_MR_2_AWPC,78.1,82.5,,,,,,125,130,135,,135,,,,,,135,B,
1,Stephen Wilcox,M,48,UK,Raw,M_MR_2_AWPC,99.25,100,,,,,,142.5,150,155,,155,,,,,,155,B,
2,Brendan O'Rourke,M,46,Ireland,Raw,M_MR_2_AWPC,96.5,100,,,,,,137.5,145,150,,150,,,,,,150,B,
1,Paul Morgan,M,49,UK,Raw,M_MR_2_AWPC,109.6,110,,,,,,177.5,187.5,196,,196,,,,,,196,B,
2,Darren Stafford,M,49,UK,Raw,M_MR_2_AWPC,106,110,,,,,,140,150,-157.5,,150,,,,,,150,B,
1,Lee Mortimer,M,45,UK,Raw,M_MR_2_AWPC,138.45,140,,,,,,200,220,-233,,220,,,,,,220,B,
1,Fraser Montgomery,M,52,UK,Raw,M_MR_3_AWPC,89.4,90,,,,,,102.5,-107.5,107.5,,107.5,,,,,,107.5,B,
1,Nick Simpson #1,M,51,UK,Raw,M_MR_3_AWPC,99.3,100,,,,,,152.5,-165,-165,,152.5,,,,,,152.5,B,
1,Alan Dobbins,M,59,Ireland,Raw,M_MR_4_AWPC,81.4,82.5,,,,,,127.5,132.5,135,,135,,,,,,135,B,
1,John MacDonald #3,M,55,UK,Raw,M_MR_4_AWPC,88.7,90,,,,,,137.5,142.5,-147.5,,142.5,,,,,,142.5,B,
1,Bosco Reid,M,62,Ireland,Raw,M_MR_5_AWPC,88.15,90,,,,,,75,85,-90,,85,,,,,,85,B,
1,James Rock,M,65,USA,Raw,M_MR_6_AWPC,82.25,82.5,,,,,,120,127.5,133,-135,133,,,,,,133,B,
1,Gerry Cronnelly Sr,M,86,Ireland,Raw,M_MR_9_AWPC,88,90,,,,,,65,67.5,-70,,67.5,,,,,,67.5,B,
1,Sam Warren #2,M,39,UK,Raw,M_OR_AWPC,66.6,67.5,,,,,,122.5,127.5,-135,,127.5,,,,,,127.5,B,
2,Jason Pearson #2,M,42,UK,Raw,M_OR_AWPC,64.65,67.5,,,,,,80,87.5,-95,,87.5,,,,,,87.5,B,
3,Makwana Navinkumar,M,29,India,Raw,M_OR_AWPC,62.45,67.5,,,,,,-77.5,80,82.5,,82.5,,,,,,82.5,B,
1,John MacDonald #3,M,55,UK,Raw,M_OR_AWPC,88.7,90,,,,,,137.5,142.5,-147.5,,142.5,,,,,,142.5,B,
1,Marius Lapėnas,M,42,Ireland,Raw,M_OR_AWPC,95.1,100,,,,,,210,220,225,-227.5,225,,,,,,225,B,
2,Saad Khayoom,M,32,India,Raw,M_OR_AWPC,92.6,100,,,,,,120,127.5,,,127.5,,,,,,127.5,B,
1,Andrew Whitaker,M,36,UK,Raw,M_OR_AWPC,107,110,,,,,,190,-200,210,,210,,,,,,210,B,
2,Paul Morgan,M,49,UK,Raw,M_OR_AWPC,109.6,110,,,,,,177.5,187.5,196,,196,,,,,,196,B,
1,Warren Whitaker,M,39,UK,Raw,M_OR_AWPC,113.15,125,,,,,,185,192.5,-200,,192.5,,,,,,192.5,B,
2,Will Freeman Dunn,M,40,UK,Raw,M_OR_AWPC,123.75,125,,,,,,180,187.5,190,,190,,,,,,190,B,
3,Anthony Hepple,M,37,UK,Raw,M_OR_AWPC,120.5,125,,,,,,135,145,155,,155,,,,,,155,B,
1,Dennis O'Shea,M,37,UK,Raw,M_OR_AWPC,139.9,140,,,,,,135,142.5,150,,150,,,,,,150,B,
1,Calum Healy,M,,Ireland,Raw,M_TR_2_AWPC,65.65,67.5,,,,,,95,100,105,,105,,,,,,105,B,
1,Darsh Madhani,M,20,India,Single-ply,M_JES_AWPC,80.8,82.5,,,,,,105,,,,105,,,,,,105,B,
1,Michael Coleman #2,M,46,Ireland,Single-ply,M_MES_2_AWPC,97.8,100,,,,,,150,160,165,,165,,,,,,165,B,
1,Paul Morgan,M,49,UK,Single-ply,M_MES_2_AWPC,109.6,110,,,,,,-255,-255,265,,265,,,,,,265,B,
1,John Pollard,M,52,UK,Single-ply,M_MES_3_AWPC,122.5,125,,,,,,175,-190,-190,,175,,,,,,175,B,
1,Mark Doherty #3,M,55,Ireland,Single-ply,M_MES_4_AWPC,93.9,100,,,,,,140,150,-152.5,,150,,,,,,150,B,
1,Richard Evans,M,55,UK,Single-ply,M_MES_4_AWPC,136.45,140,,,,,,115,130,137.5,,137.5,,,,,,137.5,B,
1,Makwana Navinkumar,M,29,India,Single-ply,M_OES_AWPC,62.45,67.5,,,,,,82.5,90,-95,,90,,,,,,90,B,
1,Michael Coleman #2,M,46,Ireland,Single-ply,M_OES_AWPC,97.8,100,,,,,,150,160,165,,165,,,,,,165,B,
1,Paul Morgan,M,49,UK,Single-ply,M_OES_AWPC,109.6,110,,,,,,-255,-255,265,,265,,,,,,265,B,
1,George Purchase,M,20,UK,Multi-ply,M_JEM_AWPC,107.95,110,,,,,,152.5,-162.5,-167.5,,152.5,,,,,,152.5,B,
1,Paul Morgan,M,49,UK,Multi-ply,M_MEM_2_AWPC,109.6,110,,,,,,265,,,,265,,,,,,265,B,
1,Paul Morgan,M,49,UK,Multi-ply,M_OEM_AWPC,109.6,110,,,,,,265,,,,265,,,,,,265,B,
2,George Purchase,M,20,UK,Multi-ply,M_OEM_AWPC,107.95,110,,,,,,152.5,-162.5,-167.5,,152.5,,,,,,152.5,B,
1,Hannah Mouland,F,21,UK,Raw,F_JR_AWPC,121.35,110+,,,,,,,,,,,120,127.5,133,,133,133,D,
1,Stephanie Coe,F,40,UK,Raw,F_MR_1_AWPC,72.2,75,,,,,,,,,,,135,142.5,150,152.5,150,150,D,
2,Katie Cornish,F,41,UK,Raw,F_MR_1_AWPC,72.55,75,,,,,,,,,,,122.5,135,140,,140,140,D,
1,Elizabeth Elliott,F,43,UK,Raw,F_MR_1_AWPC,81.1,82.5,,,,,,,,,,,145,155,162.5,,162.5,162.5,D,
1,Donna Bradbury,F,48,UK,Raw,F_MR_2_AWPC,58.4,60,,,,,,,,,,,100,,,,100,100,D,
1,Sal Lack,F,45,UK,Raw,F_MR_2_AWPC,94.35,100,,,,,,,,,,,110,-117.5,-117.5,,110,110,D,
1,Autumn Elliott,F,48,USA,Raw,F_MR_2_AWPC,102.3,110,,,,,,,,,,,105,117.5,127.5,-137.5,127.5,127.5,D,
1,Julie Green #1,F,54,UK,Raw,F_MR_3_AWPC,106.2,110,,,,,,,,,,,120,130,140,,140,140,D,
1,Jennifer Harris #4,F,60,UK,Raw,F_MR_5_AWPC,73.15,75,,,,,,,,,,,100,105,-110,,105,105,D,
2,Eleanor Clements,F,62,UK,Raw,F_MR_5_AWPC,70.05,75,,,,,,,,,,,82.5,90,97.5,,97.5,97.5,D,
1,Jeannette Dougherty,F,77,USA,Raw,F_MR_8_AWPC,54.6,56,,,,,,,,,,,102.5,112.5,-115,,112.5,112.5,D,
2,Edyta Piechowicz,F,36,Ireland,Single-ply,F_OES_AWPC,65.45,67.5,,,,,,,,,,,150,160,-170,,160,160,D,
1,Maria McShane,F,34,Ireland,Raw,F_OR_AWPC,57.35,60,,,,,,,,,,,150,160,-171,,160,160,D,
1,Katie Lane,F,33,UK,Raw,F_OR_AWPC,65.5,67.5,,,,,,,,,,,150,165,172.5,,172.5,172.5,D,
1,Ayecia White,F,35,USA,Raw,F_OR_AWPC,82.15,82.5,,,,,,,,,,,75,110,137.5,,137.5,137.5,D,
1,Lucinda Perrett,F,30,UK,Raw,F_OR_AWPC,83.85,90,,,,,,,,,,,175,185,-190,,185,185,D,
1,Laura O'Shea,F,38,Ireland,Raw,F_OR_AWPC,110.5,110+,,,,,,,,,,,145,155,-165,,155,155,D,
1,Ishti Kaur,F,14,India,Raw,F_TR_1_AWPC,38.7,44,,,,,,,,,,,50,65,75,,75,75,D,
1,Aarya Jain,F,15,India,Raw,F_TR_1_AWPC,84.8,90,,,,,,,,,,,100,107.5,115,,115,115,D,
1,Isaac Fallows,M,17,UK,Raw,M_TR_2_AWPC,78.55,82.5,,,,,,,,,,,172.5,187.5,-200,,187.5,187.5,D,
1,Paulina Coleman,F,45,Ireland,Single-ply,F_MES_2_AWPC,92.65,100,,,,,,,,,,,160,180,195,205,195,195,D,
1,Katie Lane,F,33,UK,Single-ply,F_OES_AWPC,65.5,67.5,,,,,,,,,,,-160,-160,172.5,-178,172.5,172.5,D,
2,Edyta Piechowicz,F,36,Ireland,Raw,F_OR_AWPC,65.45,67.5,,,,,,,,,,,140,-150,150,,150,150,D,
2,Hannah Mouland,F,21,UK,Raw,F_OR_AWPC,121.35,110+,,,,,,,,,,,120,127.5,133,,133,133,D,
1,Ben Fleming,M,20,Ireland,Raw,M_JR_AWPC,70.75,75,,,,,,,,,,,160,167.5,175,,175,175,D,
1,Samuel Mason,M,,UK,Raw,M_JR_AWPC,117.9,125,,,,,,,,,,,240,260,-265,,260,260,D,
1,Jason Pearson #2,M,42,UK,Raw,M_MR_1_AWPC,64.65,67.5,,,,,,,,,,,140,152.5,-160,,152.5,152.5,D,
1,Daniel O'Neill #1,M,41,Ireland,Raw,M_MR_1_AWPC,87.7,90,,,,,,,,,,,225,240,-255,,240,240,D,
1,Billy Mareya,M,43,UK,Raw,M_MR_1_AWPC,107.55,110,,,,,,,,,,,300,318,-325,,318,318,D,
1,Rhys Kirk,M,41,UK,Raw,M_MR_1_AWPC,120.25,125,,,,,,,,,,,227.5,245,-250,,245,245,D,
1,Brendan O'Rourke,M,46,Ireland,Raw,M_MR_2_AWPC,96.5,100,,,,,,,,,,,220,240,,,240,240,D,
1,Lee Mortimer,M,45,UK,Raw,M_MR_2_AWPC,138.45,140,,,,,,,,,,,275,-290,,,275,275,D,
1,Andrew Hoult,M,50,UK,Raw,M_MR_3_AWPC,82.2,82.5,,,,,,,,,,,235,251,,,251,251,D,
1,Sean McCarthy #1,M,54,UK,Raw,M_MR_3_AWPC,87.7,90,,,,,,,,,,,220,240,251,,251,251,D,
1,Pete Tryner,M,50,UK,Raw,M_MR_3_AWPC,99.2,100,,,,,,,,,,,270,-310,,,270,270,D,
2,Nick Simpson #1,M,51,UK,Raw,M_MR_3_AWPC,99.3,100,,,,,,,,,,,200,210,220,,220,220,D,
1,Verrol Skerritt,M,54,UK,Raw,M_MR_3_AWPC,108.6,110,,,,,,,,,,,242.5,255,267.5,-273,267.5,267.5,D,
1,Richard Baker #2,M,52,UK,Raw,M_MR_3_AWPC,118.45,125,,,,,,,,,,,260,272.5,-280,,272.5,272.5,D,
1,Richard Green #2,M,56,UK,Raw,M_MR_4_AWPC,115.6,125,,,,,,,,,,,225,235,245,,245,245,D,
1,Bosco Reid,M,62,Ireland,Raw,M_MR_5_AWPC,88.15,90,,,,,,,,,,,140,150,157.5,,157.5,157.5,D,
1,Mark Johnson #1,M,61,UK,Raw,M_MR_5_AWPC,102.3,110,,,,,,,,,,,185,200,-205,,200,200,D,
1,Peter Oram,M,68,UK,Raw,M_MR_6_AWPC,87.45,90,,,,,,,,,,,195,212.5,215,,215,215,D,
1,Gerry Cronnelly Sr,M,86,Ireland,Raw,M_MR_9_AWPC,88,90,,,,,,,,,,,110,117.5,120,122.5,120,120,D,
1,Jason Pearson #2,M,42,UK,Raw,M_OR_AWPC,64.65,67.5,,,,,,,,,,,140,152.5,-160,,152.5,152.5,D,
2,Makwana Navinkumar,M,29,India,Raw,M_OR_AWPC,62.45,67.5,,,,,,,,,,,150,160,-165,,160,160,D,
1,David Hodson,M,37,UK,Raw,M_OR_AWPC,82.25,82.5,,,,,,,,,,,220,237.5,-247.5,,237.5,237.5,D,
2,Piotr Mardas,M,33,UK,Raw,M_OR_AWPC,79.2,82.5,,,,,,,,,,,170,-190,202.5,,202.5,202.5,D,
1,Daniel Davies,M,27,UK,Raw,M_OR_AWPC,88.25,90,,,,,,,,,,,245,-260,-265,,245,245,D,
1,Pete Tryner,M,50,UK,Raw,M_OR_AWPC,99.2,100,,,,,,,,,,,270,-310,,,270,270,D,
2,Wojciech Szymaszczyk,M,32,UK,Raw,M_OR_AWPC,98.45,100,,,,,,,,,,,225,245,-270,,245,245,D,
DQ,Saad Khayoom,M,32,India,Raw,M_OR_AWPC,92.6,100,,,,,,,,,,,-140,,,,,,D,
1,Michael Benbow,M,25,UK,Raw,M_OR_AWPC,104,110,,,,,,,,,,,160,172.5,182.5,,182.5,182.5,D,
1,Anthony Hepple,M,37,UK,Raw,M_OR_AWPC,120.5,125,,,,,,,,,,,260,270,-285,,270,270,D,
2,David Thomas #17,M,39,UK,Raw,M_OR_AWPC,112.2,125,,,,,,,,,,,212.5,225,230,,230,230,D,
1,Hadyn Jenkins,M,16,UK,Raw,M_TR_2_AWPC,66.8,67.5,,,,,,,,,,,-210,222.5,230,240,230,230,D,
2,Jake Coleman,M,16,Ireland,Raw,M_TR_2_AWPC,61,67.5,,,,,,,,,,,135,-145,150,,150,150,D,
1,Oisin Smith,M,16,Ireland,Raw,M_TR_2_AWPC,92.5,100,,,,,,,,,,,200,210,-215,,210,210,D,
1,John McHugh,M,16,Ireland,Raw,M_TR_2_AWPC,105.95,110,,,,,,,,,,,200,210,217.5,,217.5,217.5,D,
2,Luke Thompson #4,M,17,Ireland,Raw,M_TR_2_AWPC,105.25,110,,,,,,,,,,,200,207.5,215,,215,215,D,
1,Calum Healy,M,18,Ireland,Raw,M_TR_3_AWPC,65.65,67.5,,,,,,,,,,,167.5,175,182.5,,182.5,182.5,D,
1,George Ward,M,19,UK,Raw,M_TR_3_AWPC,81.7,82.5,,,,,,,,,,,205,225,-243.5,,225,225,D,
1,Darsh Madhani,M,20,India,Single-ply,M_JES_AWPC,80.8,82.5,,,,,,,,,,,175,185,-195,,185,185,D,
1,Noora Singh,M,43,India,Single-ply,M_MES_1_AWPC,81.8,82.5,,,,,,,,,,,185,202.5,-210,,202.5,202.5,D,
1,Philip Watkins,M,53,UK,Single-ply,M_MES_3_AWPC,93.2,100,,,,,,,,,,,260,280,-305,,280,280,D,
1,Richard Green #2,M,56,UK,Single-ply,M_MES_4_AWPC,115.6,125,,,,,,,,,,,225,240,255,,255,255,D,
1,Bosco Reid,M,62,Ireland,Single-ply,M_MES_5_AWPC,88.15,90,,,,,,,,,,,145,160,172.5,,172.5,172.5,D,
1,Makwana Navinkumar,M,29,India,Single-ply,M_OES_AWPC,62.45,67.5,,,,,,,,,,,160,-170,-170,,160,160,D,
1,Philip Watkins,M,53,UK,Single-ply,M_OES_AWPC,93.2,100,,,,,,,,,,,260,280,-305,,280,280,D,
1,Shuktisinh Solanki,M,27,India,Single-ply,M_OES_AWPC,102.65,110,,,,,,,,,,,170,175,180,,180,180,D,
1,Daljit Singh,M,42,India,Multi-ply,M_MEM_1_AWPC,82.5,82.5,,,,,,,,,,,245,-250.5,250.5,-255,250.5,250.5,D,
