Division,WeightClassKg,Place,Name,Team,BodyweightKg,Best3SquatKg,Best3BenchKg,Best3DeadliftKg,TotalKg,Equipment,Event,Sex,BirthDate
Boys,51.71,1,Knox Wilson,Van Alstyne,51.44,117.93,68.04,142.88,328.85,Unlimited,SBD,M,
Boys,51.71,2,Kavin Moore,Emory Rains,51.62,95.25,52.16,115.67,263.08,Unlimited,SBD,M,
Boys,55.79,1,Rafe McComack,Farmersville,55.79,145.15,104.33,158.76,408.23,Unlimited,SBD,M,
Boys,55.79,2,Case Reisor,Celeste,54.88,142.88,83.91,147.42,374.21,Unlimited,SBD,M,
Boys,55.79,3,Case Edmonds,Princeton,55.79,131.54,63.5,156.49,351.53,Unlimited,SBD,M,
Boys,55.79,4,Cole Julian,Commerce,55.61,115.67,70.31,131.54,317.51,Unlimited,SBD,M,
Boys,55.79,5,Caleb Correa,Harleton,54.88,113.4,63.5,129.27,306.17,Unlimited,SBD,M,
Boys,55.79,6,Matthew Glagow,Pattonville Prairiland,55.7,102.06,61.23,102.06,265.35,Unlimited,SBD,M,
Boys,59.87,1,Dre Patt,Honey Grove,58.51,174.63,86.18,181.44,442.25,Unlimited,SBD,M,
Boys,59.87,2,Nicholas Michka,Celeste,59.69,163.29,99.79,170.1,433.18,Unlimited,SBD,M,
Boys,59.87,3,Michael Lopez,Princeton,58.6,165.56,83.91,163.29,412.77,Unlimited,SBD,M,
Boys,59.87,4,Austen Gordon,Pattonville Prairiland,56.06,147.42,79.38,131.54,358.34,Unlimited,SBD,M,
Boys,59.87,5,Layton Fancher,Harleton,58.6,145.15,77.11,136.08,358.34,Unlimited,SBD,M,
Boys,59.87,6,Chris Ramirez,Commerce,59.87,149.69,70.31,133.81,353.8,Unlimited,SBD,M,
Boys,59.87,7,Chayton Vaughan,Cumby,57.61,113.4,63.5,108.86,285.76,Unlimited,SBD,M,
Boys,59.87,DQ,Drayvin Deweese,Emory Rains,59.06,122.47,,,,Unlimited,SBD,M,
Boys,59.87,DQ,Jake Miller,Emory Rains,59.51,,,,,Unlimited,SBD,M,
Boys,59.87,DQ,Davion Harrison,Paris,57.61,140.61,,,,Unlimited,SBD,M,
Boys,67.13,1,Emmanuel Martinez De Aquino,Princeton,62.78,190.51,154.22,199.58,544.31,Unlimited,SBD,M,
Boys,67.13,2,Alejandro Mojica,South Garland,62.6,181.44,113.4,188.24,483.08,Unlimited,SBD,M,
Boys,67.13,3,Hugo Sanchez,Pattonville Prairiland,63.23,192.78,117.93,154.22,464.93,Unlimited,SBD,M,
Boys,67.13,4,Brayden Beck,Paris,65.68,170.1,104.33,183.7,458.13,Unlimited,SBD,M,
Boys,67.13,5,Grady Ford,Celeste,66.41,174.63,97.52,183.7,455.86,Unlimited,SBD,M,
Boys,67.13,6,Parker Harris,Mineola,66.5,179.17,92.99,170.1,442.25,Unlimited,SBD,M,
Boys,67.13,7,Shawn Booth,Harleton,66.41,147.42,99.79,183.7,430.91,Unlimited,SBD,M,
Boys,67.13,8,Preston Underwood,Mount Vernon,67.13,165.56,90.72,167.83,424.11,Unlimited,SBD,M,
Boys,67.13,9,Braylon Boggs,Cumby,61.14,167.83,90.72,163.29,421.84,Unlimited,SBD,M,
Boys,67.13,10,Remingten Wyatt,Leonard,66.95,149.69,95.25,163.29,408.23,Unlimited,SBD,M,
Boys,67.13,11,Matt Snowhallock,Mineola,66.68,151.95,88.45,158.76,399.16,Unlimited,SBD,M,
Boys,67.13,12,Yeray Penaloza,Farmersville,65.77,151.95,88.45,154.22,394.63,Unlimited,SBD,M,
Boys,67.13,13,Krisztian Dennis,Mount Vernon,65.41,151.95,81.65,156.49,390.09,Unlimited,SBD,M,
Boys,67.13,14,Hayden Acevedo,Farmersville,62.32,156.49,86.18,136.08,378.75,Unlimited,SBD,M,
Boys,67.13,15,Jackson Almand,Celeste,65.05,138.35,79.38,161.03,378.75,Unlimited,SBD,M,
Boys,67.13,16,Kaden Dunn,Howe,62.87,124.74,90.72,158.76,374.21,Unlimited,SBD,M,
Boys,67.13,17,Keenan Hudson,Pattonville Prairiland,63.32,136.08,83.91,147.42,367.41,Unlimited,SBD,M,
Boys,67.13,18,Drake McComb,Pattonville Prairiland,63.05,140.61,72.57,145.15,358.34,Unlimited,SBD,M,
Boys,67.13,19,Dakari Johnson,Cumby,64.05,142.88,79.38,131.54,353.8,Unlimited,SBD,M,
Boys,67.13,20,Titus Oliver,Paris North Lamar,60.51,113.4,63.5,115.67,292.57,Unlimited,SBD,M,
Boys,67.13,21,Alec Krider,Pottsboro,66.86,102.06,52.16,129.27,283.5,Unlimited,SBD,M,
Boys,67.13,DQ,Austin Hash,Pottsboro,65.41,149.69,,,,Unlimited,SBD,M,
Boys,67.13,DQ,Nathan Heitritter,Harleton,66.32,149.69,88.45,,,Unlimited,SBD,M,
Boys,74.84,1,Alex Sustaita,Gainesville,74.3,254.01,149.69,224.53,628.23,Unlimited,SBD,M,
Boys,74.84,2,Jacob Tull,Farmersville,74.12,258.55,140.61,217.72,616.89,Unlimited,SBD,M,
Boys,74.84,3,Cristian Vizcaya,Cumby,74.66,217.72,127.01,233.6,578.33,Unlimited,SBD,M,
Boys,74.84,4,Randy Slaughter,Leonard,67.68,215.46,113.4,226.8,555.65,Unlimited,SBD,M,
Boys,74.84,5,Ahmad Bills,Paris,74.75,199.58,122.47,192.78,514.83,Unlimited,SBD,M,
Boys,74.84,6,Case Brown,Detroit,71.67,195.04,113.4,204.12,512.56,Unlimited,SBD,M,
Boys,74.84,7,Aj Hooks,Farmersville,74.84,199.58,104.33,204.12,508.02,Unlimited,SBD,M,
Boys,74.84,8,Malaki Tillery,Paris North Lamar,74.21,204.12,106.59,190.51,501.22,Unlimited,SBD,M,
Boys,74.84,9,Alonzo Torres,Mount Vernon,74.39,190.51,108.86,197.31,496.68,Unlimited,SBD,M,
Boys,74.84,10,Blaine Farmer,Detroit,74.57,197.31,86.18,188.24,471.74,Unlimited,SBD,M,
Boys,74.84,11,Blake Jones,Pottsboro,73.66,174.63,115.67,170.1,460.4,Unlimited,SBD,M,
Boys,74.84,12,Thomas Farmer,Detroit,72.3,188.24,95.25,170.1,453.59,Unlimited,SBD,M,
Boys,74.84,13,Seth Estoll,Mineola,74.39,156.49,90.72,192.78,439.98,Unlimited,SBD,M,
Boys,74.84,14,Jonah Price,Van Alstyne,72.12,165.56,104.33,165.56,435.45,Unlimited,SBD,M,
Boys,74.84,15,Kyle Foster,Commerce,73.75,163.29,97.52,174.63,435.45,Unlimited,SBD,M,
Boys,74.84,16,Shaquan King,Paris,68.86,158.76,99.79,136.08,394.63,Unlimited,SBD,M,
Boys,74.84,17,Nathaniel Manzano,Princeton,70.49,120.2,81.65,156.49,358.34,Unlimited,SBD,M,
Boys,74.84,18,Corey Mingus,Mount Vernon,74.57,131.54,79.38,145.15,356.07,Unlimited,SBD,M,
Boys,74.84,19,Jayden Jackson,Sherman Texoma Christian School,73.03,111.13,65.77,136.08,312.98,Unlimited,SBD,M,
Boys,74.84,20,Benjamin Snyder,Cooper,67.77,113.4,61.23,124.74,299.37,Unlimited,SBD,M,
Boys,74.84,DQ,Aj Sanders,Emory Rains,74.21,,,,,Unlimited,SBD,M,
Boys,74.84,DQ,Knox Bounds,Howe,74.84,163.29,,,,Unlimited,SBD,M,
Boys,74.84,DQ,Brendan Scott,Harleton,74.3,174.63,115.67,,,Unlimited,SBD,M,
Boys,74.84,DQ,Gentry Morrow,Pottsboro,70.58,151.95,,,,Unlimited,SBD,M,
Boys,82.1,1,Moses Medellin,Mineola,80.65,226.8,154.22,206.38,587.4,Unlimited,SBD,M,
Boys,82.1,2,Cameron Johnson,Harleton,82.01,215.46,120.2,201.85,537.51,Unlimited,SBD,M,
Boys,82.1,3,Buddy Posey,Paris North Lamar,79.02,188.24,122.47,199.58,510.29,Unlimited,SBD,M,
Boys,82.1,4,Mario Farfan,Paris,80.38,192.78,124.74,192.78,510.29,Unlimited,SBD,M,
Boys,82.1,5,Fernando Cortes,Pattonville Prairiland,80.56,195.04,127.01,183.7,505.76,Unlimited,SBD,M,
Boys,82.1,6,Lachaunston Grigsby,Paris,81.01,195.04,99.79,210.92,505.76,Unlimited,SBD,M,
Boys,82.1,7,Damian Gonzales,Farmersville,82.01,197.31,115.67,188.24,501.22,Unlimited,SBD,M,
Boys,82.1,8,Forlan Ramos,Mount Vernon,82.01,185.97,120.2,192.78,498.95,Unlimited,SBD,M,
Boys,82.1,9,Cameron Widner,Paris North Lamar,79.47,188.24,106.59,190.51,485.34,Unlimited,SBD,M,
Boys,82.1,10,Justin Green,Cumby,76.48,190.51,104.33,181.44,476.27,Unlimited,SBD,M,
Boys,82.1,11,Ethan Dunham,Mineola,80.29,172.37,106.59,176.9,455.86,Unlimited,SBD,M,
Boys,82.1,12,Cody Jenkins,Commerce,81.83,167.83,90.72,197.31,455.86,Unlimited,SBD,M,
Boys,82.1,13,Parker Wilcox,Commerce,80.92,170.1,92.99,183.7,446.79,Unlimited,SBD,M,
Boys,82.1,14,Weston Landeros,Van Alstyne,76.48,181.44,102.06,158.76,442.25,Unlimited,SBD,M,
Boys,82.1,15,Austin Blalock,Mineola,81.28,181.44,90.72,156.49,428.64,Unlimited,SBD,M,
Boys,82.1,16,David Roush,Cooper,81.01,151.95,90.72,165.56,408.23,Unlimited,SBD,M,
Boys,82.1,17,Jonathan Walters,Princeton,81.19,142.88,77.11,170.1,390.09,Unlimited,SBD,M,
Boys,82.1,18,Caeden Dunning,Princeton,81.28,151.95,83.91,151.95,387.82,Unlimited,SBD,M,
Boys,82.1,19,Cole Davis,Van Alstyne,81.37,129.27,86.18,142.88,358.34,Unlimited,SBD,M,
Boys,82.1,20,Alex Blasingame,Howe,75.93,133.81,77.11,142.88,353.8,Unlimited,SBD,M,
Boys,82.1,21,Braxton Brubaker,Detroit,75.02,131.54,72.57,127.01,331.12,Unlimited,SBD,M,
Boys,82.1,DQ,Jayson Yelton-Brown,Van Alstyne,81.83,206.38,129.27,,,Unlimited,SBD,M,
Boys,89.81,1,Noel Farjardo,Harleton,89.63,231.33,120.2,219.99,571.53,Unlimited,SBD,M,
Boys,89.81,2,Tristan Nichols,Celeste,89.45,201.85,142.88,199.58,544.31,Unlimited,SBD,M,
Boys,89.81,3,Matthew Roland,Paris,89.81,204.12,136.08,201.85,542.04,Unlimited,SBD,M,
Boys,89.81,4,Ronnie Russell,Celeste,85.73,190.51,136.08,206.38,532.97,Unlimited,SBD,M,
Boys,89.81,5,Levi Beavers,Honey Grove,88.99,185.97,129.27,215.46,530.7,Unlimited,SBD,M,
Boys,89.81,6,Jesse Troy,Paris North Lamar,83.64,163.29,136.08,204.12,503.49,Unlimited,SBD,M,
Boys,89.81,7,Sladen Durham,Paris North Lamar,88.9,183.7,127.01,176.9,487.61,Unlimited,SBD,M,
Boys,89.81,8,Jayden Joy,Quinlan Boles,88.63,190.51,113.4,181.44,485.34,Unlimited,SBD,M,
Boys,89.81,9,Chandler Holman,Leonard,85.55,185.97,113.4,183.7,483.08,Unlimited,SBD,M,
Boys,89.81,10,Hunter Takats,Emory Rains,88.99,181.44,122.47,174.63,478.54,Unlimited,SBD,M,
Boys,89.81,11,Daniel Tyutyunnik,Princeton,87.18,181.44,102.06,190.51,474,Unlimited,SBD,M,
Boys,89.81,12,Drake Johnson,Pottsboro,89.18,165.56,115.67,170.1,451.32,Unlimited,SBD,M,
Boys,89.81,13,Enrique Rivera,South Garland,88.27,183.7,88.45,174.63,446.79,Unlimited,SBD,M,
Boys,89.81,14,Carson Blalock,Emory Rains,86.09,181.44,95.25,163.29,439.98,Unlimited,SBD,M,
Boys,89.81,15,Kobe Patt,Honey Grove,86.36,163.29,102.06,172.37,437.72,Unlimited,SBD,M,
Boys,89.81,16,Jadden Coleman,Commerce,89.27,165.56,97.52,163.29,426.38,Unlimited,SBD,M,
Boys,89.81,17,Oswaldo Cisneros,Commerce,87.18,161.03,72.57,176.9,410.5,Unlimited,SBD,M,
Boys,89.81,18,Conner Woods,Paris North Lamar,87.09,129.27,106.59,172.37,408.23,Unlimited,SBD,M,
Boys,89.81,19,Ty Jackson,Celeste,84.19,151.95,106.59,147.42,405.97,Unlimited,SBD,M,
Boys,89.81,20,Dillon Patterson,Howe,85.46,149.69,83.91,165.56,399.16,Unlimited,SBD,M,
Boys,89.81,21,Jaxon Warren,Van Alstyne,86.73,142.88,86.18,136.08,365.14,Unlimited,SBD,M,
Boys,89.81,22,Aidan Cornett,Pottsboro,87.36,142.88,70.31,133.81,347,Unlimited,SBD,M,
Boys,89.81,DQ,Kris Miranda,Pattonville Prairiland,87.72,195.04,136.08,,,Unlimited,SBD,M,
Boys,89.81,DQ,Christian Bailey,Princeton,88.81,156.49,120.2,,,Unlimited,SBD,M,
Boys,99.79,1,Diego Capetillo,Farmersville,95.89,247.21,147.42,244.94,639.57,Unlimited,SBD,M,
Boys,99.79,2,Caiden Moore,Mount Vernon,98.25,238.14,172.37,210.92,621.42,Unlimited,SBD,M,
Boys,99.79,3,Steven Zapata,Gainesville,90.54,263.08,149.69,197.31,610.08,Unlimited,SBD,M,
Boys,99.79,4,Braylin Garcia,Leonard,97.16,235.87,167.83,206.38,610.08,Unlimited,SBD,M,
Boys,99.79,5,Juan Ramos,Mount Vernon,91.72,226.8,145.15,199.58,571.53,Unlimited,SBD,M,
Boys,99.79,6,Maliek Harris,Leonard,91.35,206.38,138.35,217.72,562.45,Unlimited,SBD,M,
Boys,99.79,7,Carlos Serrano,Commerce,94.17,204.12,136.08,199.58,539.77,Unlimited,SBD,M,
Boys,99.79,8,Brody Mahan,Honey Grove,98.07,190.51,122.47,226.8,539.77,Unlimited,SBD,M,
Boys,99.79,9,Cayden Hortman,Harleton,99.79,231.33,124.74,181.44,537.51,Unlimited,SBD,M,
Boys,99.79,10,Charlie Vera,Howe,95.35,217.72,122.47,188.24,528.44,Unlimited,SBD,M,
Boys,99.79,11,Cristian Castro,Farmersville,96.62,192.78,113.4,206.38,512.56,Unlimited,SBD,M,
Boys,99.79,12,Roman Garbrand,Howe,99.7,172.37,117.93,188.24,478.54,Unlimited,SBD,M,
Boys,99.79,13,Tate Quinlan,Farmersville,98.7,170.1,115.67,181.44,467.2,Unlimited,SBD,M,
Boys,99.79,14,Lane Henneman,Van Alstyne,90.26,167.83,113.4,183.7,464.93,Unlimited,SBD,M,
Boys,99.79,15,Charlie Turner,Howe,98.61,192.78,102.06,165.56,460.4,Unlimited,SBD,M,
Boys,99.79,16,Jalen McLennan,South Garland,90.17,170.1,90.72,185.97,446.79,Unlimited,SBD,M,
Boys,99.79,17,Brian Padilla,South Garland,95.62,149.69,83.91,174.63,408.23,Unlimited,SBD,M,
Boys,99.79,18,Ethan Miranda,Pattonville Prairiland,93.53,154.22,92.99,154.22,401.43,Unlimited,SBD,M,
Boys,99.79,19,Thomas Behymer,Van Alstyne,93.44,113.4,65.77,92.99,272.16,Unlimited,SBD,M,
Boys,99.79,DQ,Rhet Ashton,Paris North Lamar,98.07,154.22,,,,Unlimited,SBD,M,
Boys,99.79,DQ,Zyheir Lucas,Quinlan Boles,89.99,208.65,,,,Unlimited,SBD,M,
Boys,109.77,1,Brayden Harris,Leonard,108.23,283.5,185.97,240.4,709.87,Unlimited,SBD,M,
Boys,109.77,2,Zane Sun,Van Alstyne,106.59,251.74,167.83,229.06,648.64,Unlimited,SBD,M,
Boys,109.77,3,Aveon Pacheco,South Garland,106.14,244.94,113.4,222.26,580.6,Unlimited,SBD,M,
Boys,109.77,4,Markease Aubrey,Commerce,101.88,217.72,124.74,208.65,551.11,Unlimited,SBD,M,
Boys,109.77,5,Jayvaryon Brumsey,Mineola,109.13,226.8,115.67,190.51,532.97,Unlimited,SBD,M,
Boys,109.77,6,Orasio Juarez,Farmersville,105.78,190.51,111.13,206.38,508.02,Unlimited,SBD,M,
Boys,109.77,7,Elian Perez,South Garland,102.97,190.51,90.72,204.12,485.34,Unlimited,SBD,M,
Boys,109.77,8,Ryan Mcdermott,Cooper,107.5,188.24,88.45,179.17,455.86,Unlimited,SBD,M,
Boys,109.77,9,Jasen Amix,Farmersville,103.24,165.56,122.47,161.03,449.06,Unlimited,SBD,M,
Boys,109.77,10,Micheal Weimer,Howe,103.51,181.44,97.52,170.1,449.06,Unlimited,SBD,M,
Boys,109.77,11,Xykoda Dorsey,Mount Vernon,108.59,158.76,95.25,158.76,412.77,Unlimited,SBD,M,
Boys,109.77,12,Korbyn Liggins,Paris North Lamar,100.97,167.83,83.91,142.88,394.63,Unlimited,SBD,M,
Boys,124.74,1,Jeremiah Smith,Paris,124.65,240.4,167.83,238.14,646.37,Unlimited,SBD,M,
Boys,124.74,2,Seth Riddle,Commerce,118.66,226.8,127.01,219.99,573.79,Unlimited,SBD,M,
Boys,124.74,3,Luis Hernandez,South Garland,121.93,229.06,127.01,208.65,564.72,Unlimited,SBD,M,
Boys,124.74,4,Juan Cervantes,Mineola,119.39,226.8,142.88,181.44,551.11,Unlimited,SBD,M,
Boys,124.74,5,Mark Vasquez,Farmersville,122.92,226.8,120.2,201.85,548.85,Unlimited,SBD,M,
Boys,124.74,6,Hunter Olivarez,Emory Rains,110.4,210.92,142.88,188.24,542.04,Unlimited,SBD,M,
Boys,124.74,7,Tate Banker,Honey Grove,119.93,226.8,120.2,172.37,519.36,Unlimited,SBD,M,
Boys,124.74,8,Brayden Reynolds,Paris North Lamar,114.21,204.12,120.2,183.7,508.02,Unlimited,SBD,M,
Boys,124.74,9,Carson Thompson,Leonard,117.75,195.04,122.47,151.95,469.47,Unlimited,SBD,M,
Boys,124.74,10,Josh Riddle,Commerce,110.59,165.56,95.25,145.15,405.97,Unlimited,SBD,M,
Boys,124.74,11,Peyton Sprowl,Van Alstyne,112.58,163.29,88.45,147.42,399.16,Unlimited,SBD,M,
Boys,124.74,DQ,Holden Flanagan,Pottsboro,120.93,165.56,,,,Unlimited,SBD,M,
Boys,139.71,1,Jose Rodriguez,Garland Rowlett,132.9,238.14,138.35,206.38,582.87,Unlimited,SBD,M,
Boys,139.71,2,Jason Reyes,Gainesville,130.82,229.06,142.88,195.04,566.99,Unlimited,SBD,M,
Boys,139.71,3,John Gideon,Harleton,131,213.19,131.54,195.04,539.77,Unlimited,SBD,M,
Boys,139.71,4,Hector Platas,South Garland,131.81,188.24,127.01,188.24,503.49,Unlimited,SBD,M,
Boys,139.71,5,Derek Cervantes,Pottsboro,137.44,188.24,120.2,183.7,492.15,Unlimited,SBD,M,
Boys,139.71,6,Jose Garcia,Celeste,127.37,174.63,129.27,170.1,474,Unlimited,SBD,M,
Boys,139.71+,1,Carson Culp,Pottsboro,162.39,226.8,131.54,188.24,546.58,Unlimited,SBD,M,
Boys,139.71+,2,Sawyer Price,Honey Grove,160.84,199.58,102.06,217.72,519.36,Unlimited,SBD,M,
Boys,139.71+,3,Jayden Galindo,Honey Grove,140.25,226.8,102.06,172.37,501.22,Unlimited,SBD,M,
Boys,139.71+,4,Grant Wittman,Van Alstyne,167.56,183.7,142.88,174.63,501.22,Unlimited,SBD,M,
Boys,139.71+,5,Zane Sears,Harleton,147.15,161.03,122.47,170.1,453.59,Unlimited,SBD,M,
Boys,139.71+,DQ,Braxton Armstrong,Leonard,155.76,192.78,147.42,,,Unlimited,SBD,M,
