Division,WeightClassKg,Place,Name,Team,BodyweightKg,Best3SquatKg,Best3BenchKg,Best3DeadliftKg,TotalKg,Equipment,Event,Sex
Boys,51.71,1,Jose Mancia,Greenville,45.81,83.91,52.16,102.06,238.14,Single-ply,SBD,M
Boys,55.79,1,Miguel Hernandez,Emory Rains,55.7,163.29,86.18,158.76,408.23,Single-ply,SBD,M
Boys,55.79,2,Jonathan Alvarez,Sulphur Springs,54.88,129.27,65.77,124.74,319.78,Single-ply,SBD,M
Boys,55.79,3,Jose Castillo #4,Grapeland,54.88,115.67,74.84,127.01,317.51,Single-ply,SBD,M
Boys,55.79,4,Colton Lewis,Lindale,53.89,99.79,77.11,113.4,290.3,Single-ply,SBD,M
Boys,55.79,5,Preston Davis,Lindale,55.79,83.91,61.23,136.08,281.23,Single-ply,SBD,M
Boys,55.79,6,Jordan Fletcher,Lindale,52.98,92.99,49.9,104.33,247.21,Single-ply,SBD,M
Boys,55.79,DQ,Bailey Kurtz,Bullard,53.61,,,,,Single-ply,SBD,M
Boys,55.79,DQ,Dustin Crabtree,Sulphur Springs,52.71,,,,,Single-ply,SBD,M
Boys,59.87,1,Riley Slocum,Longview Pine Tree,56.88,138.35,81.65,158.76,378.75,Single-ply,SBD,M
Boys,59.87,2,Ernan Medrano,Greenville,56.61,97.52,97.52,108.86,303.91,Single-ply,SBD,M
Boys,67.13,1,Sean Pobst,Quinlan Ford,66.95,174.63,97.52,208.65,480.81,Single-ply,SBD,M
Boys,67.13,2,Cesar Colunga,Emory Rains,60.42,147.42,74.84,174.63,396.89,Single-ply,SBD,M
Boys,67.13,3,Richard Torrelli,Bullard,64.59,124.74,97.52,165.56,387.82,Single-ply,SBD,M
Boys,67.13,4,Cody Bargerhuff,Greenville,65.77,156.49,81.65,145.15,383.29,Single-ply,SBD,M
Boys,67.13,5,Mah Scruggs,Troup,65.95,129.27,99.79,151.95,381.02,Single-ply,SBD,M
Boys,67.13,6,Michael Zuniga #1,Troup,63.32,124.74,74.84,170.1,369.68,Single-ply,SBD,M
Boys,67.13,7,Kaleb Leonard,Grapeland,66.95,129.27,88.45,151.95,369.68,Single-ply,SBD,M
Boys,67.13,8,Sergio Camacho,Emory Rains,63.32,133.81,77.11,154.22,365.14,Single-ply,SBD,M
Boys,67.13,9,Montana Meador,Lindale,63.5,136.08,72.57,142.88,351.53,Single-ply,SBD,M
Boys,67.13,10,Maliq Owens,Longview Pine Tree,67.13,133.81,79.38,129.27,342.46,Single-ply,SBD,M
Boys,67.13,11,Wrangler Welch,Quinlan Ford,62.32,124.74,68.04,145.15,337.93,Single-ply,SBD,M
Boys,67.13,12,C Pruitt,Sulphur Springs,62.96,111.13,74.84,113.4,299.37,Single-ply,SBD,M
Boys,67.13,13,Moses Garcia,Quinlan Ford,64.41,68.04,61.23,102.06,231.33,Single-ply,SBD,M
Boys,67.13,DQ,Cade Duvak,Bullard,61.78,124.74,,,,Single-ply,SBD,M
Boys,67.13,DQ,Jose Guajardo,Greenville,62.69,,,,,Single-ply,SBD,M
Boys,82.1,1,Ryan Taylor #9,Lindale,75.07,197.31,113.4,199.58,510.29,Single-ply,SBD,M
Boys,74.84,2,Brett Martin,Troup,71.67,172.37,99.79,192.78,464.93,Single-ply,SBD,M
Boys,74.84,3,Tyler Pullum,Winona,72.03,165.56,111.13,183.7,460.4,Single-ply,SBD,M
Boys,74.84,4,Charles Willman,Quinlan Ford,74.84,165.56,124.74,165.56,455.86,Single-ply,SBD,M
Boys,74.84,5,Hayden Dees,Lindale,74.84,165.56,90.72,181.44,437.72,Single-ply,SBD,M
Boys,74.84,6,Saul Rios,Lindale,74.84,165.56,90.72,170.1,426.38,Single-ply,SBD,M
Boys,74.84,7,Pj Lewis,Grapeland,69.58,156.49,79.38,181.44,417.3,Single-ply,SBD,M
Boys,74.84,8,Cameron Riess,Grapeland,74.03,170.1,83.91,158.76,412.77,Single-ply,SBD,M
Boys,74.84,9,Naim Diego,Emory Rains,70.85,151.95,72.57,183.7,408.23,Single-ply,SBD,M
Boys,74.84,10,Jeremy Gleen,Greenville,73.57,165.56,83.91,151.95,401.43,Single-ply,SBD,M
Boys,74.84,11,Jacob Waggoner,Lindale,68.95,145.15,74.84,170.1,390.09,Single-ply,SBD,M
Boys,74.84,12,Vincent Morales,Sulphur Springs,68.22,136.08,65.77,163.29,365.14,Single-ply,SBD,M
Boys,74.84,13,Tristan Clark,Troup,69.04,129.27,102.06,124.74,356.07,Single-ply,SBD,M
Boys,74.84,14,Jose Cerda,New London West Rusk,71.3,129.27,83.91,131.54,344.73,Single-ply,SBD,M
Boys,74.84,15,Keenan Lister,Longview Pine Tree,71.76,124.74,81.65,136.08,342.46,Single-ply,SBD,M
Boys,74.84,16,Isiah Richardson,Longview Pine Tree,70.94,124.74,72.57,136.08,333.39,Single-ply,SBD,M
Boys,74.84,DQ,Kim Moore #2,Longview Pine Tree,68.22,115.67,,,,Single-ply,SBD,M
Boys,74.84,DQ,Calvin Olsen,Quinlan Ford,74.39,,,,,Single-ply,SBD,M
Boys,82.1,1,Tavion Hall,Kerens,81.65,240.4,138.35,244.94,623.69,Single-ply,SBD,M
Boys,82.1,2,Michael Hansen,Lindale,78.47,206.38,120.2,204.12,530.7,Single-ply,SBD,M
Boys,82.1,3,Quay Ward,Longview Pine Tree,80.74,195.04,124.74,183.7,503.49,Single-ply,SBD,M
Boys,82.1,4,Chris Bradford,Bullard,77.2,183.7,113.4,204.12,501.22,Single-ply,SBD,M
Boys,82.1,5,Kyle Alexander #2,Bullard,82.1,199.58,92.99,174.63,467.2,Single-ply,SBD,M
Boys,82.1,6,Donovan Yeley,Bullard,76.29,172.37,95.25,158.76,426.38,Single-ply,SBD,M
Boys,82.1,7,Josh Robertson,Longview Pine Tree,81.01,156.49,92.99,156.49,405.97,Single-ply,SBD,M
Boys,82.1,8,Ben McFadden,Lindale,82.1,161.03,79.38,158.76,399.16,Single-ply,SBD,M
Boys,82.1,9,Joseu Pena,Greenville,81.56,156.49,79.38,156.49,392.36,Single-ply,SBD,M
Boys,82.1,10,Clayton Hawley,Lindale,77.56,145.15,99.79,142.88,387.82,Single-ply,SBD,M
Boys,82.1,11,Noeh Soils,Kerens,80.38,131.54,72.57,149.69,353.8,Single-ply,SBD,M
Boys,82.1,12,Ramiro Martinez,Troup,76.38,129.27,95.25,124.74,349.27,Single-ply,SBD,M
Boys,82.1,13,Corey Maxfield,Winona,79.56,142.88,70.31,136.08,349.27,Single-ply,SBD,M
Boys,82.1,14,Brody Mullican,Bullard,77.47,147.42,34.02,142.88,324.32,Single-ply,SBD,M
Boys,89.81,1,James Seekford,Lindale,84.01,238.14,158.76,208.65,605.55,Single-ply,SBD,M
Boys,89.81,2,Brandon Melton,Quinlan Ford,89.36,226.8,122.47,208.65,557.92,Single-ply,SBD,M
Boys,89.81,3,Coltin Morrison,Sulphur Springs,84.1,161.03,99.79,181.44,442.25,Single-ply,SBD,M
Boys,89.81,4,Noah Smith,Longview Pine Tree,88.36,161.03,106.59,172.37,439.98,Single-ply,SBD,M
Boys,89.81,5,Guillermo Vasquez,Greenville,82.46,179.17,92.99,165.56,437.72,Single-ply,SBD,M
Boys,89.81,6,Jairus Aguilar,Emory Rains,83.37,174.63,83.91,170.1,428.64,Single-ply,SBD,M
Boys,89.81,7,Thomas Brooks,Bullard,85.18,174.63,97.52,149.69,421.84,Single-ply,SBD,M
Boys,89.81,8,Isaiah Neal,Sulphur Springs,83.19,165.56,95.25,156.49,417.3,Single-ply,SBD,M
Boys,89.81,9,Dustin Achley,Grapeland,83.1,147.42,77.11,158.76,383.29,Single-ply,SBD,M
Boys,89.81,10,Jesse Head,Lindale,89.81,149.69,74.84,156.49,381.02,Single-ply,SBD,M
Boys,89.81,11,Kc White,Emory Rains,82.92,131.54,72.57,145.15,349.27,Single-ply,SBD,M
Boys,89.81,DQ,Cody Godwin,Emory Rains,82.92,142.88,,,,Single-ply,SBD,M
Boys,89.81,DQ,Corando Hale,Greenville,87.45,233.6,,,,Single-ply,SBD,M
Boys,99.79,1,Anthony Howard #3,New London West Rusk,93.8,226.8,136.08,251.74,614.62,Single-ply,SBD,M
Boys,99.79,2,Kerrian Goree,Greenville,97.79,215.46,142.88,204.12,562.45,Single-ply,SBD,M
Boys,99.79,3,Eli Britt,Emory Rains,94.62,226.8,117.93,181.44,526.17,Single-ply,SBD,M
Boys,99.79,4,Alex Gamez,Sulphur Springs,94.44,204.12,115.67,204.12,523.9,Single-ply,SBD,M
Boys,99.79,5,Taylor Sipes,Lindale,95.25,204.12,115.67,204.12,523.9,Single-ply,SBD,M
Boys,99.79,6,Eli Crawford,Kerens,96.98,190.51,104.33,204.12,498.95,Single-ply,SBD,M
Boys,99.79,7,David Mitchell-Blaylock,Winona,91.63,174.63,115.67,183.7,474,Single-ply,SBD,M
Boys,99.79,8,Joe Wright,New London West Rusk,98.88,179.17,111.13,181.44,471.74,Single-ply,SBD,M
Boys,109.77,9,Matthew Davidson,New London West Rusk,99.88,183.7,92.99,192.78,469.47,Single-ply,SBD,M
Boys,99.79,10,Grayson Burns,Emory Rains,95.71,183.7,102.06,172.37,458.13,Single-ply,SBD,M
Boys,109.77,11,Billy Pritchett,Quinlan Ford,99.88,170.1,79.38,185.97,435.45,Single-ply,SBD,M
Boys,99.79,12,Austin Rider,Greenville,94.98,165.56,99.79,156.49,421.84,Single-ply,SBD,M
Boys,99.79,13,Brandon Osteen,New London West Rusk,94.26,156.49,88.45,165.56,410.5,Single-ply,SBD,M
Boys,99.79,14,Jayson Solomon,Troup,96.43,161.03,83.91,149.69,394.63,Single-ply,SBD,M
Boys,99.79,15,William Craver,Troup,99.16,131.54,74.84,138.35,344.73,Single-ply,SBD,M
Boys,99.79,16,Brett Howe,New London West Rusk,91.99,111.13,70.31,142.88,324.32,Single-ply,SBD,M
Boys,99.79,DQ,Armando Cortes,Emory Rains,90.26,,,,,Single-ply,SBD,M
Boys,99.79,DQ,Andrew Brooks,Bullard,93.62,174.63,,,,Single-ply,SBD,M
Boys,99.79,DQ,Caleb Hallford,Bullard,96.34,,,,,Single-ply,SBD,M
Boys,109.77,1,Taner Renfro,Quinlan Ford,102.15,272.16,136.08,226.8,635.03,Single-ply,SBD,M
Boys,109.77,2,Tyler Segrest,Lindale,104.33,215.46,129.27,226.8,571.53,Single-ply,SBD,M
Boys,109.77,3,Reece Clark,Troup,105.87,222.26,99.79,190.51,512.56,Single-ply,SBD,M
Boys,109.77,4,Mitchell Graham,Bullard,109.77,174.63,127.01,176.9,478.54,Single-ply,SBD,M
Boys,109.77,5,Ian Blench,Sulphur Springs,102.69,201.85,95.25,163.29,460.4,Single-ply,SBD,M
Boys,109.77,6,Brandon Foster,Sulphur Springs,103.78,174.63,122.47,156.49,453.59,Single-ply,SBD,M
Boys,109.77,7,Layton Pace,Sulphur Springs,107.14,165.56,88.45,165.56,419.57,Single-ply,SBD,M
Boys,109.77,8,Cory Young,Lindale,101.6,158.76,74.84,147.42,381.02,Single-ply,SBD,M
Boys,109.77,9,Jason White,Emory Rains,100.33,136.08,92.99,145.15,374.21,Single-ply,SBD,M
Boys,109.77,10,Z Bryant,Quinlan Ford,103.69,136.08,81.65,140.61,358.34,Single-ply,SBD,M
Boys,124.74,1,Jake Allen #7,Bullard,120.66,242.67,147.42,226.8,616.89,Single-ply,SBD,M
Boys,124.74,2,Corey Brister,New London West Rusk,123.38,226.8,136.08,217.72,580.6,Single-ply,SBD,M
Boys,124.74,3,JW McFarland,Bullard,117.84,219.99,127.01,183.7,530.7,Single-ply,SBD,M
Boys,124.74,4,Cameron Fleming,Lindale,124.74,222.26,111.13,181.44,514.83,Single-ply,SBD,M
Boys,124.74,5,Javier Utrera,Quinlan Ford,110.95,204.12,111.13,165.56,480.81,Single-ply,SBD,M
Boys,124.74,6,Ernesto Lopez,Greenville,117.12,204.12,108.86,167.83,480.81,Single-ply,SBD,M
Boys,124.74,7,Alex Andrews,New London West Rusk,113.94,183.7,92.99,172.37,449.06,Single-ply,SBD,M
Boys,124.74,8,Christian Ingram,Lindale,113.85,154.22,88.45,170.1,412.77,Single-ply,SBD,M
Boys,124.74,9,Logan Delarso,Greenville,121.93,170.1,90.72,149.69,410.5,Single-ply,SBD,M
Boys,124.74,10,John Campbell,Bullard,123.29,161.03,83.91,147.42,392.36,Single-ply,SBD,M
Boys,124.74,11,Abram Garcia,Quinlan Ford,112.76,81.65,61.23,113.4,256.28,Single-ply,SBD,M
Boys,124.74,DQ,Raveen Garcia,Troup,112.94,147.42,72.57,,,Single-ply,SBD,M
Boys,124.74+,1,Dre Alex,Greenville,145.78,206.38,158.76,183.7,548.85,Single-ply,SBD,M
Boys,124.74+,2,Brandon Brumbelow,Kerens,127.64,217.72,133.81,195.04,546.58,Single-ply,SBD,M
Boys,124.74+,3,Alunte Jackson,Longview Pine Tree,162.48,201.85,108.86,226.8,537.51,Single-ply,SBD,M
Boys,124.74+,4,Malik Clark,New London West Rusk,128.37,204.12,124.74,197.31,526.17,Single-ply,SBD,M
Boys,124.74+,5,Matt Carr,Bullard,151.05,192.78,133.81,181.44,508.02,Single-ply,SBD,M
Boys,124.74+,6,Gaylon Gradick,Lindale,145.51,181.44,113.4,181.44,476.27,Single-ply,SBD,M
Boys,124.74+,7,Manuale Saavedra,Greenville,137.35,199.58,108.86,156.49,464.93,Single-ply,SBD,M
Boys,124.74+,8,Jaylon White,Troup,213.19,156.49,104.33,147.42,408.23,Single-ply,SBD,M
Boys,124.74+,9,Mose Jeffery,Longview Pine Tree,130.18,174.63,79.38,151.95,405.97,Single-ply,SBD,M
Boys,124.74+,10,Cole Brumbelow,Kerens,140.07,149.69,86.18,154.22,390.09,Single-ply,SBD,M
Boys,124.74+,11,Norris English,Sulphur Springs,135.08,138.35,81.65,147.42,367.41,Single-ply,SBD,M
