Division,WeightClassKg,Place,Name,Team,BodyweightKg,Best3SquatKg,Best3BenchKg,Best3DeadliftKg,TotalKg,Equipment,Event,Sex,BirthDate
Boys,55.79,1,Max Trevino,Lamesa,55.34,124.74,52.16,142.88,319.78,Unlimited,SBD,M,
Boys,55.79,2,Brody Pence,Denver City,55.34,106.59,54.43,111.13,272.16,Unlimited,SBD,M,
Boys,55.79,3,Daniel Longoria,Plains,52.62,68.04,58.97,113.4,240.4,Unlimited,SBD,M,
Boys,55.79,4,Brady Robles,Plains,54.88,72.57,61.23,97.52,231.33,Unlimited,SBD,M,
Boys,59.87,1,Marcus Gonzalez,Plains,58.51,104.33,74.84,133.81,312.98,Unlimited,SBD,M,
Boys,59.87,2,Shiv Bhakta,Lamesa,59.42,108.86,52.16,145.15,306.17,Unlimited,SBD,M,
Boys,59.87,3,Aiden Nelms,Plains,56.25,70.31,58.97,104.33,233.6,Unlimited,SBD,M,
Boys,67.13,1,Colton Engle,Slaton,66.22,170.1,111.13,195.04,476.27,Unlimited,SBD,M,
Boys,67.13,2,Zamion Davila,Slaton,65.14,179.17,95.25,183.7,458.13,Unlimited,SBD,M,
Boys,67.13,3,Jhoan Menjivar,Plains,62.14,142.88,92.99,167.83,403.7,Unlimited,SBD,M,
Boys,67.13,4,Austin Simmons,Slaton,65.5,142.88,106.59,133.81,383.29,Unlimited,SBD,M,
Boys,67.13,5,Elijah Maldonado,Lamesa,65.54,142.88,77.11,147.42,367.41,Unlimited,SBD,M,
Boys,67.13,6,Jesus Caro,Plains,64.41,86.18,63.5,124.74,274.42,Unlimited,SBD,M,
Boys,67.13,7,Otto Wiebe,Seminole,63.96,74.84,68.04,127.01,269.89,Unlimited,SBD,M,
Boys,74.84,1,Bryson Salazar,Slaton,74.66,215.46,136.08,215.46,566.99,Unlimited,SBD,M,
Boys,74.84,2,Derrick Valdespino,Denver City,71.12,195.04,131.54,190.51,517.1,Unlimited,SBD,M,
Boys,74.84,3,Collin Simmons,Slaton,72.12,183.7,124.74,183.7,492.15,Unlimited,SBD,M,
Boys,74.84,4,Noah Cantu,Muleshoe,70.49,183.7,104.33,199.58,487.61,Unlimited,SBD,M,
Boys,74.84,5,Ryan Clifton,Muleshoe,73.94,190.51,104.33,190.51,485.34,Unlimited,SBD,M,
Boys,74.84,6,Nelson Avila,Plains,73.94,167.83,108.86,185.97,462.66,Unlimited,SBD,M,
Boys,74.84,7,Ulises Larrea,Denver City,73.39,165.56,117.93,170.1,453.59,Unlimited,SBD,M,
Boys,74.84,8,Izaak Trejo,Lamesa,73.48,170.1,68.04,170.1,408.23,Unlimited,SBD,M,
Boys,74.84,9,Lucky Garcia,Slaton,70.58,158.76,92.99,147.42,399.16,Unlimited,SBD,M,
Boys,74.84,10,Izaic Gonzales,Lamesa,68.49,151.95,74.84,165.56,392.36,Unlimited,SBD,M,
Boys,74.84,11,Evan Schmitt,Seminole,74.84,147.42,79.38,165.56,392.36,Unlimited,SBD,M,
Boys,74.84,12,Diego Viduarre,Lamesa,68.95,156.49,65.77,151.95,374.21,Unlimited,SBD,M,
Boys,74.84,13,Joshua Woody,Seminole,72.57,147.42,79.38,136.08,362.87,Unlimited,SBD,M,
Boys,74.84,14,Elias Menjivar,Plains,70.31,129.27,81.65,145.15,356.07,Unlimited,SBD,M,
Boys,74.84,15,Camden Huse,Denver City,72.76,120.2,74.84,158.76,353.8,Unlimited,SBD,M,
Boys,74.84,16,Gael Lozano,Plains,68.95,108.86,63.5,136.08,308.44,Unlimited,SBD,M,
Boys,82.1,1,Ricardo Balzadua,Slaton,81.83,195.04,115.67,199.58,510.29,Unlimited,SBD,M,
Boys,82.1,2,Stephen De La Rosa,Plains,77.56,176.9,102.06,188.24,467.2,Unlimited,SBD,M,
Boys,82.1,3,Jordan Giesbrecht,Seminole,79.83,165.56,99.79,151.95,417.3,Unlimited,SBD,M,
Boys,82.1,4,Dillon Gretch,Seminole,79.38,151.95,77.11,183.7,412.77,Unlimited,SBD,M,
Boys,82.1,5,Darrel Bayona,Denver City,80.01,158.76,81.65,140.61,381.02,Unlimited,SBD,M,
Boys,82.1,6,Halen Hadley,Seminole,81.19,131.54,74.84,145.15,351.53,Unlimited,SBD,M,
Boys,82.1,7,Zach Mendez,Plains,76.66,111.13,81.65,151.95,344.73,Unlimited,SBD,M,
Boys,82.1,8,Ivan Garcia,Lamesa,81.42,120.2,65.77,133.81,319.78,Unlimited,SBD,M,
Boys,89.81,1,Ivan Trinidad,Denver City,89.36,188.24,161.03,206.38,555.65,Unlimited,SBD,M,
Boys,89.81,2,CJ Linarez,Slaton,89.81,197.31,127.01,204.12,528.44,Unlimited,SBD,M,
Boys,89.81,3,Jaden Alvear,Slaton,89.58,183.7,102.06,188.24,474,Unlimited,SBD,M,
Boys,89.81,4,Martin Leon,Denver City,89.72,142.88,102.06,147.42,392.36,Unlimited,SBD,M,
Boys,89.81,5,Luis Marquez,Denver City,85.91,149.69,79.38,129.27,358.34,Unlimited,SBD,M,
Boys,89.81,6,Andres Hernandez,Denver City,88.36,138.35,81.65,122.47,342.46,Unlimited,SBD,M,
Boys,89.81,7,Noah Rodriguez,Lamesa,84.82,131.54,70.31,124.74,326.59,Unlimited,SBD,M,
Boys,99.79,1,Audel Sanchez,Seminole,98.88,185.97,102.06,206.38,494.42,Unlimited,SBD,M,
Boys,99.79,2,Marquez Garcia,Denver City,98.88,190.51,131.54,167.83,489.88,Unlimited,SBD,M,
Boys,99.79,3,Cason Brown,Slaton,92.8,174.63,136.08,174.63,485.34,Unlimited,SBD,M,
Boys,99.79,4,Richard Badillo,Plains,94.8,165.56,115.67,190.51,471.74,Unlimited,SBD,M,
Boys,99.79,5,Angel Lozano,Plains,99.34,163.29,104.33,183.7,451.32,Unlimited,SBD,M,
Boys,99.79,6,Justin Vasquez,Lamesa,97.75,163.29,81.65,165.56,410.5,Unlimited,SBD,M,
Boys,99.79,7,Adam Garza,Seminole,97.52,113.4,68.04,142.88,324.32,Unlimited,SBD,M,
Boys,99.79,DQ,Jonathan Badillo,Plains,94.8,,,,,Unlimited,SBD,M,
Boys,109.77,1,Daniel Leyva,Slaton,102.51,258.55,170.1,208.65,637.3,Unlimited,SBD,M,
Boys,109.77,2,Toby Espinoza,Denver City,109.04,188.24,136.08,174.63,498.95,Unlimited,SBD,M,
Boys,109.77,3,Jake Sumrow,Seminole,108.41,167.83,124.74,204.12,496.68,Unlimited,SBD,M,
Boys,109.77,4,Jose Sanchez,Slaton,109.23,176.9,117.93,172.37,467.2,Unlimited,SBD,M,
Boys,109.77,5,Lucas Acosta,Lamesa,109.09,136.08,86.18,147.42,369.68,Unlimited,SBD,M,
Boys,109.77,6,Brenden Garcia,Seminole,108.86,136.08,79.38,124.74,340.19,Unlimited,SBD,M,
Boys,109.77,7,Noah Franco,Seminole,108.86,61.23,40.82,113.4,215.46,Unlimited,SBD,M,
Boys,124.74,1,Alex Quintero,Slaton,124.1,254.01,167.83,238.14,659.98,Unlimited,SBD,M,
Boys,124.74,2,Julian Madrid,Denver City,117.12,213.19,136.08,195.04,544.31,Unlimited,SBD,M,
Boys,124.74,3,Bobby Quintero,Slaton,113.31,183.7,131.54,185.97,501.22,Unlimited,SBD,M,
Boys,124.74,4,Carsen Cox,Seminole,114.31,181.44,104.33,172.37,458.13,Unlimited,SBD,M,
Boys,124.74,5,Owen Call,Seminole,117.03,174.63,81.65,188.24,444.52,Unlimited,SBD,M,
Boys,124.74,6,Garrett Sellers,Seminole,114.31,165.56,92.99,149.69,408.23,Unlimited,SBD,M,
Boys,124.74,DQ,Mason Lazos,Plains,114.76,,,,,Unlimited,SBD,M,
Boys,,NS,Gavyn Farrell,Denver City,,,,,,Unlimited,SBD,M,
Boys,,NS,Elijah Gutierrez,Denver City,,183.7,,,,Unlimited,SBD,M,
Boys,,NS,Ethan Anzley,Slaton,,,,,,Unlimited,SBD,M,
Boys,,NS,Junior Birones,Denver City,,,,,,Unlimited,SBD,M,
Boys,,NS,Kaden Vela,Lamesa,,,,,,Unlimited,SBD,M,
Boys,,NS,Mason Martinez,Slaton,,206.38,,,,Unlimited,SBD,M,
