Division,WeightClassKg,Place,Name,Team,BodyweightKg,Best3SquatKg,Best3BenchKg,Best3DeadliftKg,TotalKg,Equipment,Event,Sex,BirthDate
Boys,51.71,1,Dah Say,San Antonio Memorial,50.89,156.49,83.91,140.61,381.02,Unlimited,SBD,M,
Boys,51.71,2,Dominic Flores,South San Antonio,51.48,122.47,79.38,151.95,353.8,Unlimited,SBD,M,
Boys,51.71,3,Dante Matthews,Seguin,51.53,129.27,65.77,122.47,317.51,Unlimited,SBD,M,
Boys,51.71,4,Elijah McCloud,Comal Canyon Lake,44.81,65.77,34.02,72.57,172.37,Unlimited,SBD,M,
Boys,51.71,NS,Ricky Medina,Somerset,,,,,,Unlimited,SBD,M,
Boys,55.79,1,James Medrano,Seguin,54.98,281.23,158.76,222.26,662.24,Unlimited,SBD,M,
Boys,55.79,2,Gabe Soliz,Seguin,55.43,183.7,111.13,174.63,469.47,Unlimited,SBD,M,
Boys,55.79,3,Silas Inclan,San Antonio Southside,55.25,149.69,79.38,154.22,383.29,Unlimited,SBD,M,
Boys,55.79,4,Greyson Karlik,Geronimo Navarro,54.7,136.08,77.11,149.69,362.87,Unlimited,SBD,M,
Boys,55.79,5,Trey Kennedy,Comal Davenport,54.79,136.08,81.65,138.35,356.07,Unlimited,SBD,M,
Boys,55.79,NS,Jaxon Anderson,Castroville Medina Valley,,,,,,Unlimited,SBD,M,
Boys,59.87,1,Brody Vigil,Castroville Medina Valley,59.15,226.8,136.08,204.12,566.99,Unlimited,SBD,M,
Boys,59.87,2,Joshua Ramirez,Somerset,59.51,176.9,104.33,188.24,469.47,Unlimited,SBD,M,
Boys,59.87,3,McLaren Morin St Clair,Comal Davenport,59.15,170.1,99.79,183.7,453.59,Unlimited,SBD,M,
Boys,59.87,4,John Medrano,Seguin,59.42,174.63,102.06,158.76,435.45,Unlimited,SBD,M,
Boys,59.87,5,Caleb Aguilar,Seguin,59.87,167.83,113.4,142.88,424.11,Unlimited,SBD,M,
Boys,59.87,6,Canon Arledge,Fredericksburg,58.69,133.81,79.38,174.63,387.82,Unlimited,SBD,M,
Boys,59.87,7,Javon Tutt,Castroville Medina Valley,57.79,133.81,68.04,163.29,365.14,Unlimited,SBD,M,
Boys,59.87,8,Jack Van Winkle,Luling,59.15,86.18,49.9,92.99,229.06,Unlimited,SBD,M,
Boys,59.87,DQ,Caden Doble,Killeen Chaparral,59.24,158.76,,,,Unlimited,SBD,M,
Boys,59.87,DQ,Chris Lowe,San Antonio Kennedy,59.87,,108.86,,,Unlimited,SBD,M,
Boys,59.87,NS,Julian Ayala,Jourdanton,,,,,,Unlimited,SBD,M,
Boys,59.87,NS,Issac Guzman,South San Antonio,,,,,,Unlimited,SBD,M,
Boys,67.13,1,Jayden Ibarra,Poteet,66.41,235.87,149.69,258.55,644.1,Unlimited,SBD,M,
Boys,67.13,2,Angelo Ortiz,Somerset,65.95,226.8,142.88,226.8,596.47,Unlimited,SBD,M,
Boys,67.13,3,Dylan Trotti,Geronimo Navarro,65.32,226.8,151.95,208.65,587.4,Unlimited,SBD,M,
Boys,67.13,4,Jasiah Herrera,Seguin,66.22,226.8,129.27,215.46,571.53,Unlimited,SBD,M,
Boys,67.13,5,Maeson Acevedo,Poteet,66.32,224.53,127.01,219.99,571.53,Unlimited,SBD,M,
Boys,67.13,6,Eduardo Cerna,Seguin,66.04,183.7,142.88,210.92,537.51,Unlimited,SBD,M,
Boys,67.13,7,Evan Rodriguez,Geronimo Navarro,66.95,199.58,127.01,208.65,535.24,Unlimited,SBD,M,
Boys,67.13,8,Jacob Tuckness,Comal Canyon Lake,66.13,188.24,115.67,206.38,510.29,Unlimited,SBD,M,
Boys,67.13,9,Trinidad Aguirre,Geronimo Navarro,62.41,183.7,120.2,204.12,508.02,Unlimited,SBD,M,
Boys,67.13,10,Kaden Lewis,Comal Canyon Lake,64.68,181.44,124.74,192.78,498.95,Unlimited,SBD,M,
Boys,67.13,11,Connor Bloch,Seguin,66.68,165.56,124.74,183.7,474,Unlimited,SBD,M,
Boys,67.13,12,Brison Hernandez,Seguin,64.68,183.7,102.06,185.97,471.74,Unlimited,SBD,M,
Boys,67.13,13,Kaden Delavan,Killeen Chaparral,66.77,165.56,106.59,183.7,455.86,Unlimited,SBD,M,
Boys,67.13,14,Eugenio Resendiz,San Antonio Memorial,66.77,147.42,102.06,170.1,419.57,Unlimited,SBD,M,
Boys,67.13,15,Noah Tatum,Fredericksburg,62.14,142.88,86.18,181.44,410.5,Unlimited,SBD,M,
Boys,67.13,16,Adam Arredondo,Seguin,67.13,142.88,102.06,145.15,390.09,Unlimited,SBD,M,
Boys,67.13,17,Evan Robles,Castroville Medina Valley,61.69,151.95,61.23,163.29,376.48,Unlimited,SBD,M,
Boys,67.13,18,Zayden Jones,Manor New Tech,65.05,115.67,68.04,163.29,347,Unlimited,SBD,M,
Boys,67.13,19,Jakob Hoffpauir,Comal Davenport,66.95,,97.52,161.03,258.55,Unlimited,BD,M,
Boys,67.13,20,Joshua Garcia,Converse Judson,66.04,111.13,83.91,,195.04,Unlimited,SB,M,
Boys,67.13,DQ,Owen Jarret,Castroville Medina Valley,65.95,183.7,115.67,206.38,,Unlimited,SBD,M,
Boys,67.13,DQ,Michael Matos,Castroville Medina Valley,63.78,,,,,Unlimited,SBD,M,
Boys,67.13,DQ,Jayden Johnson,Castroville Medina Valley,61.42,,92.99,174.63,,Unlimited,SBD,M,
Boys,74.84,1,David Ramos,South San Antonio,74.53,283.5,192.78,235.87,712.14,Unlimited,SBD,M,
Boys,74.84,2,Matt Elson,Comal Canyon Lake,70.94,260.82,183.7,224.53,669.05,Unlimited,SBD,M,
Boys,74.84,3,Scott Gantzler,Castroville Medina Valley,73.39,188.24,124.74,265.35,578.33,Unlimited,SBD,M,
Boys,74.84,4,Max Guzman,Castroville Medina Valley,74.3,192.78,147.42,195.04,535.24,Unlimited,SBD,M,
Boys,74.84,5,Greg Thompson,Castroville Medina Valley,74.84,213.19,127.01,190.51,530.7,Unlimited,SBD,M,
Boys,74.84,6,Hagan Kraul,Geronimo Navarro,74.48,197.31,115.67,199.58,512.56,Unlimited,SBD,M,
Boys,74.84,7,Hunter Avila,Comal Davenport,73.84,170.1,120.2,206.38,496.68,Unlimited,SBD,M,
Boys,74.84,8,Xavier Rangel,Seguin,73.94,201.85,127.01,165.56,494.42,Unlimited,SBD,M,
Boys,74.84,9,Ace Rivera,Seguin,73.12,188.24,122.47,172.37,483.08,Unlimited,SBD,M,
Boys,74.84,10,Mason Esparza,San Antonio Holy Cross,72.94,195.04,111.13,163.29,469.47,Unlimited,SBD,M,
Boys,74.84,11,Alex Trevino,South San Antonio,74.84,188.24,102.06,172.37,462.66,Unlimited,SBD,M,
Boys,74.84,12,Houston Herrera,Seguin,74.21,190.51,92.99,170.1,453.59,Unlimited,SBD,M,
Boys,74.84,13,Marcos Garcia,Seguin,72.12,170.1,92.99,183.7,446.79,Unlimited,SBD,M,
Boys,74.84,14,Jonah Hernandez,Luling,73.66,188.24,92.99,149.69,430.91,Unlimited,SBD,M,
Boys,74.84,15,Kendall Robinson,Converse Judson,70.4,145.15,74.84,183.7,403.7,Unlimited,SBD,M,
Boys,74.84,16,Kanyon Lee Kothmann,Fredericksburg,74.84,129.27,90.72,158.76,378.75,Unlimited,SBD,M,
Boys,74.84,17,Jonathan Corchado,Converse Judson,70.67,124.74,68.04,176.9,369.68,Unlimited,SBD,M,
Boys,74.84,18,Jonas Preetorius,Converse Judson,72.21,149.69,79.38,138.35,367.41,Unlimited,SBD,M,
Boys,74.84,19,Keaton Cole,Luling,67.49,120.2,79.38,124.74,324.32,Unlimited,SBD,M,
Boys,74.84,20,Gavin Grantham,Luling,71.85,113.4,74.84,106.59,294.84,Unlimited,SBD,M,
Boys,74.84,21,Mike Munoz,Seguin,71.3,145.15,,,145.15,Unlimited,S,M,
Boys,74.84,NS,Jacob Valdez,Converse Judson,,,,,,Unlimited,SBD,M,
Boys,74.84,NS,Cornelio Valdez,Poteet,,,,,,Unlimited,SBD,M,
Boys,74.84,NS,Kamden Ray,Jourdanton,,,,,,Unlimited,SBD,M,
Boys,74.84,NS,Noah Guerra,Jourdanton,,,,,,Unlimited,SBD,M,
Boys,74.84,DQ,Nate Grier,Manor New Tech,71.3,124.74,81.65,,,Unlimited,SBD,M,
Boys,82.1,1,Juan Ramirez,Castroville Medina Valley,81.37,324.32,174.63,297.1,796.05,Unlimited,SBD,M,
Boys,82.1,2,Caleb Shiroky,Geronimo Navarro,80.92,251.74,172.37,244.94,669.05,Unlimited,SBD,M,
Boys,82.1,3,Rylan Rubio,Seguin,80.56,240.4,156.49,215.46,612.35,Unlimited,SBD,M,
Boys,82.1,4,Raemon Buentello,Castroville Medina Valley,79.65,215.46,167.83,215.46,598.74,Unlimited,SBD,M,
Boys,82.1,5,John Victela,San Antonio Memorial,76.75,226.8,133.81,199.58,560.19,Unlimited,SBD,M,
Boys,82.1,6,Trevor Allen,Castroville Medina Valley,78.83,219.99,129.27,204.12,553.38,Unlimited,SBD,M,
Boys,82.1,7,Dylan Medina,Rocksprings,79.29,213.19,115.67,204.12,532.97,Unlimited,SBD,M,
Boys,82.1,8,Daniel Perez,Killeen Chaparral,81.74,210.92,129.27,188.24,528.44,Unlimited,SBD,M,
Boys,82.1,9,Esteban Rangel Jr,Rocksprings,81.47,224.53,102.06,183.7,510.29,Unlimited,SBD,M,
Boys,82.1,10,Colin Geipel,Geronimo Navarro,81.01,188.24,117.93,201.85,508.02,Unlimited,SBD,M,
Boys,82.1,11,Vander Hartzell,Comal Canyon Lake,81.37,183.7,102.06,208.65,494.42,Unlimited,SBD,M,
Boys,82.1,12,Roel Neira,San Antonio Memorial,80.47,188.24,113.4,176.9,478.54,Unlimited,SBD,M,
Boys,82.1,13,Nate Janssen,Comal Davenport,77.93,172.37,97.52,183.7,453.59,Unlimited,SBD,M,
Boys,82.1,14,Michael Roman,Seguin,80.74,183.7,102.06,167.83,453.59,Unlimited,SBD,M,
Boys,82.1,15,Gino Isaac,South San Antonio,78.29,172.37,102.06,172.37,446.79,Unlimited,SBD,M,
Boys,82.1,16,Nate Huerta,South San Antonio,75.3,158.76,124.74,158.76,442.25,Unlimited,SBD,M,
Boys,82.1,17,Xavier Mechlor,South San Antonio,77.47,158.76,115.67,158.76,433.18,Unlimited,SBD,M,
Boys,82.1,18,Jayden Garcia,Seguin,79.2,179.17,102.06,145.15,426.38,Unlimited,SBD,M,
Boys,82.1,19,Eli Ramirez,Seguin,76.84,154.22,88.45,165.56,408.23,Unlimited,SBD,M,
Boys,82.1,20,Vicente Aguilar,South San Antonio,77.75,104.33,65.77,113.4,283.5,Unlimited,SBD,M,
Boys,82.1,DQ,Kevin Casarez,Somerset,79.83,,,,,Unlimited,SBD,M,
Boys,82.1,DQ,Landen Davis,Seguin,82.01,183.7,,,,Unlimited,SBD,M,
Boys,82.1,DQ,Angel Rey Perez,Seguin,81.1,235.87,,,,Unlimited,SBD,M,
Boys,82.1,DQ,Marco Vazquez,San Antonio Veterans Memorial,79.74,,,,,Unlimited,SBD,M,
Boys,82.1,NS,Julius Trujillo,Luling,,,,,,Unlimited,SBD,M,
Boys,82.1,NS,William Crisp,Comal Canyon Lake,,,,,,Unlimited,SBD,M,
Boys,89.81,1,Richard De La Garza,San Antonio Southside,85.64,274.42,183.7,276.69,734.82,Unlimited,SBD,M,
Boys,89.81,2,Julius Rivera,Seguin,88.09,256.28,174.63,190.51,621.42,Unlimited,SBD,M,
Boys,89.81,3,A J Eguia,San Antonio Holy Cross,89.18,226.8,151.95,215.46,594.21,Unlimited,SBD,M,
Boys,89.81,4,Eric Gonzales,Jourdanton,83.46,219.99,149.69,222.26,591.94,Unlimited,SBD,M,
Boys,89.81,5,Micah Heneke,San Antonio Southside,88.09,249.48,147.42,195.04,591.94,Unlimited,SBD,M,
Boys,89.81,6,Hunter Rodriguez,Blanco,89.72,213.19,163.29,199.58,576.06,Unlimited,SBD,M,
Boys,89.81,7,Harrison Lyon,Killeen Chaparral,86.55,208.65,129.27,208.65,546.58,Unlimited,SBD,M,
Boys,89.81,8,Marco Pena,Converse Judson,88.9,183.7,102.06,208.65,494.42,Unlimited,SBD,M,
Boys,89.81,9,Elijah Pendelton,South San Antonio,86.18,181.44,104.33,165.56,451.32,Unlimited,SBD,M,
Boys,89.81,10,Tyler Trevino,Seguin,82.74,183.7,88.45,165.56,437.72,Unlimited,SBD,M,
Boys,89.81,11,Ethan Harrison,San Antonio Holy Cross,89.54,167.83,86.18,176.9,430.91,Unlimited,SBD,M,
Boys,89.81,12,Rayn Laque,South San Antonio,88.99,142.88,99.79,154.22,396.89,Unlimited,SBD,M,
Boys,89.81,13,Miguel Montemayor,South San Antonio,86.36,142.88,83.91,149.69,376.48,Unlimited,SBD,M,
Boys,89.81,14,Isiah Bazan,South San Antonio,89.72,124.74,95.25,145.15,365.14,Unlimited,SBD,M,
Boys,89.81,15,Hayden Turner,Comal Davenport,87.72,183.7,,,183.7,Unlimited,S,M,
Boys,89.81,DQ,Patrick Orellana,Converse Judson,89.81,,,,,Unlimited,SBD,M,
Boys,89.81,DQ,Hudson Stadler,Geronimo Navarro,82.55,185.97,,,,Unlimited,SBD,M,
Boys,89.81,DQ,Noah Salas,Somerset,89.81,,,,,Unlimited,SBD,M,
Boys,89.81,DQ,Jorge Salas,Somerset,89.54,188.24,124.74,,,Unlimited,SBD,M,
Boys,89.81,DQ,Aaron Perez,Seguin,85.91,,,,,Unlimited,SBD,M,
Boys,89.81,NS,Luis Castanon,Luling,,,,,,Unlimited,SBD,M,
Boys,89.81,NS,Colton Pearson,Comal Davenport,,,,,,Unlimited,SBD,M,
Boys,99.79,1,Bernardo Bernabe,San Antonio Kennedy,95.25,306.17,206.38,258.55,771.11,Unlimited,SBD,M,
Boys,99.79,2,Wyatt Roberts,Comal Canyon Lake,93.62,249.48,165.56,215.46,630.49,Unlimited,SBD,M,
Boys,99.79,3,Jaxon Joudah,Comal Davenport,90.45,240.4,147.42,215.46,603.28,Unlimited,SBD,M,
Boys,99.79,4,Guadalupe Herrera,San Antonio Memorial,96.07,235.87,161.03,204.12,601.01,Unlimited,SBD,M,
Boys,99.79,5,Ray Hernandez,South San Antonio,96.52,222.26,163.29,206.38,591.94,Unlimited,SBD,M,
Boys,99.79,6,Alex Gonzalez,Killeen Chaparral,91.53,240.4,142.88,199.58,582.87,Unlimited,SBD,M,
Boys,99.79,7,Christopher Ponce,San Antonio Holy Cross,96.07,210.92,147.42,213.19,571.53,Unlimited,SBD,M,
Boys,99.79,8,Antonio Perez,Geronimo Navarro,97.16,215.46,117.93,215.46,548.85,Unlimited,SBD,M,
Boys,99.79,9,George Casarez,San Antonio Holy Cross,91.08,213.19,149.69,174.63,537.51,Unlimited,SBD,M,
Boys,99.79,10,Christian Holland,Converse Judson,99.7,192.78,124.74,215.46,532.97,Unlimited,SBD,M,
Boys,99.79,11,Cristofer Paredes,Converse Judson,99.79,197.31,102.06,219.99,519.36,Unlimited,SBD,M,
Boys,99.79,12,Jordan Jimenez,San Antonio Holy Cross,91.17,161.03,117.93,208.65,487.61,Unlimited,SBD,M,
Boys,99.79,13,Kirk Campbell,Luling,92.26,170.1,104.33,188.24,462.66,Unlimited,SBD,M,
Boys,99.79,14,Wyatt Charles Peters,Fredericksburg,95.8,181.44,115.67,165.56,462.66,Unlimited,SBD,M,
Boys,99.79,15,Markus Arvidson,Comal Davenport,91.44,170.1,111.13,179.17,460.4,Unlimited,SBD,M,
Boys,99.79,16,Wyatt Westbrook,Fredericksburg,91.99,183.7,99.79,176.9,460.4,Unlimited,SBD,M,
Boys,99.79,17,Alex Hipolito,Converse Judson,89.99,167.83,97.52,183.7,449.06,Unlimited,SBD,M,
Boys,99.79,18,Patrick Guerrero,Seguin,99.79,183.7,104.33,149.69,437.72,Unlimited,SBD,M,
Boys,99.79,19,Ruben Gallegos,Jourdanton,98.88,235.87,,183.7,419.57,Unlimited,SD,M,
Boys,99.79,20,Allen Covarrubias,Manor New Tech,91.4,142.88,88.45,183.7,415.04,Unlimited,SBD,M,
Boys,99.79,NS,Carlos Gallegos,Jourdanton,,,,,,Unlimited,SBD,M,
Boys,99.79,NS,Tristan Rios,Comal Canyon Lake,,,,,,Unlimited,SBD,M,
Boys,99.79,NS,Gordon Parker,Comal Canyon Lake,,,,,,Unlimited,SBD,M,
Boys,99.79,NS,Jaylen Orozco,South San Antonio,,,,,,Unlimited,SBD,M,
Boys,99.79,NS,Rayshawn Black,Converse Judson,,,,,,Unlimited,SBD,M,
Boys,99.79,NS,Julian Black,Converse Judson,,,,,,Unlimited,SBD,M,
Boys,99.79,NS,Mason Harvey,Geronimo Navarro,,,,,,Unlimited,SBD,M,
Boys,99.79,DQ,Brandon Barnett,Castroville Medina Valley,97.7,,,,,Unlimited,SBD,M,
Boys,99.79,DQ,Isaac Hernandez,San Antonio Kennedy,97.52,272.16,138.35,,,Unlimited,SBD,M,
Boys,109.77,1,Nathan Gagnon,San Antonio Memorial,106.59,272.16,170.1,254.01,696.26,Unlimited,SBD,M,
Boys,109.77,2,Fabian Medina,San Antonio Kennedy,107.86,260.82,161.03,231.33,653.17,Unlimited,SBD,M,
Boys,109.77,3,Xavier Fears,Castroville Medina Valley,107.95,235.87,190.51,226.8,653.17,Unlimited,SBD,M,
Boys,109.77,4,Matthew Henderson,Seguin,103.87,222.26,136.08,204.12,562.45,Unlimited,SBD,M,
Boys,109.77,5,Nicholas Morales,San Antonio Southside,107.86,206.38,133.81,217.72,557.92,Unlimited,SBD,M,
Boys,109.77,6,Richard Ramirez,San Antonio Memorial,109.13,215.46,142.88,197.31,555.65,Unlimited,SBD,M,
Boys,109.77,7,Alex Johnson,Manor New Tech,103.51,242.67,102.06,204.12,548.85,Unlimited,SBD,M,
Boys,109.77,8,Diego Quintero,Seguin,102.15,222.26,142.88,176.9,542.04,Unlimited,SBD,M,
Boys,109.77,9,Jose Almanza,Luling,109.77,226.8,117.93,188.24,532.97,Unlimited,SBD,M,
Boys,109.77,10,Jayson Martinez,San Antonio Holy Cross,105.69,183.7,127.01,192.78,503.49,Unlimited,SBD,M,
Boys,109.77,11,Cesar Reyna,Seguin,102.24,201.85,120.2,174.63,496.68,Unlimited,SBD,M,
Boys,109.77,12,Aj Elias,South San Antonio,109.59,188.24,113.4,181.44,483.08,Unlimited,SBD,M,
Boys,109.77,13,Fernando Benavidez,San Antonio Holy Cross,105.6,161.03,115.67,188.24,464.93,Unlimited,SBD,M,
Boys,109.77,14,Jaden Casas,South San Antonio,109.59,124.74,111.13,151.95,387.82,Unlimited,SBD,M,
Boys,109.77,15,Jayse Ibarra,Poteet,109.77,136.08,70.31,145.15,351.53,Unlimited,SBD,M,
Boys,109.77,DQ,Aaron Torres,Rocksprings,109.77,208.65,,,,Unlimited,SBD,M,
Boys,109.77,DQ,Kevin Dominguez,Seguin,101.7,238.14,,,,Unlimited,SBD,M,
Boys,109.77,NS,Divan Hernandez,Comal Canyon Lake,,,,,,Unlimited,SBD,M,
Boys,109.77,NS,Reese Calderon,Jourdanton,,,,,,Unlimited,SBD,M,
Boys,124.74,1,Jamison Dodes,Fredericksburg,123.2,260.82,183.7,251.74,696.26,Unlimited,SBD,M,
Boys,124.74,2,John Elizondo,San Antonio Memorial,118.21,281.23,163.29,233.6,678.12,Unlimited,SBD,M,
Boys,124.74,3,Frankie Medina,Seguin,117.75,256.28,188.24,204.12,648.64,Unlimited,SBD,M,
Boys,124.74,4,Antonio Malpica,Killeen Chaparral,120.56,256.28,158.76,210.92,625.96,Unlimited,SBD,M,
Boys,124.74,5,Jose Torres,Rocksprings,120.56,249.48,179.17,190.51,619.15,Unlimited,SBD,M,
Boys,124.74,6,Caleb Green-Ondo,Jourdanton,111.31,251.74,172.37,192.78,616.89,Unlimited,SBD,M,
Boys,124.74,7,Josh Hernandez,Geronimo Navarro,114.76,219.99,147.42,213.19,580.6,Unlimited,SBD,M,
Boys,124.74,8,Adam Lozano,South San Antonio,121.02,240.4,165.56,172.37,578.33,Unlimited,SBD,M,
Boys,124.74,9,Emiliano Prieto,Comal Davenport,111.31,226.8,133.81,215.46,576.06,Unlimited,SBD,M,
Boys,124.74,10,Victor Arteaga,Fredericksburg,124.56,213.19,145.15,217.72,576.06,Unlimited,SBD,M,
Boys,124.74,11,Derek Solis,Jourdanton,112.85,219.99,151.95,195.04,566.99,Unlimited,SBD,M,
Boys,124.74,12,William Bryla,Fredericksburg,118.93,192.78,124.74,192.78,510.29,Unlimited,SBD,M,
Boys,124.74,13,Alexander Cianchetti,Fredericksburg,119.75,183.7,129.27,183.7,496.68,Unlimited,SBD,M,
Boys,124.74,14,Austin Fernandez,Poteet,116.39,156.49,104.33,158.76,419.57,Unlimited,SBD,M,
Boys,124.74,15,Brody Vestal,Comal Davenport,114.76,197.31,140.61,,337.93,Unlimited,SB,M,
Boys,124.74,DQ,Alejandro Juarez,Somerset,114.12,,,,,Unlimited,SBD,M,
Boys,124.74,DQ,Joshua Gonzales,San Antonio Holy Cross,119.93,,,,,Unlimited,SBD,M,
Boys,124.74,NS,Landon Chavez,Jourdanton,,,,,,Unlimited,SBD,M,
Boys,124.74,NS,Alek Hillman,Jourdanton,,,,,,Unlimited,SBD,M,
Boys,124.74,NS,Tyler Stewart,Poteet,,,,,,Unlimited,SBD,M,
Boys,139.71,1,Luke Lindley,Comal Davenport,135.17,219.99,136.08,215.46,571.53,Unlimited,SBD,M,
Boys,139.71,2,Chris Ledezma,Geronimo Navarro,134.26,188.24,140.61,213.19,542.04,Unlimited,SBD,M,
Boys,139.71,3,Kaden Tristan,Luling,135.26,170.1,108.86,183.7,462.66,Unlimited,SBD,M,
Boys,139.71,4,Mark Reyes,South San Antonio,126.28,247.21,158.76,,405.97,Unlimited,SB,M,
Boys,139.71,DQ,Diego Sokoloff,Fredericksburg,135.71,188.24,,,,Unlimited,SBD,M,
Boys,139.71,NS,Alex Garcia,Manor New Tech,,,,,,Unlimited,SBD,M,
Boys,139.71+,1,Felipe Pena Chu,San Antonio Memorial,176.72,317.51,176.9,233.6,728.02,Unlimited,SBD,M,
Boys,139.71+,2,Luigi Tirado,San Antonio Southside,146.87,272.16,133.81,226.8,632.76,Unlimited,SBD,M,
Boys,139.71+,3,Julian Widelle,San Antonio Holy Cross,144.33,179.17,113.4,174.63,467.2,Unlimited,SBD,M,
Boys,139.71+,4,Tacori Cook,Somerset,148.42,258.55,208.65,,467.2,Unlimited,SB,M,
Boys,139.71+,5,Dylan Vazquez,Seguin,175.27,195.04,142.88,,337.93,Unlimited,SB,M,
Boys,139.71+,6,Jaime Delgado,San Antonio Memorial,159.48,204.12,131.54,,335.66,Unlimited,SB,M,
Boys,139.71+,7,Vicente Torres,Rocksprings,163.84,199.58,,,199.58,Unlimited,S,M,
Boys,139.71+,NS,Jake Seay,Somerset,,,,,,Unlimited,SBD,M,
