Place,Name,Sex,Event,Division,WeightClassKg,Equipment,BirthYear,Team,Country,State,BodyweightKg,Squat1Kg,Squat2Kg,Squat3Kg,Best3SquatKg,Bench1Kg,Bench2Kg,Bench3Kg,Best3BenchKg,Deadlift1Kg,Deadlift2Kg,Deadlift3Kg,Best3DeadliftKg,TotalKg,Age,BirthDate
1,Consuella Moore,F,D,FR-M1a,82.5,Raw,1981,,USA,TX,81.6,,,,,,,,,175,185,200,200,200,,
1,Valeria Velez,F,SBD,FR-C,60,Raw,2003,,USA,FL,59.1,112.5,120,125,125,57.5,62.5,-67.5,62.5,132.5,-142.5,142.5,142.5,330,,
1,Jordynn Velez,F,SBD,FR-C,75,Raw,2004,Knights Powerlifting,USA,FL,74.2,95,102.5,107.5,107.5,67.5,72.5,77.5,77.5,125,135,142.5,142.5,327.5,,
1,Alanis Soler Nelson,F,SBD,FR-Jr,56,Raw,2003,,USA,FL,56,137.5,145,150,150,60,67.5,-72.5,67.5,150,-162.5,-165,150,367.5,,
1,Angela Priore,F,SBD,FR-Jr,75,Raw,2003,,USA,FL,68.6,137.5,150,-162.5,150,60,70,72.5,72.5,137.5,150,162.5,162.5,385,,
2,Marina Sidlow,F,SBD,FR-Jr,75,Raw,2000,,USA,FL,71.15,87.5,92.5,-100,92.5,47.5,50,-52.5,50,112.5,120,125,125,267.5,,
1,Gabriella Alexander,F,SBD,FR-Jr,90,Raw,2000,,USA,FL,84.8,117.5,122.5,130,130,72.5,75,80,80,135,145,150,150,360,,
2,Andrea Miranda,F,SBD,FR-Jr,90,Raw,2001,,USA,FL,87.55,110,117.5,-122.5,117.5,45,50,52.5,52.5,102.5,110,115,115,285,,
1,JoAnn Lawhorn,F,SBD,FR-Jr,67.5,Raw,2001,,USA,FL,66.7,100,107.5,115,115,55,60,65,65,115,125,135,135,315,,
2,Isabel Abreu,F,SBD,FR-Jr,67.5,Raw,2003,Knights Powerlifting,USA,FL,67.5,-92.5,102.5,-110,102.5,75,82.5,85,85,110,120,127.5,127.5,315,,
3,Jada Portieles,F,SBD,FR-Jr,67.5,Raw,2003,The Lifting Club,USA,FL,65.25,85,90,95,95,47.5,52.5,55,55,115,122.5,137.5,137.5,287.5,,
1,Aryana Britt,F,SBD,FR-Jr,82.5,Raw,2003,,USA,FL,82.05,112.5,122.5,-127.5,122.5,65,70,-72.5,70,140,150,-155,150,342.5,,
2,Yesenia Cata,F,SBD,FR-Jr,82.5,Raw,2001,,USA,FL,82.3,-132.5,132.5,-137.5,132.5,62.5,65,67.5,67.5,132.5,135,-137.5,135,335,,
3,Isabella Tirado,F,SBD,FR-Jr,82.5,Raw,2001,,USA,FL,76.15,105,117.5,127.5,127.5,40,50,-57.5,50,115,130,145,145,322.5,,
4,Ebonee Vazquez,F,SBD,FR-Jr,82.5,Raw,2001,,USA,FL,75.55,112.5,120,127.5,127.5,45,50,55,55,120,125,130,130,312.5,,
1,Consuella Moore,F,SBD,FR-M1a,82.5,Raw,1981,,USA,TX,81.6,-115,115,120,120,85,90,95,95,175,185,200,200,415,,
1,Tracy Robinson,F,SBD,FR-M2a,75,Raw,1970,,USA,FL,71.6,-55,55,-57.5,55,-50,-50,50,50,90,105,-110,105,210,,
1,Gellina Anne Galagnara,F,SBD,FR-O,52,Raw,1995,,USA,FL,52,80,87.5,97.5,97.5,42.5,-50,-50,42.5,105,115,122.5,122.5,262.5,,
1,Tara Thomas,F,SBD,FR-O,56,Raw,1990,,USA,FL,55.75,130,137.5,-145,137.5,77.5,80,82.5,82.5,180,187.5,197.5,197.5,417.5,,
2,Alanis Soler Nelson,F,SBD,FR-O,56,Raw,2003,,USA,FL,56,137.5,145,150,150,60,67.5,-72.5,67.5,150,-162.5,-165,150,367.5,,
3,Yesenia Abreu,F,SBD,FR-O,56,Raw,1988,,USA,FL,55.25,-130,130,-135,130,-62.5,62.5,67.5,67.5,125,130,-135,130,327.5,,
1,Jacqueline Bocchino,F,SBD,FR-O,60,Raw,1999,,USA,FL,59.35,102.5,-112.5,115,115,55,57.5,60,60,122.5,130,140,140,315,,
2,Anya Martin,F,SBD,FR-O,60,Raw,1996,,USA,FL,58.1,100,105,-115,105,47.5,52.5,-55,52.5,120,130,132.5,132.5,290,,
1,Esperanza Otero,F,SBD,FR-O,75,Raw,1999,The StrongBad Lifting Co,USA,FL,74.7,130,135,137.5,137.5,77.5,80,-82.5,80,157.5,-162.5,-162.5,157.5,375,,
2,Kaetlyn Puldon,F,SBD,FR-O,75,Raw,1998,Vigilante Force,USA,FL,72.85,120,-125,-125,120,57.5,62.5,-70,62.5,132.5,142.5,152.5,152.5,335,,
3,Kimberly Johnson #2,F,SBD,FR-O,75,Raw,1998,,USA,FL,73.75,112.5,-120,-120,112.5,50,-55,-55,50,115,127.5,140,140,302.5,,
4,Nicole Chwalek,F,SBD,FR-O,75,Raw,1999,,USA,FL,68.35,105,112.5,-115,112.5,45,50,-52.5,50,115,122.5,125,125,287.5,,
1,Nikole Stephens,F,SBD,FR-O,90,Raw,1990,The StrongBad Lifting Co,USA,FL,90,162.5,170,-172.5,170,92.5,97.5,-100,97.5,187.5,195,197.5,197.5,465,,
2,Geraldine Charles,F,SBD,FR-O,90,Raw,1997,,USA,FL,90,162.5,170,175,175,75,82.5,85,85,162.5,175,-185,175,435,,
3,Jessica Powell,F,SBD,FR-O,90,Raw,1988,Superhero Athletics,USA,FL,84.6,122.5,130,135,135,70,75,77.5,77.5,162.5,172.5,-182.5,172.5,385,,
4,Jennifer Deuro,F,SBD,FR-O,90,Raw,1988,,USA,FL,84.65,-140,-140,140,140,-65,67.5,70,70,150,152.5,155,155,365,,
5,Brianna Hamson,F,SBD,FR-O,90,Raw,1996,Strength From Within,USA,FL,88.8,107.5,115,122.5,122.5,55,62.5,70,70,125,142.5,150,150,342.5,,
1,Cecilia Diggs,F,SBD,FR-O,100,Raw,1994,,USA,GA,98.4,130,140,150,150,-80,-85,87.5,87.5,160,170,-180,170,407.5,,
DQ,Meleah Burt,F,SBD,FR-O,100,Raw,1984,,USA,FL,99.3,-115,-115,-115,,75,80,-85,80,60,80,105,105,,,
DQ,Meleah Burt,F,SBD,FR-O,100,Raw,1984,,USA,FL,99.3,-115,-115,-115,,75,80,-85,80,60,80,105,105,,,
1,Allison Flores,F,SBD,FR-O,67.5,Raw,1994,,USA,FL,65.45,102.5,110,117.5,117.5,77.5,-80,82.5,82.5,142.5,-145,-147.5,142.5,342.5,,
2,JoAnn Lawhorn,F,SBD,FR-O,67.5,Raw,2001,,USA,FL,66.7,100,107.5,115,115,55,60,65,65,115,125,135,135,315,,
3,Carolina Rodriguez #2,F,SBD,FR-O,67.5,Raw,2000,,USA,FL,65.9,90,97.5,102.5,102.5,65,70,72.5,72.5,92.5,102.5,110,110,285,,
4,Emily Mojica-Ortiz,F,SBD,FR-O,67.5,Raw,1993,The StrongBad Lifting Co,USA,FL,67.5,90,95,-100,95,45,50,55,55,92.5,97.5,102.5,102.5,252.5,,
5,Lindsey Pell,F,SBD,FR-O,67.5,Raw,1985,,USA,FL,64.3,50,55,60,60,40,45,47.5,47.5,70,80,90,90,197.5,,
1,Erin Curran,F,SBD,FR-O,82.5,Raw,1993,Superhero Athletics,USA,FL,79.9,155,165,-167.5,165,67.5,72.5,-75,72.5,155,-162.5,,155,392.5,,
2,Ebonee Vazquez,F,SBD,FR-O,82.5,Raw,2001,,USA,FL,75.55,112.5,120,127.5,127.5,45,50,55,55,120,125,130,130,312.5,,
3,Tayler Daversa,F,SBD,FR-O,82.5,Raw,1995,,USA,FL,79.45,70,75,80,80,40,42.5,45,45,87.5,92.5,97.5,97.5,222.5,,
1,Jayden Berrios,F,SBD,FR-T2,67.5,Raw,2006,The StrongBad Lifting Co,USA,FL,66.65,70,75,80,80,47.5,50,-52.5,50,85,-90,-90,85,215,,
1,Clara Cannaday,F,SBD,FR-T2,82.5,Raw,2007,,USA,FL,78.1,102.5,107.5,115,115,70,72.5,-75,72.5,110,117.5,122.5,122.5,310,,
1,Isabella Viggiani,F,SBD,FR-T3,60,Raw,2005,,USA,FL,57.15,85,92.5,-97.5,92.5,47.5,52.5,55,55,102.5,110,120,120,267.5,,
1,Jonathan Rivera,M,SBD,MR-C,90,Raw,2002,,USA,FL,89.4,140,155,170,170,115,120,125,125,165,187.5,200,200,495,,
1,Derong Wu,M,SBD,MR-C,100,Raw,2002,,USA,FL,92.35,202.5,215,-225,215,132.5,137.5,-142.5,137.5,205,220,230,230,582.5,,
1,Landon Wright,M,SBD,MR-C,110,Raw,2002,Knights Powerlifting,USA,FL,106.25,235,255,-272.5,255,137.5,145,-152.5,145,255,275,-290,275,675,,
2,Bruno Rocha,M,SBD,MR-C,110,Raw,2004,,USA,FL,108.15,170,180,187.5,187.5,97.5,105,110,110,155,170,177.5,177.5,475,,
1,Isaac Balado,M,SBD,MR-Jr,60,Raw,2004,,USA,FL,58.95,-170,170,182.5,182.5,125,135,137.5,137.5,182.5,-192.5,-192.5,182.5,502.5,,
1,Danny Zheng,M,SBD,MR-Jr,75,Raw,2003,,USA,FL,73.7,165,170,175,175,95,100,105,105,185,200,-210,200,480,,
1,Tyler Montano,M,SBD,MR-Jr,90,Raw,2003,,USA,FL,89.7,227.5,237.5,240,240,155,160,162.5,162.5,237.5,-245,,237.5,640,,
2,Andy Nguyen,M,SBD,MR-Jr,90,Raw,2002,,USA,FL,88.85,205,217.5,227.5,227.5,110,117.5,122.5,122.5,225,242.5,250,250,600,,
3,Juan Becerra,M,SBD,MR-Jr,90,Raw,2002,Load The Kilos,USA,FL,86.86,147.5,157.5,162.5,162.5,110,115,120,120,177.5,190,200,200,482.5,,
4,Chase Malec,M,SBD,MR-Jr,90,Raw,2004,Knights Powerlifting,USA,FL,85.1,150,157.5,167.5,167.5,85,92.5,97.5,97.5,180,190,200,200,465,,
1,Gage Presnell,M,SBD,MR-Jr,100,Raw,2001,Knights Powerlifting,USA,FL,97.6,155,170,185,185,132.5,137.5,-142.5,137.5,205,225,240,240,562.5,,
1,Landon Wright,M,SBD,MR-Jr,110,Raw,2002,Knights Powerlifting,USA,FL,106.25,235,255,-272.5,255,137.5,145,-152.5,145,255,275,-290,275,675,,
2,Jornando Caceres Campos,M,SBD,MR-Jr,110,Raw,2002,Knights Powerlifting,USA,FL,105.1,240,260,265,265,127.5,135,142.5,142.5,245,265,-275,265,672.5,,
3,Nicolas Navarro Sanchez,M,SBD,MR-Jr,110,Raw,2002,,USA,IL,108.35,-210,210,-215,210,112.5,-120,,112.5,250,260,-275,260,582.5,,
4,Bruno Rocha,M,SBD,MR-Jr,110,Raw,2004,,USA,FL,108.15,170,180,187.5,187.5,97.5,105,110,110,155,170,177.5,177.5,475,,
DQ,Brandon Kaminsky,M,SBD,MR-Jr,110,Raw,2001,,USA,FL,102.1,230,247.5,262.5,262.5,-152.5,-152.5,-152.5,,240,262.5,272.5,272.5,,,
1,Anthony Mittiga,M,SBD,MR-Jr,125,Raw,2001,,USA,FL,116.85,245,260,275,275,157.5,162.5,170,170,245,265,282.5,282.5,727.5,,
1,Alex Rosa,M,SBD,MR-Jr,67.5,Raw,2003,Knights Powerlifting,USA,FL,65.6,215,-225,225,225,130,135,-140,135,215,230,235,235,595,,
2,Bryan Nguyen,M,SBD,MR-Jr,67.5,Raw,2004,,USA,FL,66.6,205,-217.5,220,220,107.5,117.5,-122.5,117.5,210,222.5,240,240,577.5,,
1,Leon Tibby,M,SBD,MR-Jr,82.5,Raw,2001,The Lifting Club,USA,FL,82,220,235,247.5,247.5,137.5,145,147.5,147.5,250,-270,-270,250,645,,
2,Gabe Brown-Bergtold,M,SBD,MR-Jr,82.5,Raw,2004,Knights Powerlifting,USA,FL,80.5,202.5,212.5,222.5,222.5,115,125,-135,125,205,222.5,232.5,232.5,580,,
3,Ibrahim Loutfi,M,SBD,MR-Jr,82.5,Raw,2000,,USA,FL,80.85,175,185,195,195,97.5,105,110,110,200,215,227.5,227.5,532.5,,
4,Colson LaPorta,M,SBD,MR-Jr,82.5,Raw,2004,,USA,FL,81.45,140,152.5,162.5,162.5,152.5,-160,160,160,180,192.5,210,210,532.5,,
5,Christian Ndayambaje,M,SBD,MR-Jr,82.5,Raw,2003,,USA,FL,82.4,160,172.5,185,185,117.5,125,-132.5,125,170,190,-207.5,190,500,,
1,Marcus Johnson,M,SBD,MR-M2a,100,Raw,1973,,USA,FL,97.9,200,212.5,225,225,152.5,162.5,172.5,172.5,190,205,210,210,607.5,,
DQ,Ron Bittner,M,SBD,MR-M4a,100,Raw,1953,,USA,FL,98.65,-132.5,-132.5,-132.5,,77.5,82.5,-85,82.5,155,162.5,165,165,,,
1,Alexander Mayorga,M,SBD,MR-O,75,Raw,1996,,USA,FL,73.7,210,217.5,225,225,167.5,-172.5,-172.5,167.5,215,-225,232.5,232.5,625,,
2,Darren Fink,M,SBD,MR-O,75,Raw,1997,,USA,FL,73.6,200,215,220,220,140,145,147.5,147.5,195,210,220,220,587.5,,
3,Skyler Slavinsky,M,SBD,MR-O,75,Raw,1985,,USA,FL,74.65,175,187.5,-192.5,187.5,122.5,-135,-135,122.5,210,220,-227.5,220,530,,
4,Jonathan Nicholson,M,SBD,MR-O,75,Raw,2000,,USA,FL,73.8,-177.5,177.5,185,185,-122.5,127.5,-135,127.5,195,200,-207.5,200,512.5,,
5,Darious Cadet,M,SBD,MR-O,75,Raw,2008,,USA,TN,72.4,152.5,162.5,172.5,172.5,70,72.5,80,80,205,-220,227.5,227.5,480,,
1,Ray Fletcher,M,SBD,MR-O,90,Raw,2005,,USA,FL,85,182.5,197.5,207.5,207.5,122.5,130,-135,130,222.5,237.5,252.5,252.5,590,,
2,Ryan Chang,M,SBD,MR-O,90,Raw,1996,,USA,FL,86.15,190,205,215,215,125,132.5,135,135,215,230,240,240,590,,
3,Kevin Francois #2,M,SBD,MR-O,90,Raw,1993,,USA,FL,88.7,182.5,195,205,205,117.5,127.5,137.5,137.5,192.5,210,222.5,222.5,565,,
4,Cody Griffith,M,SBD,MR-O,90,Raw,1996,,USA,FL,89.75,150,170,-185,170,145,160,165,165,197.5,215,227.5,227.5,562.5,,
5,Jesse Hash,M,SBD,MR-O,90,Raw,1998,,USA,FL,89,175,180,-185,180,87.5,-92.5,-92.5,87.5,200,205,-210,205,472.5,,
DQ,Jevon Brathwaite,M,SBD,MR-O,90,Raw,1988,,USA,FL,85,-120,125,142.5,142.5,-120,-127.5,-142.5,,,,,,,,
1,Ryan Gabor,M,SBD,MR-O,100,Raw,2002,,USA,FL,99.15,250,275,295,295,180,190,195,195,265,285,-290,285,775,,
2,Jake Wade,M,SBD,MR-O,100,Raw,1991,,USA,FL,99.55,200,207.5,-215,207.5,-125,130,-135,130,230,-240,250,250,587.5,,
3,Fawaaz Ali,M,SBD,MR-O,100,Raw,1988,,USA,FL,92.4,195,205,-215,205,-140,145,150,150,205,215,227.5,227.5,582.5,,
4,Baldomero Guevara,M,SBD,MR-O,100,Raw,1999,,USA,FL,97.15,177.5,192.5,207.5,207.5,125,135,140,140,197.5,215,227.5,227.5,575,,
5,Andy Ruiz,M,SBD,MR-O,100,Raw,1992,,USA,FL,97.3,-200,200,-212.5,200,127.5,-135,-142.5,127.5,227.5,230,-242.5,230,557.5,,
6,Kevin Wydrinski,M,SBD,MR-O,100,Raw,1996,,USA,FL,98,142.5,150,157.5,157.5,90,-95,95,95,202.5,210,220,220,472.5,,
DQ,Alec Pantoja,M,SBD,MR-O,100,Raw,1998,,USA,FL,91,-150,-150,-150,,102.5,107.5,-115,107.5,160,-185,185,185,,,
1,Joseph Bernhard,M,SBD,MR-O,110,Raw,1996,,USA,FL,101.65,250,265,275,275,150,160,-165,160,245,265,275,275,710,,
2,David Jiao,M,SBD,MR-O,110,Raw,1998,,USA,FL,105.4,-195,210,215,215,115,120,125,125,200,215,227.5,227.5,567.5,,
3,Raydell Esposito,M,SBD,MR-O,110,Raw,1992,,USA,FL,102.5,167.5,177.5,-187.5,177.5,127.5,137.5,-145,137.5,190,195,240,240,555,,
4,James Phipps,M,SBD,MR-O,110,Raw,1999,,USA,FL,103.3,182.5,197.5,207.5,207.5,105,117.5,125,125,157.5,172.5,187.5,187.5,520,,
5,Nicolas Espinoza,M,SBD,MR-O,110,Raw,1999,,USA,FL,105.2,115,122.5,127.5,127.5,87.5,92.5,-95,92.5,135,147.5,157.5,157.5,377.5,,
1,Mark Granger,M,SBD,MR-O,125,Raw,1997,,USA,FL,122.5,250,260,275,275,140,160,170,170,275,287.5,-305,287.5,732.5,,
1,Leon Tibby,M,SBD,MR-O,82.5,Raw,2001,The Lifting Club,USA,FL,82,220,235,247.5,247.5,137.5,145,147.5,147.5,250,-270,-270,250,645,,
2,Andrei Dimayuga,M,SBD,MR-O,82.5,Raw,1999,,USA,FL,81.9,185,200,-215,200,120,130,-132.5,130,240,260,-270,260,590,,
3,Estavon Rodriguez,M,SBD,MR-O,82.5,Raw,1994,,USA,FL,81.95,-180,190,195,195,110,120,127.5,127.5,217.5,230,240,240,562.5,,
4,Dylan Gabor,M,SBD,MR-O,82.5,Raw,2004,,USA,FL,81.15,182.5,197.5,205,205,125,130,132.5,132.5,195,-212.5,220,220,557.5,,
5,Cody Pena,M,SBD,MR-O,82.5,Raw,2004,,USA,FL,80.6,192.5,205,-212.5,205,125,135,140,140,190,-210,210,210,555,,
1,Darren Fink,M,SBD,MR-PF,75,Raw,1997,,USA,FL,73.6,200,215,220,220,140,145,147.5,147.5,195,210,220,220,587.5,,
1,Darious Cadet,M,SBD,MR-T1,75,Raw,2008,,USA,TN,72.4,152.5,162.5,172.5,172.5,70,72.5,80,80,205,-220,227.5,227.5,480,,
1,Chris Gullo,M,SBD,MR-T2,75,Raw,2007,,USA,NY,72.05,190,202.5,217.5,217.5,92.5,100,-105,100,215,230,240,240,557.5,,
1,Oliver Hoffman,M,SBD,MR-T2,82.5,Raw,2007,,USA,FL,78.4,160,167.5,175,175,100,110,-115,110,175,180,190,190,475,,
1,Mikel Anderson,M,SBD,MR-T3,90,Raw,2004,,USA,GA,87.85,272.5,287.5,292.5,292.5,130,142.5,-152.5,142.5,200,230,260,260,695,,
2,Ray Fletcher,M,SBD,MR-T3,90,Raw,2005,,USA,FL,85,182.5,197.5,207.5,207.5,122.5,130,-135,130,222.5,237.5,252.5,252.5,590,,
1,Cody Pena,M,SBD,MR-T3,82.5,Raw,2004,,USA,FL,80.6,192.5,205,-212.5,205,125,135,140,140,190,-210,210,210,555,,
2,Jonathan Truong,M,SBD,MR-T3,82.5,Raw,2004,Knights Powerlifting,USA,FL,80.95,175,182.5,-192.5,182.5,92.5,100,105,105,197.5,207.5,217.5,217.5,505,,
DQ,Eric Mercado #2,M,SBD,MW-O,75,Wraps,1994,,USA,FL,73.55,-170,-170,-170,,90,105,-117.5,105,200,210,-227.5,210,,,
1,Anthony Schiavi,M,SBD,MW-O,125,Wraps,1986,,USA,FL,124.9,227.5,232.5,242.5,242.5,182.5,185,-192.5,185,232.5,235,-245,235,662.5,,
1,Anthony Mittiga,M,BD,MR-Jr,125,Raw,2001,,USA,FL,116.85,,,,,157.5,162.5,170,170,245,265,282.5,282.5,452.5,,
