Division,WeightClassKg,Place,Name,Team,BodyweightKg,Best3SquatKg,Best3BenchKg,Best3DeadliftKg,TotalKg,Equipment,Event,Sex,BirthDate
Boys,51.71,1,Luke Barr,Hico,51.35,106.59,70.31,117.93,294.84,Unlimited,SBD,M,
Boys,51.71,2,Yovany Ortiz,Dublin,50.44,99.79,70.31,122.47,292.57,Unlimited,SBD,M,
Boys,51.71,3,Paul Adams,Dublin,47.45,86.18,47.63,104.33,238.14,Unlimited,SBD,M,
Boys,55.79,1,Axel Rangel,Comanche,55.7,167.83,90.72,172.37,430.91,Unlimited,SBD,M,
Boys,55.79,2,Brylen Fiest,Tolar,55.34,140.61,79.38,145.15,365.14,Unlimited,SBD,M,
Boys,55.79,3,Jaxon McGavock,Hico,55.07,117.93,72.57,117.93,308.44,Unlimited,SBD,M,
Boys,55.79,4,Kason McGinn,Rising Star,55.52,106.59,63.5,131.54,301.64,Unlimited,SBD,M,
Boys,55.79,5,Chance Wells,Rising Star,55.16,99.79,58.97,102.06,260.82,Unlimited,SBD,M,
Boys,55.79,6,Jake Gutierrez,Hamilton,52.3,79.38,58.97,113.4,251.74,Unlimited,SBD,M,
Boys,59.87,1,Adam Perez,De Leon,58.24,151.95,95.25,181.44,428.64,Unlimited,SBD,M,
Boys,59.87,2,Andrew Colclasure,Comanche,57.24,151.95,79.38,147.42,378.75,Unlimited,SBD,M,
Boys,59.87,3,Pacey McGinn,Rising Star,58.42,117.93,86.18,136.08,340.19,Unlimited,SBD,M,
Boys,59.87,4,Payton McGinn,Rising Star,57.97,122.47,79.38,133.81,335.66,Unlimited,SBD,M,
Boys,67.13,1,Cosme Gonzalez,Comanche,66.72,213.19,145.15,217.72,576.06,Unlimited,SBD,M,
Boys,67.13,2,Darren Odell,Comanche,66.59,147.42,90.72,154.22,392.36,Unlimited,SBD,M,
Boys,67.13,3,Michael Parrott,Bangs,64.41,142.88,83.91,149.69,376.48,Unlimited,SBD,M,
Boys,67.13,4,Cason Tidwell,Bangs,67.04,136.08,92.99,142.88,371.95,Unlimited,SBD,M,
Boys,67.13,5,Ed Garcia,De Leon,64.41,111.13,74.84,149.69,335.66,Unlimited,SBD,M,
Boys,67.13,6,Leland Schenck,Rising Star,65.5,104.33,72.57,133.81,310.71,Unlimited,SBD,M,
Boys,67.13,DQ,Caysyn Loving,Dublin,66.86,,,,,Unlimited,SBD,M,
Boys,74.84,1,Easton Gonzalez,Comanche,73.3,204.12,138.35,201.85,544.31,Unlimited,SBD,M,
Boys,74.84,2,Dakota Higgins,Rising Star,74.39,174.63,136.08,224.53,535.24,Unlimited,SBD,M,
Boys,74.84,3,Alonso Moreno,Dublin,71.3,210.92,111.13,208.65,530.7,Unlimited,SBD,M,
Boys,74.84,4,Lucas Azua,Dublin,72.57,197.31,129.27,183.7,510.29,Unlimited,SBD,M,
Boys,74.84,5,Ryan Dickey,Bangs,74.39,188.24,115.67,188.24,492.15,Unlimited,SBD,M,
Boys,74.84,6,Devean Greaves,Bangs,74.39,181.44,138.35,161.03,480.81,Unlimited,SBD,M,
Boys,74.84,7,Hunter Crowell,Bangs,74.03,179.17,111.13,174.63,464.93,Unlimited,SBD,M,
Boys,74.84,8,Kayson Bunkley,Hico,72.67,181.44,102.06,176.9,460.4,Unlimited,SBD,M,
Boys,74.84,9,Tristan Brewer,Hico,74.84,138.35,90.72,136.08,365.14,Unlimited,SBD,M,
Boys,74.84,10,Daniel Rios,Comanche,70.85,127.01,70.31,131.54,328.85,Unlimited,SBD,M,
Boys,74.84,DQ,Kade McKandless,Hamilton,72.3,,,,,Unlimited,SBD,M,
Boys,74.84,DQ,Ladanian Smith,Comanche,70.85,,,,,Unlimited,SBD,M,
Boys,82.1,1,Noah Castillo,Bangs,81.65,210.92,142.88,213.19,566.99,Unlimited,SBD,M,
Boys,82.1,2,Price Mullin,Hico,79.47,199.58,142.88,201.85,544.31,Unlimited,SBD,M,
Boys,82.1,3,Adan Rocha,De Leon,81.87,226.8,136.08,181.44,544.31,Unlimited,SBD,M,
Boys,82.1,4,Brayden Cook,Rising Star,81.1,185.97,145.15,206.38,537.51,Unlimited,SBD,M,
Boys,82.1,5,Jovani Cervantes,Dublin,75.75,204.12,111.13,201.85,517.1,Unlimited,SBD,M,
Boys,82.1,6,Manuel Ortiz,Comanche,74.93,179.17,108.86,167.83,455.86,Unlimited,SBD,M,
Boys,82.1,7,Gage Heinz,De Leon,80.92,156.49,92.99,170.1,419.57,Unlimited,SBD,M,
Boys,82.1,8,Micah Harless,Willow Park Trinity Christian Academy,81.83,142.88,90.72,179.17,412.77,Unlimited,SBD,M,
Boys,82.1,9,Kennon Lee,Hamilton,77.84,133.81,83.91,142.88,360.61,Unlimited,SBD,M,
Boys,82.1,10,Emerson Helmuth,Rising Star,81.74,120.2,77.11,147.42,344.73,Unlimited,SBD,M,
Boys,82.1,11,Aiden Sanchez,Bangs,79.61,151.95,77.11,108.86,337.93,Unlimited,SBD,M,
Boys,82.1,12,Noah Block,Hico,81.83,117.93,83.91,136.08,337.93,Unlimited,SBD,M,
Boys,89.81,1,Emmanuel Ramirez,Dublin,88.9,195.04,133.81,208.65,537.51,Unlimited,SBD,M,
Boys,89.81,2,Connor Bostic,De Leon,85.37,185.97,113.4,204.12,503.49,Unlimited,SBD,M,
Boys,89.81,3,Adrian Tepetate,De Leon,88.09,176.9,104.33,201.85,483.08,Unlimited,SBD,M,
Boys,89.81,4,William Lopez,Comanche,89.45,151.95,106.59,165.56,424.11,Unlimited,SBD,M,
Boys,89.81,5,ELi Garza,De Leon,87.68,142.88,88.45,183.7,415.04,Unlimited,SBD,M,
Boys,89.81,6,Zaden Tello,Comanche,83.91,156.49,95.25,142.88,394.63,Unlimited,SBD,M,
Boys,89.81,7,Noah Smith,Comanche,86,138.35,95.25,147.42,381.02,Unlimited,SBD,M,
Boys,89.81,DQ,Damien Hudspeth,Bangs,86.18,145.15,,149.69,,Unlimited,SBD,M,
Boys,99.79,1,Brazos Boswell,De Leon,97.07,206.38,115.67,199.58,521.63,Unlimited,SBD,M,
Boys,99.79,2,Max Johnson,Willow Park Trinity Christian Academy,99.7,206.38,102.06,201.85,510.29,Unlimited,SBD,M,
Boys,99.79,3,Caige Balvantin,Dublin,91.63,192.78,120.2,174.63,487.61,Unlimited,SBD,M,
Boys,99.79,4,Roy Duron,Bangs,97.52,165.56,102.06,167.83,435.45,Unlimited,SBD,M,
Boys,99.79,5,Adam Jaimes,Dublin,97.07,147.42,104.33,163.29,415.04,Unlimited,SBD,M,
Boys,99.79,6,Ahmado Carranza,Dublin,98.88,145.15,111.13,151.95,408.23,Unlimited,SBD,M,
Boys,99.79,7,Tucker Ondrusek,Hamilton,99.79,102.06,83.91,136.08,322.05,Unlimited,SBD,M,
Boys,99.79,DQ,Jamie Ruble,Rising Star,90.99,,,,,Unlimited,SBD,M,
Boys,99.79,DQ,Anthony Polard,Rising Star,99.7,,,,,Unlimited,SBD,M,
Boys,109.77,1,Sam Stewart,Tolar,105.23,226.8,136.08,226.8,589.67,Unlimited,SBD,M,
Boys,109.77,2,Ryan Gibson,De Leon,109.45,165.56,97.52,163.29,426.38,Unlimited,SBD,M,
Boys,109.77,3,Juan Elecerio,Dublin,103.42,176.9,83.91,163.29,424.11,Unlimited,SBD,M,
Boys,109.77,4,Jaden Silva,De Leon,102.87,170.1,79.38,165.56,415.04,Unlimited,SBD,M,
Boys,109.77,DQ,Juan Alvarez,Dublin,107.5,,,,,Unlimited,SBD,M,
Boys,124.74,1,Nik Adams,Hamilton,121.29,272.16,158.76,256.28,687.19,Unlimited,SBD,M,
Boys,124.74,2,Mills Mehaffey,Hamilton,116.66,188.24,136.08,183.7,508.02,Unlimited,SBD,M,
Boys,124.74,3,Juan Garcia,De Leon,118.84,179.17,120.2,197.31,496.68,Unlimited,SBD,M,
Boys,124.74,4,Luke Sims,Willow Park Trinity Christian Academy,122.92,165.56,97.52,183.7,446.79,Unlimited,SBD,M,
Boys,124.74,5,Baylor Whitley,De Leon,120.2,149.69,81.65,181.44,412.77,Unlimited,SBD,M,
Boys,139.71,1,Noah Pin,Bangs,125.55,247.21,136.08,226.8,610.08,Unlimited,SBD,M,
Boys,139.71,DQ,Brody Newton,Bangs,137.44,,,,,Unlimited,SBD,M,
Boys,139.71+,1,Landon Deters,Comanche,179.08,238.14,145.15,249.48,632.76,Unlimited,SBD,M,
