Place,Name,Sex,BirthDate,Age,Equipment,Division,BodyweightKg,WeightClassKg,Squat1Kg,Squat2Kg,Squat3Kg,Best3SquatKg,Bench1Kg,Bench2Kg,Bench3Kg,Best3BenchKg,Deadlift1Kg,Deadlift2Kg,Deadlift3Kg,Best3DeadliftKg,TotalKg,Event
1,Boneva Corby,F,2001-08-20,,Bare,F_JR_ABPU,48,48,55,-62.5,65,65,35,-40,-40,35,-70,80,92.5,92.5,192.5,SBD
1,Alex McCabery,F,1982-07-02,,Bare,F_MR_1_ABPU,139.7,110+,125,135,145,145,80,85,90,90,120,125,-130,125,360,SBD
1,Caitlin Grant,F,1999-03-28,,Bare,F_OR_ABPU,73.4,75,122.5,127.5,-132.5,127.5,67.5,75,-77.5,75,160,170,-180,170,372.5,SBD
1,Cadey Chugg,F,2009-01-01,,Bare,F_TR_2_ABPU,67.5,67.5,-125,-125,125,125,75,80,-85,80,130,140,-152.5,140,345,SBD
1,Natalie Winterson,F,1979-11-16,,Wraps,F_MCR_2_ABPU,81.5,82.5,75,-80,,75,40,42.5,,42.5,115,125,,125,242.5,SBD
1,Christine Clark,F,1967-06-13,,Wraps,F_MCR_4_ABPU,67.5,67.5,90,95,100,100,40,42.5,-45,42.5,120,125,130,130,272.5,SBD
1,Rowan Mason,F,1999-10-16,,Wraps,F_OCR_ABPU,72.6,75,127.5,132.5,137.5,137.5,65,67.5,-70,67.5,140,150,-157.5,150,355,SBD
1,Jessica Hayes #2,F,,45,Bare,F_OR_ABPU,75,75,,,,,47.5,50,-52.5,50,,,,,50,B
1,Bethany Kneil,F,1980-08-31,,Bare,F_MR_1_ABPU,81.9,82.5,,,,,,,,,130,140,-150,140,140,D
1,Jessica Hayes #2,F,,45,Bare,F_OR_ABPU,75,75,,,,,,,,,95,100,-102.5,100,100,D
1,John Oniell,M,2001-09-13,,Bare,M_JR_ABPU,90,90,110,120,-140,120,75,-80,80,80,170,180,182.5,182.5,382.5,SBD
1,Reece Hillier,M,2002-10-16,,Bare,M_JR_ABPU,107.5,110,-110,110,115,115,62.5,70,75,75,112.5,120,130,130,320,SBD
1,Thiruchelvam Mathivannan,M,1978-10-18,,Bare,M_MR_2_ABPU,74.3,75,105,120,125,125,90,-97.5,-97.5,90,125,140,150,150,365,SBD
1,Daniel Silk,M,1995-04-21,,Bare,M_OR_ABPU,105.7,110,145,155,170,170,120,132.5,137.5,137.5,220,230,245,245,552.5,SBD
1,Logan Curtis,M,2011-02-11,,Bare,M_TR_1_ABPU,61.1,67.5,55,65,70,70,37.5,40,-45,40,87.5,100,-110,100,210,SBD
2,Edward Hooper,M,2011-06-04,,Bare,M_TR_1_ABPU,66.6,67.5,60,-70,70,70,40,45,-50,45,80,90,-100,90,205,SBD
1,Ethan Peart,M,2010-12-09,,Bare,M_TR_1_ABPU,89,90,-90,90,105,105,60,67.5,-72.5,67.5,120,130,-135,130,302.5,SBD
1,Anish Mathivannan,M,2007-12-04,,Bare,M_TR_3_ABPU,70.1,75,-120,120,-127.5,120,95,105,-107.5,105,165,180,-190,180,405,SBD
1,Dillon Newton,M,2002-06-15,,Wraps,M_JCR_ABPU,87.5,90,210,220,230,230,130,135,137.5,137.5,230,245,255,255,622.5,SBD
2,Charlie O'Donnell,M,2003-03-06,,Wraps,M_JCR_ABPU,88.8,90,165,180,-185,180,87.5,90,-92.5,90,190,200,-205,200,470,SBD
1,Dale Humphreys,M,1991-02-09,,Wraps,M_OCR_BPU,81.9,82.5,200,212.5,225,225,110,120,130,130,220,235,250,250,605,SBD
1,Nathan Spiller,M,1989-03-10,,Wraps,M_OCR_BPU,97.9,100,225,235,240,240,120,135,,135,255,270,280,280,655,SBD
1,Josh McGuinness,M,1994-04-09,,Wraps,M_OCR_ABPU,88.4,90,200,210,220,220,110,117.5,120,120,200,215,230,230,570,SBD
1,Jack Robbins,M,2000-08-10,,Wraps,M_OCR_ABPU,100,100,-200,-220,220,220,100,-112.5,112.5,112.5,215,230,-240,230,562.5,SBD
1,Garry Pinhorn,M,1992-02-01,,Wraps,M_OCR_ABPU,137.8,140,185,195,205,205,127.5,135,-140,135,205,220,227.5,227.5,567.5,SBD
1,Steve Dando,M,1988-02-28,,Bare,M_OR_ABPU,81.4,82.5,215,225,235,235,120,130,-135,130,215,230,-235,230,595,SBD
1,Stephen Brown #5,M,1996-04-20,,Bare,M_OR_ABPU,89.3,90,220,245,260,260,105,112.5,115,115,260,280,-300,280,655,SBD
1,Elias Baliukevicius,M,2008-09-08,,Wraps,M_TCR_2_BPU,80.9,82.5,-225,225,245,245,110,120,-125,120,220,242.5,-250,242.5,607.5,SBD
1,Harry Jordan,M,2007-02-06,,Wraps,M_TCR_3_ABPU,85,90,-160,160,167.5,167.5,87.5,92.5,-100,92.5,165,-172.5,172.5,172.5,432.5,SBD
1,Richard Curtis,M,1983-05-30,,Multi-ply,M_MEM_1_ABPU,89,90,250,260,,260,135,140,,140,220,250,,250,650,SBD
1,Kieran Peters,M,1989-03-30,,Multi-ply,M_OEM_ABPU,99.3,100,290,315,-327.5,315,180,190,,190,275,-300,300,300,805,SBD
1,Dylan Heighton,M,2010-06-24,,Bare,M_TR_1_ABPU,49.6,52,,,,,-40,40,47.5,47.5,,,,,47.5,B
1,Jackson Passmore,M,2006-09-13,,Bare,M_TR_3_ABPU,67.1,67.5,,,,,65,75,-80,75,,,,,75,B
1,Ronnie Wyatt,M,2006-05-18,,Bare,M_TR_3_ABPU,82.4,82.5,,,,,80,95,-100,95,,,,,95,B
1,Billy Vickery,M,2008-01-01,,Bare,M_TR_2_ABPU,55.3,56,,,,,85,90,92.5,92.5,,,,,92.5,B
1,Daniel Silk,M,1995-04-21,,Bare,M_OR_ABPU,105.7,110,,,,,,,,,220,230,245,245,245,D
1,Dylan Heighton,M,2010-06-24,,Bare,M_TR_1_ABPU,49.6,52,,,,,,,,,80,90,100,100,100,D
1,Logan Curtis,M,2011-02-11,,Bare,M_TR_1_ABPU,61.1,67.5,,,,,,,,,87.5,100,-110,100,100,D
1,Jackson Passmore,M,2006-09-13,,Bare,M_TR_3_ABPU,67.1,67.5,,,,,,,,,145,155,165,165,165,D
1,Ronnie Wyatt,M,2006-05-18,,Bare,M_TR_3_ABPU,82.4,82.5,,,,,,,,,-190,212.5,-215,212.5,212.5,D
1,Billy Vickery,M,2008-01-01,,Bare,M_TR_2_ABPU,55.3,56,,,,,,,,,145,152.5,160,160,160,D
