Place,Name,BirthDate,Sex,BirthYear,Age,Country,State,Equipment,Division,BodyweightKg,WeightClassKg,Squat1Kg,Squat2Kg,Squat3Kg,Best3SquatKg,Bench1Kg,Bench2Kg,Bench3Kg,Best3BenchKg,Deadlift1Kg,Deadlift2Kg,Deadlift3Kg,Best3DeadliftKg,TotalKg,Event
1,Alexander Kang,,M,1984,40,USA,VA,Single-ply,M-O,80.20,83,,,,,100.00,-160.00,-165.00,100.00,,,,,100,B
1,Arielle Patra,,F,1997,27,USA,MD,Raw,FR-O,55.60,57,65.0,70.00,75.00,75.0,65.00,70.00,75.00,75.00,65.00,70.00,75.00,75.00,225,SBD
2,Brian Poore,,M,1977,47,USA,MD,Raw,MR-M1,127.40,120+,197.5,207.50,220.00,220.0,135.00,142.50,152.50,152.50,222.50,232.50,-245.00,232.50,605,SBD
1,Cherie Bennett,,F,1991,33,USA,DC,Raw,FR-O,59.60,63,117.5,122.50,-130.00,122.5,65.00,70.00,-72.50,70.00,127.50,140.00,147.50,147.50,340,SBD
1,Desmond Jordan,,M,1985,39,USA,NC,Raw,MR-M1,118.00,120,300.0,327.50,-332.50,327.5,192.50,200.00,-205.00,200.00,345.00,-365.00,-365.00,345.00,873,SBD
3,Desmond Jordan,,M,1985,39,USA,NC,Raw,MR-O,118.00,120,300.0,327.50,-332.50,327.5,192.50,200.00,-205.00,200.00,345.00,-365.00,-365.00,345.00,873,SBD
1,Devin Gardner #3,,M,2002,22,USA,NC,Raw,MR-Jr,109.20,120,300.0,-322.50,-322.50,300.0,205.00,227.50,-235.00,227.50,347.50,365.00,375.00,375.00,903,SBD
2,Devin Gardner #3,,M,2002,22,USA,NC,Raw,MR-O,109.20,120,300.0,-322.50,-322.50,300.0,205.00,227.50,-235.00,227.50,347.50,365.00,375.00,375.00,903,SBD
1,Ethan Stone,,M,2002,22,USA,NY,Raw,MR-Jr,103.90,105,260.0,277.50,292.50,292.5,147.50,157.50,165.00,165.00,325.00,347.50,367.50,367.50,825,SBD
1,Ethan Stone,,M,2002,22,USA,NY,Raw,MR-O,103.90,105,260.0,277.50,292.50,292.5,147.50,157.50,165.00,165.00,325.00,347.50,367.50,367.50,825,SBD
1,Haley Echelmeier,,F,1995,29,USA,MD,Raw,FR-O,69.00,69,147.5,157.50,165.00,165.0,72.50,77.50,-80.00,77.50,185.00,200.00,-207.50,200.00,443,SBD
1,Hannah Odom,,F,2001,23,USA,MD,Raw,FR-O,101.50,84+,120.0,130.00,-137.50,130.0,75.00,80.00,-82.50,80.00,147.50,-160.00,160.00,160.00,370,SBD
1,Jake Rody,,M,2008,16,USA,MD,Raw,MR-Sj,82.50,83,-170.0,185.00,-200.00,185.0,125.00,135.00,-137.50,135.00,-180.00,190.00,200.00,200.00,520,SBD
1,Jeremy Gaston,,M,1978,46,USA,MD,Raw,MR-M1,70.90,74,-120.0,132.50,145.00,145.0,-90.00,97.50,-105.00,97.50,165.00,182.50,-192.50,182.50,425,SBD
1,Jeremy Gaston,,M,1978,46,USA,MD,Raw,MR-O,70.90,74,-120.0,132.50,145.00,145.0,-90.00,97.50,-105.00,97.50,165.00,182.50,-192.50,182.50,425,SBD
1,Kaleb Mcdowell,,M,1970,54,USA,MD,Raw,MR-M2,62.60,66,85.0,100.00,-110.00,100.0,85.00,95.00,-100.00,95.00,85.00,100.00,110.00,110.00,305,SBD
1,Karen Kleyle,,F,1970,54,USA,MD,Raw,FR-M2,65.90,69,102.5,110.00,-112.50,110.0,-47.50,47.50,-50.00,47.50,130.00,-145.00,145.00,145.00,303,SBD
2,Karen Kleyle,,F,1970,54,USA,MD,Raw,FR-O,65.90,69,102.5,110.00,-112.50,110.0,-47.50,47.50,-50.00,47.50,130.00,-145.00,145.00,145.00,303,SBD
1,Larry Nash,,M,1960,65,USA,VA,Raw,MR-M3,80.20,83,172.5,185.00,190.00,190.0,125.00,132.50,137.50,137.50,190.00,-200.00,205.00,205.00,533,SBD
1,Nathan Gorham,,M,1977,48,USA,MD,Raw,MR-M1,125.50,120+,300.0,320.00,340.00,340.0,200.00,-220.00,227.50,227.50,265.00,-285.00,-285.00,265.00,833,SBD
1,Nathan Gorham,,M,1977,48,USA,MD,Raw,MR-O,125.50,120+,300.0,320.00,340.00,340.0,200.00,-220.00,227.50,227.50,265.00,-285.00,-285.00,265.00,833,SBD
1,Rachael Dugan,,F,1982,42,USA,PA,Raw,FR-M1,81.40,84,-95.0,95.00,100.00,100.0,67.50,72.50,-75.00,72.50,125.00,135.00,142.50,142.50,315,SBD
1,Rachael Dugan,,F,1982,42,USA,PA,Raw,FR-O,81.40,84,-95.0,95.00,100.00,100.0,67.50,72.50,-75.00,72.50,125.00,135.00,142.50,142.50,315,SBD
1,Richard Andre,,M,1995,29,USA,DE,Raw,MR-O,118.40,120,320.0,-340.00,340.00,340.0,190.00,197.50,-202.50,197.50,347.50,370.00,-380.00,370.00,908,SBD
1,Tara Highbaugh,,F,1980,44,USA,VA,Raw,FR-M1,76.00,76,95.0,100.00,110.00,110.0,75.00,85.00,95.00,95.00,130.00,135.00,150.00,150.00,355,SBD
2,Tara Highbaugh,,F,1980,44,USA,VA,Raw,FR-O,76.00,76,95.0,100.00,110.00,110.0,75.00,85.00,95.00,95.00,130.00,135.00,150.00,150.00,355,SBD
2,Victor Eichenwald,,M,1999,25,USA,MD,Raw,MR-O,101.20,105,240.0,252.50,-262.50,252.5,170.00,180.00,-182.50,180.00,332.50,352.50,-362.50,352.50,785,SBD
1,Zhuolun Wang,,F,1996,28,USA,MD,Raw,FR-O,74.50,76,-125.0,135.00,142.50,142.5,57.50,62.50,-65.00,62.50,130.00,142.50,150.00,150.00,355,SBD
