Division,WeightClassKg,Place,Name,Team,BodyweightKg,Best3SquatKg,Best3BenchKg,Best3DeadliftKg,TotalKg,Equipment,Event,Sex,BirthDate
Girls,44.23,1,Brooke Castillo,Alice,41.91,83.91,49.9,104.33,238.14,Unlimited,SBD,F,
Girls,44.23,2,Deidra Chapa,Alice,42.32,70.31,56.7,104.33,231.33,Unlimited,SBD,F,
Girls,44.23,3,Abby Chavez,Stockdale,43.09,77.11,40.82,88.45,206.38,Unlimited,SBD,F,
Girls,44.23,4,Audrina Marcelino,Odem,41.28,74.84,29.48,72.57,176.9,Unlimited,SBD,F,
Girls,44.23,5,Alyssa Dominguez,Ben Bolt-Palito Blanco,43.14,74.84,29.48,72.57,176.9,Unlimited,SBD,F,
Girls,44.23,6,Arabella Rodriguez,Santa Gertrudis Academy,44.13,61.23,36.29,77.11,174.63,Unlimited,SBD,F,
Girls,44.23,7,Shyanne Gutierrez,Refugio,39.78,61.23,34.02,74.84,170.1,Unlimited,SBD,F,
Girls,44.23,8,Lianna Longoria,Falfurrias,43.77,56.7,29.48,74.84,161.03,Unlimited,SBD,F,
Girls,44.23,9,Mariana Cortez,Brownsville Riverview IDEA,38.87,47.63,22.68,70.31,140.61,Unlimited,SBD,F,
Girls,44.23,DQ,Alyssa McKensie,Stockdale,43.14,,,,,Unlimited,SBD,F,
Girls,44.23,DQ,Samantha Sanchez,La Joya,43.73,81.65,31.75,,,Unlimited,SBD,F,
Girls,47.85,1,Charlize Terrazas,Castroville Medina Valley,46.08,113.4,45.36,115.67,274.42,Unlimited,SBD,F,
Girls,47.85,2,Tatym Carnley,Castroville Medina Valley,46.9,83.91,47.63,115.67,247.21,Unlimited,SBD,F,
Girls,47.85,3,Keira Salinas,Alice,47.85,77.11,36.29,106.59,219.99,Unlimited,SBD,F,
Girls,47.85,4,Analise Davis,Aransas Pass,47.08,77.11,43.09,97.52,217.72,Unlimited,SBD,F,
Girls,47.85,5,Caroline Strande,Comal Pieper,46.99,83.91,40.82,88.45,213.19,Unlimited,SBD,F,
Girls,47.85,6,Diamond Mckenzie,La Grange,47.81,74.84,40.82,90.72,206.38,Unlimited,SBD,F,
Girls,47.85,7,Joyce Ochoa,Hidalgo Early College,45.99,68.04,36.29,99.79,204.12,Unlimited,SBD,F,
Girls,47.85,8,Abcde Mata,Kingsville King,46.9,70.31,40.82,92.99,204.12,Unlimited,SBD,F,
Girls,47.85,9,Avalynae Muniz,Kingsville King,44.95,74.84,36.29,90.72,201.85,Unlimited,SBD,F,
Girls,47.85,10,Olivia Salazar,Hondo,46.99,65.77,29.48,92.99,188.24,Unlimited,SBD,F,
Girls,47.85,11,Arisela Quinones,Kingsville King,46.08,61.23,34.02,90.72,185.97,Unlimited,SBD,F,
Girls,47.85,12,Yadira Mejia,La Joya,46.77,63.5,27.22,88.45,179.17,Unlimited,SBD,F,
Girls,47.85,13,Jadie Apolinario,Jourdanton,46.9,63.5,29.48,86.18,179.17,Unlimited,SBD,F,
Girls,47.85,DQ,Jazlyn Vigil,Stockdale,46.81,,,,,Unlimited,SBD,F,
Girls,51.94,1,Payson Trejo,Alice,51.62,95.25,47.63,108.86,251.74,Unlimited,SBD,F,
Girls,51.94,2,Alexis Navarro,San Antonio Southwest,48.81,97.52,40.82,83.91,222.26,Unlimited,SBD,F,
Girls,51.94,3,Allison Scott,Aransas Pass,51.12,77.11,40.82,102.06,219.99,Unlimited,SBD,F,
Girls,51.94,4,Kadence Perez,Falfurrias,50.17,79.38,40.82,92.99,213.19,Unlimited,SBD,F,
Girls,51.94,5,Lauren Sanchez,Falfurrias,50.35,70.31,29.48,111.13,210.92,Unlimited,SBD,F,
Girls,51.94,6,Reyna Gomez,Kingsville King,50.62,81.65,38.56,90.72,210.92,Unlimited,SBD,F,
Girls,51.94,7,Perla Robledo,Corpus Christi Calallen,50.35,81.65,40.82,83.91,206.38,Unlimited,SBD,F,
Girls,51.94,8,Reyna Vega,Brownsville Lopez,51.26,74.84,31.75,83.91,190.51,Unlimited,SBD,F,
Girls,51.94,9,Avery Maldonado,Santa Gertrudis Academy,50.35,56.7,31.75,99.79,188.24,Unlimited,SBD,F,
Girls,51.94,10,Lilah Morin,Odem,50.8,58.97,34.02,79.38,172.37,Unlimited,SBD,F,
Girls,51.94,DQ,Karla Vera,La Joya,51.48,72.57,40.82,,,Unlimited,SBD,F,
Girls,51.94,DQ,Katie Falcone,Comal Davenport,50.48,,,,,Unlimited,SBD,F,
Girls,51.94,DQ,Victoria Orneles,Comal Pieper,51.44,,,,,Unlimited,SBD,F,
Girls,56.02,1,Mia Ramirez,Brownsville Rivera,55.29,111.13,45.36,136.08,292.57,Unlimited,SBD,F,
Girls,56.02,2,Eden Cavazos,Santa Gertrudis Academy,55.47,102.06,58.97,131.54,292.57,Unlimited,SBD,F,
Girls,56.02,3,Nevaeh Suarez,Kingsville King,54.39,88.45,58.97,120.2,267.62,Unlimited,SBD,F,
Girls,56.02,4,Audisey Sanchez,Aransas Pass,55.93,102.06,56.7,104.33,263.08,Unlimited,SBD,F,
Girls,56.02,5,Ashley Ramirez,Laredo Cigarroa,55.07,99.79,45.36,99.79,244.94,Unlimited,SBD,F,
Girls,56.02,6,Lori Zimmerman,Castroville Medina Valley,54.79,88.45,36.29,113.4,238.14,Unlimited,SBD,F,
Girls,56.02,7,Tessa Kubala,Alice,54.34,95.25,38.56,102.06,235.87,Unlimited,SBD,F,
Girls,56.02,8,Mia Campos,Kingsville King,53.71,83.91,43.09,104.33,231.33,Unlimited,SBD,F,
Girls,56.02,9,Samantha Solis,La Joya,55.02,81.65,49.9,99.79,231.33,Unlimited,SBD,F,
Girls,56.02,10,Sierra Garza,Santa Gertrudis Academy,55.84,83.91,38.56,108.86,231.33,Unlimited,SBD,F,
Girls,56.02,11,Jazlyn Clervic,Comal Pieper,56.02,81.65,36.29,111.13,229.06,Unlimited,SBD,F,
Girls,56.02,12,Brianna Cox,Yorktown,54.48,86.18,43.09,95.25,224.53,Unlimited,SBD,F,
Girls,56.02,13,Amaya Lozano,Jourdanton,56.02,81.65,36.29,92.99,210.92,Unlimited,SBD,F,
Girls,56.02,14,Yzabella Luarca,Alice,54.3,83.91,43.09,81.65,208.65,Unlimited,SBD,F,
Girls,60.1,1,Sydney Arredondo,Refugio,58.83,117.93,52.16,142.88,312.98,Unlimited,SBD,F,
Girls,60.1,2,Jaide Jones,Cuero,58.97,122.47,61.23,111.13,294.84,Unlimited,SBD,F,
Girls,60.1,3,Amanda Perez,Laredo Nixon,58.29,111.13,47.63,127.01,285.76,Unlimited,SBD,F,
Girls,60.1,4,Emelia Garcia,Jourdanton,58.15,99.79,43.09,124.74,267.62,Unlimited,SBD,F,
Girls,60.1,5,Sara Hartman,Comal Canyon,56.7,97.52,52.16,111.13,260.82,Unlimited,SBD,F,
Girls,60.1,6,Larkin Patek,Comal Canyon,58.11,95.25,52.16,113.4,260.82,Unlimited,SBD,F,
Girls,60.1,7,Kathryn Cavazos,Stockdale,60.1,95.25,40.82,111.13,247.21,Unlimited,SBD,F,
Girls,60.1,8,Manuela Souza,Uvalde,58.83,79.38,40.82,113.4,233.6,Unlimited,SBD,F,
Girls,60.1,DQ,Jesaeh Suarez,Kingsville King,57.92,111.13,,,,Unlimited,SBD,F,
Girls,60.1,DQ,Meagan Barcena,Kingsville King,59.33,,,,,Unlimited,SBD,F,
Girls,60.1,DQ,Liliana Escalante,Comal Canyon,59.28,,,,,Unlimited,SBD,F,
Girls,67.36,1,McKenzie Isbill,Comal Canyon,66.04,117.93,65.77,127.01,310.71,Unlimited,SBD,F,
Girls,67.36,2,Sydney Banks,Comal Canyon,66.77,111.13,70.31,124.74,306.17,Unlimited,SBD,F,
Girls,67.36,3,Jaycee Kraft,Comal Canyon,65.27,111.13,61.23,131.54,303.91,Unlimited,SBD,F,
Girls,67.36,4,Jewlee Recio,Robstown,65.14,115.67,45.36,129.27,290.3,Unlimited,SBD,F,
Girls,67.36,5,Hailey Bejaran,Sinton,60.55,124.74,47.63,108.86,281.23,Unlimited,SBD,F,
Girls,67.36,6,Karman Duron,Hondo,64.68,111.13,49.9,115.67,276.69,Unlimited,SBD,F,
Girls,67.36,7,Nevaeh Calzada,Kingsville King,63,97.52,43.09,131.54,272.16,Unlimited,SBD,F,
Girls,67.36,8,Sydnie Garza,Santa Gertrudis Academy,61.78,97.52,45.36,120.2,263.08,Unlimited,SBD,F,
Girls,67.36,9,Ashley Dietz,Comal Canyon,62.78,102.06,52.16,108.86,263.08,Unlimited,SBD,F,
Girls,67.36,10,Kylie Cisneros,Falfurrias,66.09,104.33,47.63,108.86,260.82,Unlimited,SBD,F,
Girls,67.36,11,Alayla Gonzalez,Marion,63.87,104.33,43.09,106.59,254.01,Unlimited,SBD,F,
Girls,67.36,12,Sorely Camacho,Hondo,66.13,90.72,47.63,113.4,251.74,Unlimited,SBD,F,
Girls,67.36,DQ,Grace Becker,Cuero,67.36,97.52,,,,Unlimited,SBD,F,
Girls,67.36,DQ,Gillian Eckert,Comal Pieper,65.09,,,,,Unlimited,SBD,F,
Girls,67.36,DQ,Zoe Rodriguez,Yorktown,64.91,,,,,Unlimited,SBD,F,
Girls,75.07,1,Breanna Palmer,Odem,71.44,158.76,77.11,136.08,371.95,Unlimited,SBD,F,
Girls,75.07,2,Allanah Mallard,Comal Pieper,72.67,136.08,81.65,133.81,351.53,Unlimited,SBD,F,
Girls,75.07,3,Piper Hoskins,Comal Canyon,72.17,117.93,61.23,129.27,308.44,Unlimited,SBD,F,
Girls,75.07,4,Valeria Carcamo,San Antonio Southwest,74.98,106.59,38.56,140.61,285.76,Unlimited,SBD,F,
Girls,75.07,5,Marinda Knight,Hondo,69.76,97.52,49.9,117.93,265.35,Unlimited,SBD,F,
Girls,75.07,6,Jalyn Murillo,Comal Canyon,71.12,111.13,45.36,104.33,260.82,Unlimited,SBD,F,
Girls,75.07,7,Nicole Beltran,Corpus Christi Calallen,68.36,99.79,43.09,102.06,244.94,Unlimited,SBD,F,
Girls,75.07,DQ,Destiny Chavez,Comal Pieper,72.89,,,,,Unlimited,SBD,F,
Girls,75.07,DQ,Maaliyah Zapata,Castroville Medina Valley,73.35,,,,,Unlimited,SBD,F,
Girls,75.07,DQ,Dulce Mata,La Joya,70.08,102.06,43.09,,,Unlimited,SBD,F,
Girls,75.07,DQ,Allie Geffert,Yorktown,73.03,88.45,49.9,,,Unlimited,SBD,F,
Girls,75.07,DQ,Jazzmin Coleman,La Grange,72.03,104.33,52.16,133.81,,Unlimited,SBD,F,
Girls,82.33,1,Danieliz Villafane,San Antonio Southwest,76.29,136.08,68.04,156.49,360.61,Unlimited,SBD,F,
Girls,82.33,2,Jaelynn Cortez,Kingsville King,75.16,117.93,43.09,127.01,288.03,Unlimited,SBD,F,
Girls,82.33,3,Isabella Rodriguez,Hondo,78.52,113.4,45.36,124.74,283.5,Unlimited,SBD,F,
Girls,82.33,4,Alyana Cabrera,Falfurrias,80.47,108.86,56.7,117.93,283.5,Unlimited,SBD,F,
Girls,82.33,5,Vanessa Velazquez,Hidalgo Early College,82.33,102.06,54.43,124.74,281.23,Unlimited,SBD,F,
Girls,82.33,6,Justice Gomez,Comal Pieper,80.65,92.99,47.63,129.27,269.89,Unlimited,SBD,F,
Girls,82.33,7,Avery Gerstner,Alice,78.34,92.99,45.36,129.27,267.62,Unlimited,SBD,F,
Girls,82.33,8,Larenn Elizalde,Cuero,81.19,104.33,43.09,117.93,265.35,Unlimited,SBD,F,
Girls,82.33,DQ,Anika Bouchot,Brownsville Lopez,75.21,,,,,Unlimited,SBD,F,
Girls,82.33,DQ,Luz Medina,La Joya,77.56,95.25,49.9,,,Unlimited,SBD,F,
Girls,82.33,DQ,Jennifer Mosqueda,Laredo Martin,79.79,,,,,Unlimited,SBD,F,
Girls,82.33,DQ,Christina Perales,Laredo Cigarroa,79.51,,,,,Unlimited,SBD,F,
Girls,82.33,DQ,Alexandra Salazar,Refugio,80.88,95.25,49.9,106.59,,Unlimited,SBD,F,
Girls,90.04,1,Kimberly Gonzalez,Laredo Nixon,88.41,136.08,58.97,163.29,358.34,Unlimited,SBD,F,
Girls,90.04,2,Jocelyn Turrubiartes,Laredo Nixon,86.59,131.54,58.97,122.47,312.98,Unlimited,SBD,F,
Girls,90.04,3,Annissa Casarez,Comal Canyon,89.27,115.67,56.7,127.01,299.37,Unlimited,SBD,F,
Girls,90.04,4,Dariana Pena,Brownsville Veterans Memorial,86.14,131.54,43.09,120.2,294.84,Unlimited,SBD,F,
Girls,90.04,5,Audrey Perez,Laredo Cigarroa,88.81,127.01,45.36,120.2,292.57,Unlimited,SBD,F,
Girls,90.04,6,Josie Garcia,Kingsville King,86.27,108.86,52.16,115.67,276.69,Unlimited,SBD,F,
Girls,90.04,7,Layla Obregon,Hondo,82.51,102.06,49.9,113.4,265.35,Unlimited,SBD,F,
Girls,90.04,8,Evangelina Medina,Sinton,88.41,102.06,58.97,90.72,251.74,Unlimited,SBD,F,
Girls,90.04,DQ,Sophia Perez,Laredo United,88.86,,,,,Unlimited,SBD,F,
Girls,90.04,DQ,Yazmin Saldivar,Laredo Cigarroa,88.77,,,,,Unlimited,SBD,F,
Girls,90.04,DQ,Caitlynn Gonzalez,Falfurrias,88.18,113.4,49.9,,,Unlimited,SBD,F,
Girls,100.02,1,Angelina Jeronimo,Hidalgo Early College,97.16,149.69,79.38,156.49,385.55,Unlimited,SBD,F,
Girls,100.02,2,Julissa Olbera,Sinton,98.25,151.95,65.77,158.76,376.48,Unlimited,SBD,F,
Girls,100.02,3,Kaylie Lozano,Laredo Nixon,95.48,147.42,77.11,149.69,374.21,Unlimited,SBD,F,
Girls,100.02,4,Andrea Saldivar,Marion,93.3,154.22,52.16,154.22,360.61,Unlimited,SBD,F,
Girls,100.02,5,Shelby Vela,Laredo Cigarroa,94.8,142.88,47.63,145.15,335.66,Unlimited,SBD,F,
Girls,100.02,6,Aiyanna Perry,Comal Pieper,93.08,122.47,56.7,151.95,331.12,Unlimited,SBD,F,
Girls,100.02,7,Mia Gutierrez,Laredo Nixon,96.43,149.69,52.16,120.2,322.05,Unlimited,SBD,F,
Girls,100.02,8,Marlenne Perez,Poth,93.71,122.47,47.63,145.15,315.25,Unlimited,SBD,F,
Girls,100.02,9,Mellany Hernandez,Alice,96.84,136.08,47.63,131.54,315.25,Unlimited,SBD,F,
Girls,100.02,10,Alejandra Vargas,Corpus Christi Calallen,98.38,117.93,47.63,136.08,301.64,Unlimited,SBD,F,
Girls,100.02,11,Ily Winter,Castroville Medina Valley,99.2,133.81,45.36,113.4,292.57,Unlimited,SBD,F,
Girls,100.02,12,Makinzie Songer,Falfurrias,90.36,117.93,54.43,117.93,290.3,Unlimited,SBD,F,
Girls,100.02,13,Lauryn Kasperkhan,Comal Pieper,91.85,108.86,40.82,129.27,278.96,Unlimited,SBD,F,
Girls,110,1,Gabriela Mata,Hidalgo Early College,106.96,167.83,70.31,158.76,396.89,Unlimited,SBD,F,
Girls,110,2,Grazia Roquez,Laredo Nixon,100.61,142.88,72.57,142.88,358.34,Unlimited,SBD,F,
Girls,110,3,Gabriella Adrian,Kingsville King,108.59,147.42,63.5,127.01,337.93,Unlimited,SBD,F,
Girls,110,4,Elizabeth Garza,Falfurrias,101.74,129.27,56.7,133.81,319.78,Unlimited,SBD,F,
Girls,110,5,Kloe Fox,Alice,105.87,142.88,45.36,120.2,308.44,Unlimited,SBD,F,
Girls,110,6,Mersade Garcia,Robstown,107.05,102.06,52.16,117.93,272.16,Unlimited,SBD,F,
Girls,110,7,Melissa Diaz,La Joya,108.32,104.33,43.09,120.2,267.62,Unlimited,SBD,F,
Girls,110,8,Danni Cisneros,Brownsville Riverview IDEA,106.55,92.99,45.36,106.59,244.94,Unlimited,SBD,F,
Girls,110,9,Abbie Moreno,Sinton,102.15,92.99,38.56,111.13,242.67,Unlimited,SBD,F,
Girls,110,DQ,Yulianna Carbogal,La Joya,105.28,,,,,Unlimited,SBD,F,
Girls,110,DQ,Spirit Rodriguez,Comal Pieper,100.88,,,,,Unlimited,SBD,F,
Girls,110,DQ,Landree Driffill,Comal Pieper,103.46,,,,,Unlimited,SBD,F,
Girls,110,DQ,Bella DeLeon,Jourdanton,109.77,,,,,Unlimited,SBD,F,
Girls,110,DQ,Adelina Mann,San Antonio Holy Cross,109.77,,,,,Unlimited,SBD,F,
Girls,110+,1,Annastasia Hinojosa,Santa Gertrudis Academy,146.15,136.08,58.97,176.9,371.95,Unlimited,SBD,F,
Girls,110+,2,Amanda Saldivar,Marion,119,158.76,56.7,154.22,369.68,Unlimited,SBD,F,
Girls,110+,3,Destiny De la Rosa,Alice,128.64,138.35,47.63,158.76,344.73,Unlimited,SBD,F,
Girls,110+,4,Matieana Trevino,Alice,119.61,142.88,49.9,149.69,342.46,Unlimited,SBD,F,
Girls,110+,5,Zoe Garcia,Odem,113.49,104.33,61.23,124.74,290.3,Unlimited,SBD,F,
Girls,110+,6,Miya Salazar,Hondo,120.38,102.06,56.7,113.4,272.16,Unlimited,SBD,F,
Girls,110+,7,Zoe Bowles,Comal Pieper,151.32,97.52,47.63,124.74,269.89,Unlimited,SBD,F,
Girls,110+,8,Ashtyn Perez,Laredo United,123.74,97.52,36.29,111.13,244.94,Unlimited,SBD,F,
Girls,110+,9,Valentina Espitia,Hidalgo Early College,114.89,83.91,43.09,97.52,224.53,Unlimited,SBD,F,
Girls,110+,DQ,Aayla O'Grady,Kingsville King,118.16,,,,,Unlimited,SBD,F,
