Place,Name,Sex,BirthDate,Age,Country,State,Equipment,Division,Tested,BodyweightKg,WeightClassKg,Squat1Kg,Squat2Kg,Squat3Kg,Best3SquatKg,Bench1Kg,Bench2Kg,Bench3Kg,Best3BenchKg,Deadlift1Kg,Deadlift2Kg,Deadlift3Kg,Best3DeadliftKg,TotalKg,Event,Team
1,Ishbel Graham,F,2001-11-07,23,Australia,NSW,Sleeves,J20-23,Yes,58.9,60,117.5,122.5,130,130,80,85,-87.5,85,140,147.5,155,155,370,SBD,Strength Tribe
1,Sandra Robinson,F,1976-05-21,48,Australia,NSW,Sleeves,M40-49,Yes,55.3,56,70,75,-82.5,75,42.5,-47.5,-47.5,42.5,100,107.5,112.5,112.5,230,SBD,
1,Melanie Green,F,1980-06-21,44,Australia,NSW,Wraps,M40-49,Yes,70,75,125,135,142.5,142.5,75,77.5,-80,77.5,172.5,182.5,192.5,192.5,412.5,SBD,Newcastle Barbell
2,Maria Petridis,F,1981-01-14,44,Australia,NSW,Sleeves,M40-49,Yes,72.5,75,75,82.5,87.5,87.5,47.5,52.5,55,55,110,125,132.5,132.5,275,SBD,Newcastle Barbell
1,Danielle Maddalena,F,1980-11-07,44,Australia,NSW,Sleeves,M40-49,Yes,84.7,90,77.5,85,92.5,92.5,42.5,47.5,50,50,120,132.5,-140,132.5,275,SBD,Newcastle Barbell
1,Alicia Jones,F,1983-09-07,41,Australia,NSW,Sleeves,M40-49,Yes,99.3,100,115,125,137.5,137.5,57.5,62.5,67.5,67.5,135,145,155,155,360,SBD,
1,Louise Sutton,F,1965-12-25,59,Australia,NSW,Sleeves,M50-59,Yes,57.3,60,90,100,110,110,57.5,60,-62.5,60,125,135,140,140,310,SBD,
1,Sandra Robinson,F,1976-05-21,48,Australia,NSW,Sleeves,Open,Yes,55.3,56,70,75,-82.5,75,42.5,-47.5,-47.5,42.5,100,107.5,112.5,112.5,230,SBD,
1,Ishbel Graham,F,2001-11-07,23,Australia,NSW,Sleeves,Open,Yes,58.9,60,117.5,122.5,130,130,80,85,-87.5,85,140,147.5,155,155,370,SBD,Strength Tribe
2,Louise Sutton,F,1965-12-25,59,Australia,NSW,Sleeves,Open,Yes,57.3,60,90,100,110,110,57.5,60,-62.5,60,125,135,140,140,310,SBD,
1,Hailey Jamieson,F,1996-02-05,29,Australia,NSW,Sleeves,Open,Yes,66.5,67.5,87.5,95,100,100,35,-40,-40,35,92.5,100,-105,100,235,SBD,
2,Abigail Daley-Eastcott,F,2009-02-20,16,Australia,NSW,Sleeves,Open,Yes,62.1,67.5,40,45,50,50,25,27.5,30,30,60,67.5,72.5,72.5,152.5,SBD,
1,Melanie Green,F,1980-06-21,44,Australia,NSW,Wraps,Open,Yes,70,75,125,135,142.5,142.5,75,77.5,-80,77.5,172.5,182.5,192.5,192.5,412.5,SBD,Newcastle Barbell
2,Maria Petridis,F,1981-01-14,44,Australia,NSW,Sleeves,Open,Yes,72.5,75,75,82.5,87.5,87.5,47.5,52.5,55,55,110,125,132.5,132.5,275,SBD,Newcastle Barbell
1,Georgia Plinke,F,1989-10-30,35,Australia,NSW,Sleeves,Open,Yes,79.3,82.5,110,120,130,130,57.5,62.5,-67.5,62.5,150,160,170,170,362.5,SBD,Newcastle Barbell
1,Kristy Hayes,F,1986-04-13,38,Australia,NSW,Sleeves,Open,Yes,84.6,90,145,152.5,155,155,67.5,72.5,77.5,77.5,130,142.5,-152.5,142.5,375,SBD,Newcastle Barbell
2,Danielle Maddalena,F,1980-11-07,44,Australia,NSW,Sleeves,Open,Yes,84.7,90,77.5,85,92.5,92.5,42.5,47.5,50,50,120,132.5,-140,132.5,275,SBD,Newcastle Barbell
1,Alicia Jones,F,1983-09-07,41,Australia,NSW,Sleeves,Open,Yes,99.3,100,115,125,137.5,137.5,57.5,62.5,67.5,67.5,135,145,155,155,360,SBD,
1,Abigail Daley-Eastcott,F,2009-02-20,16,Australia,NSW,Sleeves,T16-19,Yes,62.1,67.5,40,45,50,50,25,27.5,30,30,60,67.5,72.5,72.5,152.5,SBD,
1,Jiayu Li,M,2002-01-23,23,Australia,NSW,Sleeves,J20-23,Yes,81.7,82.5,150,160,-170,160,95,105,-110,105,150,170,-185,170,435,SBD,Newcastle Barbell
1,Hamish Watts,M,2003-05-04,21,Australia,NSW,Sleeves,J20-23,Yes,89.2,90,175,185,200,200,85,90,95,95,200,220,-230,220,515,SBD,Newcastle Barbell
1,Daniel Gilchrist,M,1984-11-16,40,Australia,NSW,Sleeves,M40-49,Yes,95.5,100,205,220,-230,220,135,145,150,150,220,240,246,246,616,SBD,
1,Craig James,M,1962-03-02,62,Australia,NSW,Sleeves,M60-69,Yes,66.1,67.5,70,90,-115,90,70,75,80,80,100,125,145,145,315,SBD,
1,Michael Quill,M,1951-03-29,73,Australia,NSW,Sleeves,M70+,Yes,66.1,67.5,-110,-115,120,120,90,95,102.5,102.5,115,120,-130,120,342.5,SBD,
1,Timothy White-Tyrrell,M,1955-02-02,70,Australia,NSW,Sleeves,M70+,Yes,82.3,82.5,80,85,,85,70,77.5,81,81,110,121,,121,287,SBD,
1,Michael Quill,M,1951-03-29,73,Australia,NSW,Sleeves,Open,Yes,66.1,67.5,-110,-115,120,120,90,95,102.5,102.5,115,120,-130,120,342.5,SBD,
2,Craig James,M,1962-03-02,62,Australia,NSW,Sleeves,Open,Yes,66.1,67.5,70,90,-115,90,70,75,80,80,100,125,145,145,315,SBD,
1,William Fuller,M,1999-11-09,25,Australia,NSW,Sleeves,Open,Yes,71.6,75,125,-137.5,140,140,110,117.5,122.5,122.5,165,180,187.5,187.5,450,SBD,
2,Angus Watts,M,2005-04-06,19,Australia,NSW,Sleeves,Open,Yes,74.2,75,130,142.5,147.5,147.5,75,80,85,85,160,170,-180,170,402.5,SBD,Newcastle Barbell
1,Ryan Fletcher,M,1993-07-23,31,Australia,NSW,Sleeves,Open,Yes,81.1,82.5,127.5,137.5,142.5,142.5,95,102.5,-107.5,102.5,180,190,-200,190,435,SBD,
2,Jiayu Li,M,2002-01-23,23,Australia,NSW,Sleeves,Open,Yes,81.7,82.5,150,160,-170,160,95,105,-110,105,150,170,-185,170,435,SBD,Newcastle Barbell
3,Timothy White-Tyrrell,M,1955-02-02,70,Australia,NSW,Sleeves,Open,Yes,82.3,82.5,80,85,,85,70,77.5,81,81,110,121,,121,287,SBD,
1,Andy Yann,M,1997-06-02,27,Australia,NSW,Sleeves,Open,Yes,88.5,90,165,180,195,195,127.5,135,145,145,182.5,202.5,220,220,560,SBD,
2,Hamish Watts,M,2003-05-04,21,Australia,NSW,Sleeves,Open,Yes,89.2,90,175,185,200,200,85,90,95,95,200,220,-230,220,515,SBD,Newcastle Barbell
NS,Craig Power,M,1993-10-19,31,Australia,NSW,Sleeves,Open,Yes,90,90,,,,,,,,,,,,,,SBD,
1,Daniel Gilchrist,M,1984-11-16,40,Australia,NSW,Sleeves,Open,Yes,95.5,100,205,220,-230,220,135,145,150,150,220,240,246,246,616,SBD,
2,Lachlan Meacham,M,1999-05-03,25,Australia,NSW,Wraps,Open,Yes,94.3,100,217.5,222.5,227.5,227.5,125,130,-132.5,130,225,235,-240,235,592.5,SBD,
3,Thomas Groth,M,2000-02-05,25,Australia,NSW,Sleeves,Open,Yes,98.3,100,140,155,162.5,162.5,-95,102.5,110,110,195,210,220,220,492.5,SBD,
1,Leigh Creighton,M,1978-04-21,46,Australia,NSW,Sleeves,Open,Yes,115.7,125,92.5,102.5,-120,102.5,55,62.5,65,65,110,120,-132.5,120,287.5,SBD,
1,Leigh Creighton,M,1978-04-21,46,Australia,NSW,Sleeves,M40-49,Yes,115.7,125,92.5,102.5,-120,102.5,55,62.5,65,65,110,120,-132.5,120,287.5,SBD,
1,Angus Watts,M,2005-04-06,19,Australia,NSW,Sleeves,T16-19,Yes,74.2,75,130,142.5,147.5,147.5,75,80,85,85,160,170,-180,170,402.5,SBD,Newcastle Barbell
1,Hunter McGarry,M,2002-10-09,22,Australia,NSW,Single-ply,J20-23,Yes,77.6,82.5,195,205,220,220,135,-142.5,,135,190,205,217.5,217.5,572.5,SBD,Central Coast Barbell
1,Max Bristow,M,1944-06-04,80,Australia,NSW,Single-ply,M70+,Yes,66.4,67.5,110,121,122.5,122.5,65,71,-72.5,71,165,175,183,183,376.5,SBD,
1,Max Bristow,M,1944-06-04,80,Australia,NSW,Single-ply,Open,Yes,66.4,67.5,110,121,122.5,122.5,65,71,-72.5,71,165,175,183,183,376.5,SBD,
1,Hunter McGarry,M,2002-10-09,22,Australia,NSW,Single-ply,Open,Yes,77.6,82.5,195,205,220,220,135,-142.5,,135,190,205,217.5,217.5,572.5,SBD,Central Coast Barbell
1,Dustin Burrell,M,1988-01-27,37,Australia,NSW,Sleeves,Open,Yes,98.6,100,,,,,145,-155,160,160,,,,,160,B,
1,Luke Price #1,M,1980-08-27,44,Australia,NSW,Sleeves,Open,Yes,123,125,,,,,180,190.5,-195,190.5,,,,,190.5,B,Central coast Barbell
2,Mark Lock,M,1990-09-19,34,Australia,NSW,Sleeves,Open,Yes,121.8,125,,,,,150,155,-160,155,,,,,155,B,
1,Matthew Eastcott,M,1975-07-09,49,Australia,NSW,Sleeves,Open,Yes,138.1,140,,,,,110,117.5,122.5,122.5,,,,,122.5,B,
