Division,WeightClassKg,Place,Name,Team,BodyweightKg,Best3SquatKg,Best3BenchKg,Best3DeadliftKg,TotalKg,Equipment,Event,Sex,BirthDate
Boys,51.71,1,Weston Porter,Millsap,48.99,165.56,97.52,158.76,421.84,Unlimited,SBD,M,
Boys,51.71,2,Carlos Hernandez,Alvord,49.17,122.47,68.04,136.08,326.59,Unlimited,SBD,M,
Boys,51.71,3,Tucker Strohmenger,Santo,50.53,120.2,63.5,120.2,303.91,Unlimited,SBD,M,
Boys,51.71,4,Caiden Damico,Millsap,51.71,90.72,56.7,102.06,249.48,Unlimited,SBD,M,
Boys,55.79,1,Isiah Gahagan,Alvord,54.88,142.88,83.91,138.35,365.14,Unlimited,SBD,M,
Boys,55.79,2,Blaine Fulton,Alvord,54.88,136.08,74.84,147.42,358.34,Unlimited,SBD,M,
Boys,59.87,1,Julius Salonga,Alvord,58.97,145.15,79.38,145.15,369.68,Unlimited,SBD,M,
Boys,59.87,2,Colton Elias,Millsap,57.42,136.08,99.79,122.47,358.34,Unlimited,SBD,M,
Boys,59.87,3,Rhone Leake,Millsap,58.79,86.18,79.38,129.27,294.84,Unlimited,SBD,M,
Boys,67.13,1,Jaxon Brown,Alvord,66.59,179.17,113.4,165.56,458.13,Unlimited,SBD,M,
Boys,67.13,2,Corbyn Archa,Alvord,64.59,154.22,113.4,172.37,439.98,Unlimited,SBD,M,
Boys,67.13,3,Levi Worthington,Paradise,65.86,158.76,111.13,163.29,433.18,Unlimited,SBD,M,
Boys,67.13,4,Gabriel Page,Paradise,62.14,163.29,92.99,145.15,401.43,Unlimited,SBD,M,
Boys,67.13,5,Colt Howry,Santo,63.68,147.42,68.04,151.95,367.41,Unlimited,SBD,M,
Boys,67.13,6,Greg Taylor,Santo,65.5,136.08,77.11,142.88,356.07,Unlimited,SBD,M,
Boys,67.13,7,Connor Meador,Millsap,65.5,115.67,77.11,136.08,328.85,Unlimited,SBD,M,
Boys,67.13,8,Jesse Jones,Millsap,63.05,77.11,45.36,81.65,204.12,Unlimited,SBD,M,
Boys,74.84,1,Kyle Gore,Millsap,72.3,208.65,142.88,192.78,544.31,Unlimited,SBD,M,
Boys,74.84,2,Torin Kiesendahl,Millsap,73.39,204.12,122.47,158.76,485.34,Unlimited,SBD,M,
Boys,74.84,3,Klayden Alvarado,Mineral Wells,72.3,183.7,92.99,181.44,458.13,Unlimited,SBD,M,
Boys,74.84,4,Zander Norman,Paradise,74.3,151.95,108.86,154.22,415.04,Unlimited,SBD,M,
Boys,74.84,5,Chris Brenner,Millsap,71.21,136.08,113.4,161.03,410.5,Unlimited,SBD,M,
Boys,74.84,6,Michael Slimp,Alvord,72.3,161.03,97.52,149.69,408.23,Unlimited,SBD,M,
Boys,74.84,7,Adrien Porter,Millsap,68.4,136.08,108.86,142.88,387.82,Unlimited,SBD,M,
Boys,74.84,8,Dylan Duran,Paradise,69.67,136.08,88.45,124.74,349.27,Unlimited,SBD,M,
Boys,82.1,1,Abdiel Solis,Millsap,81.1,226.8,161.03,208.65,596.47,Unlimited,SBD,M,
Boys,82.1,2,Collin Mann,Alvord,81.1,210.92,145.15,208.65,564.72,Unlimited,SBD,M,
Boys,82.1,3,Justin Hollingsworth,Santo,79.29,190.51,129.27,204.12,523.9,Unlimited,SBD,M,
Boys,82.1,4,Phillip Thomas,Millsap,76.38,183.7,136.08,195.04,514.83,Unlimited,SBD,M,
Boys,82.1,5,Bryson Taylor,Millsap,77.38,156.49,111.13,185.97,453.59,Unlimited,SBD,M,
Boys,82.1,6,Zayden Miller,Millsap,76.2,95.25,65.77,111.13,272.16,Unlimited,SBD,M,
Boys,89.81,1,Shannon Rogers,Mineral Wells,88.81,231.33,165.56,231.33,628.23,Unlimited,SBD,M,
Boys,89.81,2,Braun Johnson,Millsap,83.1,197.31,136.08,197.31,530.7,Unlimited,SBD,M,
Boys,89.81,3,Diego Marin,Santo,85.82,190.51,111.13,181.44,483.08,Unlimited,SBD,M,
Boys,89.81,4,Porter Winbourn,Santo,85.09,174.63,99.79,183.7,458.13,Unlimited,SBD,M,
Boys,89.81,5,Alex Bernon,Santo,83.64,165.56,99.79,170.1,435.45,Unlimited,SBD,M,
Boys,99.79,1,Zane Smith,Alvord,98.16,213.19,149.69,251.74,614.62,Unlimited,SBD,M,
Boys,99.79,2,Jimmy Thomas,Millsap,95.44,229.06,156.49,208.65,594.21,Unlimited,SBD,M,
Boys,99.79,3,Jaxan Simmons,Alvord,96.52,215.46,161.03,206.38,582.87,Unlimited,SBD,M,
Boys,99.79,4,Trent Yowell,Mineral Wells,94.26,215.46,151.95,210.92,578.33,Unlimited,SBD,M,
Boys,99.79,5,Ryder Burrow,Santo,93.17,204.12,124.74,238.14,566.99,Unlimited,SBD,M,
Boys,99.79,6,Samuel Thomas,Millsap,94.26,195.04,140.61,226.8,562.45,Unlimited,SBD,M,
Boys,99.79,7,Mathew Waggoner,Mineral Wells,91.08,208.65,113.4,195.04,517.1,Unlimited,SBD,M,
Boys,109.77,1,Luke Sides,Santo,104.05,263.08,170.1,244.94,678.12,Unlimited,SBD,M,
Boys,109.77,2,Matthew Gonzalez,Alvord,106.96,244.94,183.7,190.51,619.15,Unlimited,SBD,M,
Boys,109.77,3,Evan Myrick,Mineral Wells,108.77,219.99,181.44,206.38,607.81,Unlimited,SBD,M,
Boys,109.77,4,Michael Lockwood,Santo,105.32,183.7,145.15,226.8,555.65,Unlimited,SBD,M,
Boys,109.77,5,David Silva,Mineral Wells,100.52,188.24,165.56,192.78,546.58,Unlimited,SBD,M,
Boys,109.77,6,Easton McKelvain,Alvord,102.87,185.97,131.54,174.63,492.15,Unlimited,SBD,M,
Boys,109.77,7,Levi Tippie,Millsap,101.88,170.1,117.93,165.56,453.59,Unlimited,SBD,M,
Boys,109.77,8,Kade Brannon,Paradise,101.33,124.74,99.79,142.88,367.41,Unlimited,SBD,M,
Boys,109.77,9,Witten Balch,Santo,107.32,136.08,68.04,129.27,333.39,Unlimited,SBD,M,
Boys,109.77,DQ,Liam McBride,Paradise,108.59,204.12,,,,Unlimited,SBD,M,
Boys,124.74,1,Davis Kwasny,Alvord,121.88,226.8,167.83,188.24,582.87,Unlimited,SBD,M,
Boys,124.74,2,Korbin Nickell,Millsap,115.89,163.29,115.67,167.83,446.79,Unlimited,SBD,M,
Boys,124.74,3,Ian Fox,Alvord,119.39,170.1,104.33,167.83,442.25,Unlimited,SBD,M,
Boys,139.71,1,Javawn McKinney,Mineral Wells,129.27,238.14,145.15,267.62,650.91,Unlimited,SBD,M,
Boys,139.71,2,Josiah Zapata,Mineral Wells,130,226.8,145.15,231.33,603.28,Unlimited,SBD,M,
Boys,139.71,3,Brody Chapman,Santo,130.91,226.8,142.88,213.19,582.87,Unlimited,SBD,M,
Boys,139.71,4,Ronyn Brady,Alvord,131,172.37,99.79,142.88,415.04,Unlimited,SBD,M,
