Division,WeightClassKg,Place,Name,Team,BodyweightKg,Best3SquatKg,Best3BenchKg,Best3DeadliftKg,TotalKg,Equipment,Event,Sex,BirthDate
Boys,51.71,1,Tyler Hoang,Nederland,50.98,170.1,108.86,158.76,437.72,Unlimited,SBD,M,
Boys,51.71,2,Carmine Benavides,Texas City,50.98,158.76,90.72,149.69,399.16,Unlimited,SBD,M,
Boys,51.71,3,Aaron Hernandez,Conroe Grand Oaks,51.44,149.69,79.38,156.49,385.55,Unlimited,SBD,M,
Boys,51.71,4,Kam Rodriguez,Houston Spring Woods,50.89,136.08,81.65,140.61,358.34,Unlimited,SBD,M,
Boys,51.71,5,Tyler Vu,Dickinson,51.26,147.42,68.04,140.61,356.07,Unlimited,SBD,M,
Boys,51.71,6,Landon Arnold,Conroe The Woodlands,51.26,124.74,86.18,131.54,342.46,Unlimited,SBD,M,
Boys,51.71,7,Jesus Arroyo,New Caney,49.99,136.08,68.04,127.01,331.12,Unlimited,SBD,M,
Boys,51.71,8,Andrew Bowdoin,Pasadena Rayburn,51.71,111.13,65.77,127.01,303.91,Unlimited,SBD,M,
Boys,51.71,9,Israel Reyes,Dickinson,51.71,106.59,68.04,111.13,285.76,Unlimited,SBD,M,
Boys,51.71,10,Talen Perry-Vandruten,Clute Brazoswood,51.71,102.06,65.77,83.91,251.74,Unlimited,SBD,M,
Boys,51.71,11,Connor Lamar,Waller,46.36,95.25,47.63,102.06,244.94,Unlimited,SBD,M,
Boys,51.71,12,Logan Ha,Conroe The Woodlands,45,79.38,43.09,108.86,231.33,Unlimited,SBD,M,
Boys,55.79,1,Cruz Vera,Conroe,54.98,192.78,104.33,185.97,483.08,Unlimited,SBD,M,
Boys,55.79,2,Brandon Leblanc,Magnolia West,54.52,165.56,97.52,201.85,464.93,Unlimited,SBD,M,
Boys,55.79,3,Matthew Olague,New Caney,55.16,181.44,99.79,174.63,455.86,Unlimited,SBD,M,
Boys,55.79,4,Bryce Wiley,Conroe The Woodlands,54.79,170.1,88.45,165.56,424.11,Unlimited,SBD,M,
Boys,55.79,5,Trent Delahoussaye,Port Neches-Groves,55.43,136.08,113.4,158.76,408.23,Unlimited,SBD,M,
Boys,55.79,6,Tank Nguyen,Conroe,55.25,142.88,88.45,151.95,383.29,Unlimited,SBD,M,
Boys,55.79,7,Philip Yoakum,Dickinson,55.7,154.22,77.11,147.42,378.75,Unlimited,SBD,M,
Boys,55.79,8,Braidan Johnson,Baytown Goose Creek Memorial,55.25,142.88,83.91,145.15,371.95,Unlimited,SBD,M,
Boys,55.79,9,Seven Petteway,Clute Brazoswood,55.79,131.54,95.25,142.88,369.68,Unlimited,SBD,M,
Boys,55.79,10,Fisher Letsos,Galveston Ball,54.98,124.74,88.45,142.88,356.07,Unlimited,SBD,M,
Boys,55.79,11,Juan Guerrero,Channelview,55.52,129.27,74.84,124.74,328.85,Unlimited,SBD,M,
Boys,59.87,1,Rodrigo Benegas,Conroe,58.97,188.24,111.13,208.65,508.02,Unlimited,SBD,M,
Boys,59.87,2,Luis Santillan,New Caney,59.87,195.04,111.13,188.24,494.42,Unlimited,SBD,M,
Boys,59.87,3,Josyah Delekaita,Dickinson,59.87,190.51,97.52,176.9,464.93,Unlimited,SBD,M,
Boys,59.87,4,Santi Guerrero,Conroe The Woodlands,59.42,183.7,99.79,170.1,453.59,Unlimited,SBD,M,
Boys,59.87,5,Braylnn Harris,Texas City,58.79,181.44,70.31,181.44,433.18,Unlimited,SBD,M,
Boys,59.87,6,Steven Tran,Houston Aldine,58.69,151.95,72.57,188.24,412.77,Unlimited,SBD,M,
Boys,59.87,7,Steven Lozano,Conroe Grand Oaks,59.42,145.15,88.45,176.9,410.5,Unlimited,SBD,M,
Boys,59.87,8,Nathan Johnson,Baytown Goose Creek Memorial,59.6,149.69,97.52,149.69,396.89,Unlimited,SBD,M,
Boys,59.87,DQ,Yves Pham,Alvin Shadow Creek,57.42,145.15,,,,Unlimited,SBD,M,
Boys,59.87,DQ,Elite Vu,Alvin Shadow Creek,58.97,154.22,106.59,,,Unlimited,SBD,M,
Boys,59.87,DQ,Thomas Trinh,Conroe Grand Oaks,59.51,156.49,,,,Unlimited,SBD,M,
Boys,59.87,DQ,Miguel Velez,League City Clear Creek,59.69,204.12,,,,Unlimited,SBD,M,
Boys,67.13,1,Rogelio Barrera,Conroe,66.95,258.55,165.56,272.16,696.26,Unlimited,SBD,M,
Boys,67.13,2,Aaron Arratia,Dickinson,66.32,240.4,117.93,231.33,589.67,Unlimited,SBD,M,
Boys,67.13,3,Macoy Noack,Conroe The Woodlands,66.5,219.99,151.95,199.58,571.53,Unlimited,SBD,M,
Boys,67.13,4,Jesus Alaniz,Alvin,66.95,238.14,113.4,215.46,566.99,Unlimited,SBD,M,
Boys,67.13,5,Caleb Abbott,Magnolia,65.59,210.92,138.35,210.92,560.19,Unlimited,SBD,M,
Boys,67.13,6,Alex Hunt,Conroe Woodlands College Park,66.32,192.78,145.15,213.19,551.11,Unlimited,SBD,M,
Boys,67.13,7,Christian Garcia,Magnolia West,66.95,206.38,147.42,195.04,548.85,Unlimited,SBD,M,
Boys,67.13,8,Logan Alegria,Alvin,65.41,217.72,117.93,208.65,544.31,Unlimited,SBD,M,
Boys,67.13,9,Jerry Contreras,Conroe The Woodlands,66.13,204.12,120.2,219.99,544.31,Unlimited,SBD,M,
Boys,67.13,10,David Jimenez,Alvin Shadow Creek,64.5,210.92,106.59,219.99,537.51,Unlimited,SBD,M,
Boys,67.13,11,Grayson Weeks,Dayton,66.04,199.58,104.33,199.58,503.49,Unlimited,SBD,M,
Boys,67.13,12,Diego Manteca,Waller,65.95,210.92,108.86,174.63,494.42,Unlimited,SBD,M,
Boys,74.84,1,Caysen Guerra,Nederland,74.12,254.01,136.08,229.06,619.15,Unlimited,SBD,M,
Boys,74.84,2,Aden Arredondo,Dickinson,73.84,238.14,151.95,226.8,616.89,Unlimited,SBD,M,
Boys,74.84,3,Ethan Haynes,Willis,72.57,242.67,131.54,215.46,589.67,Unlimited,SBD,M,
Boys,74.84,4,Gabe Zamora,Conroe Grand Oaks,72.67,226.8,136.08,226.8,589.67,Unlimited,SBD,M,
Boys,74.84,5,Esteban Nava,Pasadena Rayburn,73.3,204.12,138.35,247.21,589.67,Unlimited,SBD,M,
Boys,74.84,6,Jamarcus Ealy,Conroe The Woodlands,74.03,226.8,145.15,217.72,589.67,Unlimited,SBD,M,
Boys,74.84,7,Jonathan Martin,Beaumont United,74.84,217.72,124.74,247.21,589.67,Unlimited,SBD,M,
Boys,74.84,8,Landen Gunter,League City Clear Creek,71.67,229.06,127.01,219.99,576.06,Unlimited,SBD,M,
Boys,74.84,9,Marco Rodriguez,Dickinson,74.48,251.74,120.2,201.85,573.79,Unlimited,SBD,M,
Boys,74.84,10,Colton Olsen,Conroe Oak Ridge,73.84,238.14,115.67,215.46,569.26,Unlimited,SBD,M,
Boys,74.84,11,Carlos Ruiz,New Caney Porter,72.67,215.46,124.74,210.92,551.11,Unlimited,SBD,M,
Boys,74.84,DQ,Luis Rodriguez,Conroe Caney Creek,74.84,215.46,131.54,,,Unlimited,SBD,M,
Boys,82.1,1,Cody Kelley,Montgomery Lake Creek,80.65,272.16,163.29,260.82,696.26,Unlimited,SBD,M,
Boys,82.1,2,Cace Jones,Dickinson,79.56,249.48,129.27,258.55,637.3,Unlimited,SBD,M,
Boys,82.1,3,Brian Leonardo,Conroe Oak Ridge,80.47,251.74,158.76,226.8,637.3,Unlimited,SBD,M,
Boys,82.1,4,Jonathan Sagastizado,Dickinson,80.38,247.21,133.81,238.14,619.15,Unlimited,SBD,M,
Boys,82.1,5,Jacob Gober,Willis,80.47,217.72,156.49,238.14,612.35,Unlimited,SBD,M,
Boys,82.1,6,Riley Stewart,Conroe,80.47,251.74,136.08,224.53,612.35,Unlimited,SBD,M,
Boys,82.1,7,Jesse Rodgers,Conroe Grand Oaks,80.56,226.8,156.49,229.06,612.35,Unlimited,SBD,M,
Boys,82.1,8,Wyatt Ford,Montgomery Lake Creek,81.1,238.14,142.88,231.33,612.35,Unlimited,SBD,M,
Boys,82.1,9,Nicolas Alfaro,Conroe Woodlands College Park,81.47,231.33,145.15,215.46,591.94,Unlimited,SBD,M,
Boys,82.1,10,Brooks Woodruff,Conroe The Woodlands,80.1,224.53,142.88,219.99,587.4,Unlimited,SBD,M,
Boys,82.1,11,Joseph Wilson,Conroe Oak Ridge,81.37,208.65,122.47,254.01,585.13,Unlimited,SBD,M,
Boys,82.1,DQ,Fabian Garza,Pasadena Memorial,80.65,229.06,,,,Unlimited,SBD,M,
Boys,89.81,1,Challinyer Aguirre,Houston Northbrook,88.63,240.4,181.44,263.08,684.92,Unlimited,SBD,M,
Boys,89.81,2,Garrett Loar,Willis,88,256.28,165.56,238.14,659.98,Unlimited,SBD,M,
Boys,89.81,3,Jonathan Nation,Pearland Dawson,89.81,260.82,142.88,256.28,659.98,Unlimited,SBD,M,
Boys,89.81,4,Zach Lunn,Conroe Grand Oaks,86,244.94,154.22,235.87,635.03,Unlimited,SBD,M,
Boys,89.81,5,Ian Pippins-Moon,Magnolia,86.55,265.35,138.35,231.33,635.03,Unlimited,SBD,M,
Boys,89.81,6,Efren Figueroa,Alvin Shadow Creek,88,258.55,142.88,233.6,635.03,Unlimited,SBD,M,
Boys,89.81,7,Eric Steil,Port Neches-Groves,88.36,258.55,133.81,242.67,635.03,Unlimited,SBD,M,
Boys,89.81,8,Andrew Tran,Montgomery,89.36,256.28,142.88,235.87,635.03,Unlimited,SBD,M,
Boys,89.81,9,Levi Fontenot,Crosby,88.54,254.01,117.93,242.67,614.62,Unlimited,SBD,M,
Boys,89.81,10,Hudson Windsor,Pearland Dawson,89.81,247.21,142.88,213.19,603.28,Unlimited,SBD,M,
Boys,89.81,11,Reese Lehmann,Pearland Dawson,89.81,240.4,129.27,231.33,601.01,Unlimited,SBD,M,
Boys,89.81,12,Sutton Goss,Magnolia,87.63,222.26,136.08,235.87,594.21,Unlimited,SBD,M,
Boys,89.81,DQ,Andrew Ortiz,Magnolia,88.27,,,,,Unlimited,SBD,M,
Boys,99.79,1,Mathew Sabo,Magnolia West,99.61,317.51,206.38,272.16,796.05,Unlimited,SBD,M,
Boys,99.79,2,Cayden Clayton,Conroe The Woodlands,92.99,310.71,174.63,247.21,732.55,Unlimited,SBD,M,
Boys,99.79,3,Tony Teeples,Texas City,98.34,272.16,156.49,260.82,689.46,Unlimited,SBD,M,
Boys,99.79,4,Fred Kalu,Manvel,94.44,235.87,172.37,249.48,657.71,Unlimited,SBD,M,
Boys,99.79,5,Christian Hall,Willis,95.98,249.48,167.83,240.4,657.71,Unlimited,SBD,M,
Boys,99.79,6,Jay Reroma,Dickinson,98.97,267.62,151.95,238.14,657.71,Unlimited,SBD,M,
Boys,99.79,7,Ryan Thompson,Santa Fe,96.98,240.4,154.22,249.48,644.1,Unlimited,SBD,M,
Boys,99.79,8,Franklin Alfaro,Santa Fe,99.61,238.14,161.03,229.06,628.23,Unlimited,SBD,M,
Boys,99.79,9,Armando Perez,Katy Mayde Creek,95.07,251.74,145.15,226.8,623.69,Unlimited,SBD,M,
Boys,99.79,10,Salatiel Trujillo,Houston Aldine,97.16,217.72,151.95,249.48,619.15,Unlimited,SBD,M,
Boys,99.79,11,Cameron Hall,Conroe Woodlands College Park,97.7,242.67,149.69,217.72,610.08,Unlimited,SBD,M,
Boys,99.79,DQ,Aaron Raya,League City Clear Creek,97.98,226.8,154.22,,,Unlimited,SBD,M,
Boys,109.77,1,Chidi Adighibe,Katy Mayde Creek,106.96,297.1,158.76,249.48,705.34,Unlimited,SBD,M,
Boys,109.77,2,Lance Willingham,Dayton,101.24,267.62,170.1,242.67,680.39,Unlimited,SBD,M,
Boys,109.77,3,Cooper Hydock,Montgomery,106.14,276.69,154.22,249.48,680.39,Unlimited,SBD,M,
Boys,109.77,4,Emilio Martinez,Dickinson,108.14,285.76,147.42,247.21,680.39,Unlimited,SBD,M,
Boys,109.77,5,Jacob Baez,Alvin,104.42,276.69,158.76,231.33,666.78,Unlimited,SBD,M,
Boys,109.77,6,Matthew Westmoreland,Conroe,104.96,238.14,158.76,260.82,657.71,Unlimited,SBD,M,
Boys,109.77,7,James Dickerson,Conroe Woodlands College Park,107.5,244.94,167.83,233.6,646.37,Unlimited,SBD,M,
Boys,109.77,8,Nathan Guerra,Texas City,108.32,276.69,167.83,185.97,630.49,Unlimited,SBD,M,
Boys,109.77,9,Nate Klie,Conroe The Woodlands,104.14,263.08,154.22,210.92,628.23,Unlimited,SBD,M,
Boys,109.77,10,Maxx Vazquez,Dickinson,104.05,272.16,131.54,215.46,619.15,Unlimited,SBD,M,
Boys,109.77,11,Marque Johnson,Conroe,99.97,244.94,140.61,231.33,616.89,Unlimited,SBD,M,
Boys,109.77,12,Larry Brooks,Manvel,109.68,263.08,122.47,226.8,612.35,Unlimited,SBD,M,
Boys,109.77,DQ,Gavin Ramirez,Crosby,103.69,242.67,124.74,,,Unlimited,SBD,M,
Boys,124.74,1,William Yang,Conroe Grand Oaks,117.93,328.85,185.97,303.91,818.73,Unlimited,SBD,M,
Boys,124.74,2,Jacob Harris,Conroe Oak Ridge,122.29,317.51,199.58,294.84,811.93,Unlimited,SBD,M,
Boys,124.74,3,Kris Whitley,Clute Brazoswood,122.2,274.42,181.44,222.26,678.12,Unlimited,SBD,M,
Boys,124.74,4,Caleb Fletcher,Willis,118.66,283.5,172.37,219.99,675.85,Unlimited,SBD,M,
Boys,124.74,5,Layton Mann,Montgomery Lake Creek,121.38,258.55,174.63,238.14,671.32,Unlimited,SBD,M,
Boys,124.74,6,Leighton Geiman,Waller,121.29,249.48,170.1,238.14,657.71,Unlimited,SBD,M,
Boys,124.74,7,Aiden Kaplan,Montgomery Lake Creek,120.47,244.94,170.1,231.33,646.37,Unlimited,SBD,M,
Boys,124.74,8,Logan Hilton,Willis,121.11,254.01,174.63,208.65,637.3,Unlimited,SBD,M,
Boys,124.74,9,Kenneth Williams,Texas City,114.85,281.23,136.08,197.31,614.62,Unlimited,SBD,M,
Boys,124.74,10,Peyton Robinson,Conroe Woodlands College Park,115.3,251.74,156.49,201.85,610.08,Unlimited,SBD,M,
Boys,124.74,11,Marc Pedraza,Pearland,121.93,249.48,136.08,208.65,594.21,Unlimited,SBD,M,
Boys,124.74,DQ,Christian Gladney,Beaumont United,118.21,249.48,172.37,,,Unlimited,SBD,M,
Boys,139.71,1,Cobe Williams,Conroe Woodlands College Park,132.99,353.8,215.46,274.42,843.68,Unlimited,SBD,M,
Boys,139.71,2,Jacob Pitzer,Conroe,127.1,308.44,192.78,249.48,750.7,Unlimited,SBD,M,
Boys,139.71,3,Arthur Hebert,Beaumont West Brook,130.45,306.17,179.17,226.8,712.14,Unlimited,SBD,M,
Boys,139.71,4,Aiden Demmon,Pearland,132.81,299.37,124.74,288.03,712.14,Unlimited,SBD,M,
Boys,139.71,5,Luis Morales,Pearland,132.9,299.37,154.22,251.74,705.34,Unlimited,SBD,M,
Boys,139.71,6,Ford Ivey,Willis,126.1,254.01,181.44,249.48,684.92,Unlimited,SBD,M,
Boys,139.71,7,Cameron DelRey,Conroe Oak Ridge,126.82,272.16,170.1,235.87,678.12,Unlimited,SBD,M,
Boys,139.71,8,Finn Madding,Alvin,130.82,274.42,170.1,226.8,671.32,Unlimited,SBD,M,
Boys,139.71,9,Ian Cortez,Texas City,130.18,283.5,140.61,210.92,635.03,Unlimited,SBD,M,
Boys,139.71,10,Carson Berg,Conroe Woodlands College Park,131.45,256.28,183.7,195.04,635.03,Unlimited,SBD,M,
Boys,139.71,11,Anthony Lozano,Texas City,126.28,249.48,140.61,233.6,623.69,Unlimited,SBD,M,
Boys,139.71,12,Braxton Bowling,Crosby,130.18,265.35,124.74,217.72,607.81,Unlimited,SBD,M,
Boys,139.71+,1,Aden Boutte,Channelview,154.13,333.39,170.1,281.23,784.71,Unlimited,SBD,M,
Boys,139.71+,2,Joshua Henry,Conroe Caney Creek,168.37,292.57,188.24,249.48,730.28,Unlimited,SBD,M,
Boys,139.71+,3,Alexander Romero,Dayton,149.87,317.51,149.69,240.4,707.6,Unlimited,SBD,M,
Boys,139.71+,4,David Escobedo,Pearland Dawson,140.61,288.03,167.83,231.33,687.19,Unlimited,SBD,M,
Boys,139.71+,5,Adrian Arellano,Baytown Goose Creek Memorial,150.05,276.69,165.56,240.4,682.66,Unlimited,SBD,M,
Boys,139.71+,6,Clint Fogie,Pearland Dawson,140.61,274.42,156.49,224.53,655.44,Unlimited,SBD,M,
Boys,139.71+,7,Tyler Jones,Texas City,155.58,272.16,140.61,226.8,639.57,Unlimited,SBD,M,
Boys,139.71+,8,Micah Williams,Manvel,142.61,272.16,156.49,206.38,635.03,Unlimited,SBD,M,
Boys,139.71+,9,Levi Zaunbrecher,Conroe The Woodlands,144.15,263.08,147.42,222.26,632.76,Unlimited,SBD,M,
Boys,139.71+,10,Mathew DeHoyos,Dayton,145.88,235.87,127.01,226.8,589.67,Unlimited,SBD,M,
Boys,139.71+,DQ,Anthony Reyes,Pearland,173.41,294.84,142.88,,,Unlimited,SBD,M,
Boys,139.71+,DQ,Guy Curl,Beaumont United,182.25,258.55,,,,Unlimited,SBD,M,
